axi4_ram_slave_tb.vcd
$date
	Sat Sep  6 15:21:21 2025
$end
$version
	Icarus Verilog
$end
$timescale
	1ps
$end
$scope module tb_axi4_ram_slave $end
$var wire 1 ! wready $end
$var wire 1 " rvalid $end
$var wire 2 # rresp [1:0] $end
$var wire 32 $ rdata [31:0] $end
$var wire 1 % bvalid $end
$var wire 2 & bresp [1:0] $end
$var wire 1 ' awready $end
$var wire 1 ( arready $end
$var reg 32 ) araddr [31:0] $end
$var reg 1 * arvalid $end
$var reg 32 + awaddr [31:0] $end
$var reg 1 , awvalid $end
$var reg 1 - bready $end
$var reg 1 . clk $end
$var reg 1 / resetn $end
$var reg 1 0 rready $end
$var reg 32 1 tmp [31:0] $end
$var reg 32 2 wdata [31:0] $end
$var reg 4 3 wstrb [3:0] $end
$var reg 1 4 wvalid $end
$scope module dut $end
$var wire 32 5 araddr [31:0] $end
$var wire 1 * arvalid $end
$var wire 32 6 awaddr [31:0] $end
$var wire 1 , awvalid $end
$var wire 1 - bready $end
$var wire 1 . clk $end
$var wire 1 / resetn $end
$var wire 1 0 rready $end
$var wire 32 7 wdata [31:0] $end
$var wire 4 8 wstrb [3:0] $end
$var wire 1 4 wvalid $end
$var reg 1 ( arready $end
$var reg 1 9 aw_captured $end
$var reg 1 ' awready $end
$var reg 2 : bresp [1:0] $end
$var reg 1 % bvalid $end
$var reg 32 ; cur [31:0] $end
$var reg 32 < rd_addr_q [31:0] $end
$var reg 32 = rdata [31:0] $end
$var reg 2 > rresp [1:0] $end
$var reg 1 " rvalid $end
$var reg 32 ? wr_addr_q [31:0] $end
$var reg 1 ! wready $end
$upscope $end
$scope task axi_read $end
$var reg 32 @ addr [31:0] $end
$var reg 32 A data [31:0] $end
$upscope $end
$scope task axi_write $end
$var reg 32 B addr [31:0] $end
$var reg 32 C data [31:0] $end
$var reg 4 D strb [3:0] $end
$upscope $end
$upscope $end
$enddefinitions $end
#0
$dumpvars
bx D
bx C
bx B
bx A
bx @
bx ?
bx >
bx =
bx <
bx ;
bx :
x9
b0 8
b0 7
b0 6
b0 5
04
b0 3
b0 2
bx 1
00
0/
0.
0-
0,
b0 +
0*
b0 )
x(
x'
bx &
x%
bx $
bx #
x"
x!
$end
#5000
09
b0 ?
b0 &
b0 :
0%
0!
0'
b0 <
b0 $
b0 =
b0 #
b0 >
0"
0(
1.
#10000
0.
#15000
1.
#20000
0.
#25000
1.
#30000
0.
#35000
1-
14
b1111 3
b1111 8
b11011110101011011011111011101111 2
b11011110101011011011111011101111 7
1,
b1111 D
b11011110101011011011111011101111 C
b0 B
1/
1.
#40000
0.
#45000
19
1'
1.
#50000
0.
#55000
0,
1%
1!
0'
b11011110101011011011111011101111 ;
1.
#60000
0.
#65000
09
0%
0!
04
1.
#70000
0.
#75000
14
b10010001101000101011001111000 2
b10010001101000101011001111000 7
1,
b100 +
b100 6
1-
b10010001101000101011001111000 C
b100 B
1.
#80000
0.
#85000
19
b100 ?
1'
1.
#90000
0.
#95000
0,
1%
1!
0'
b10010001101000101011001111000 ;
1.
#100000
0.
#105000
09
0%
0!
04
1.
#110000
0.
#115000
14
b11001010111111101011101010111110 2
b11001010111111101011101010111110 7
1,
b1000 +
b1000 6
1-
b11001010111111101011101010111110 C
b1000 B
1.
#120000
0.
#125000
19
b1000 ?
1'
1.
#130000
0.
#135000
0,
1%
1!
0'
b11001010111111101011101010111110 ;
1.
#140000
0.
#145000
09
0%
0!
04
1.
#150000
0.
#155000
10
1*
0-
b0 @
1.
#160000
0.
#165000
1"
b11011110101011011011111011101111 $
b11011110101011011011111011101111 =
1(
1.
#170000
0.
#175000
b100 )
b100 5
10
1*
0"
0(
b100 @
b11011110101011011011111011101111 1
b11011110101011011011111011101111 A
1.
#180000
0.
#185000
1"
b10010001101000101011001111000 $
b10010001101000101011001111000 =
b100 <
1(
1.
#190000
0.
#195000
b1000 )
b1000 5
10
1*
0"
0(
b1000 @
b10010001101000101011001111000 1
b10010001101000101011001111000 A
1.
#200000
0.
#205000
1"
b11001010111111101011101010111110 $
b11001010111111101011101010111110 =
b1000 <
1(
1.
#210000
0.
#215000
1-
14
b1 3
b1 8
b10101010 2
b10101010 7
1,
b0 +
b0 6
00
0*
0"
0(
b1 D
b10101010 C
b0 B
b11001010111111101011101010111110 1
b11001010111111101011101010111110 A
1.
#220000
0.
#225000
19
b0 ?
1'
1.
#230000
0.
#235000
0,
1%
1!
0'
b11011110101011011011111010101010 ;
1.
#240000
0.
#245000
09
0%
0!
04
1.
#250000
0.
#255000
10
1*
b0 )
b0 5
0-
b0 @
1.
#260000
0.
#265000
1"
b11011110101011011011111010101010 $
b11011110101011011011111010101010 =
b0 <
1(
1.
#270000
0.
#275000
1-
14
b100 3
b100 8
b101110110000000000000000 2
b101110110000000000000000 7
1,
00
0*
0"
0(
b100 D
b101110110000000000000000 C
b11011110101011011011111010101010 1
b11011110101011011011111010101010 A
1.
#280000
0.
#285000
19
1'
1.
#290000
0.
#295000
0,
1%
1!
0'
b11011110101110111011111010101010 ;
1.
#300000
0.
#305000
09
0%
0!
04
1.
#310000
0.
#315000
10
1*
0-
1.
#320000
0.
#325000
1"
b11011110101110111011111010101010 $
b11011110101110111011111010101010 =
1(
1.
#330000
0.
#335000
00
0*
0"
0(
b11011110101110111011111010101010 1
b11011110101110111011111010101010 A
1.
