block_erase_tb.vcd
$date
	Wed Sep 10 00:18:49 2025
$end
$version
	Icarus Verilog
$end
$timescale
	1ps
$end
$scope module block_erase_tb $end
$var wire 4 ! io [3:0] $end
$var wire 1 " pready $end
$var wire 1 # sclk $end
$var wire 1 $ pslverr $end
$var wire 32 % prdata [31:0] $end
$var wire 1 & m_wvalid $end
$var wire 4 ' m_wstrb [3:0] $end
$var wire 1 ( m_wready $end
$var wire 32 ) m_wdata [31:0] $end
$var wire 1 * m_rvalid $end
$var wire 2 + m_rresp [1:0] $end
$var wire 1 , m_rready $end
$var wire 32 - m_rdata [31:0] $end
$var wire 1 . m_bvalid $end
$var wire 2 / m_bresp [1:0] $end
$var wire 1 0 m_bready $end
$var wire 1 1 m_awvalid $end
$var wire 1 2 m_awready $end
$var wire 32 3 m_awaddr [31:0] $end
$var wire 1 4 m_arvalid $end
$var wire 1 5 m_arready $end
$var wire 32 6 m_araddr [31:0] $end
$var wire 1 7 irq $end
$var wire 1 8 cs_n $end
$var reg 1 9 clk $end
$var reg 32 : d [31:0] $end
$var reg 12 ; paddr [11:0] $end
$var reg 1 < penable $end
$var reg 1 = psel $end
$var reg 4 > pstrb [3:0] $end
$var reg 32 ? pwdata [31:0] $end
$var reg 1 @ pwrite $end
$var reg 1 A resetn $end
$var integer 32 B i [31:0] $end
$upscope $end
$enddefinitions $end
#0
$dumpvars
bx B
0A
0@
b0 ?
b0 >
0=
0<
b0 ;
bx :
09
18
07
bx 6
05
x4
bx 3
02
x1
x0
b0 /
0.
b0 -
x,
b0 +
0*
bx )
0(
bx '
x&
b0 %
0$
0#
1"
bz !
$end
#5000
0,
04
b0 6
00
b1111 '
0&
b0 )
01
b0 3
19
#10000
09
#15000
19
#20000
09
#25000
19
#30000
09
#35000
19
#40000
09
#45000
19
#50000
09
#55000
19
#60000
09
#65000
19
#70000
09
#75000
15
1(
12
1A
19
#80000
09
#85000
b1111 >
b1 ?
b100 ;
1@
1=
19
#90000
09
#95000
1<
19
#100000
09
#105000
b0 >
b0 ?
b0 ;
0@
0<
0=
19
#110000
09
#115000
b1111 >
b111 ?
b10100 ;
1@
1=
19
#120000
09
#125000
1<
19
#130000
09
#135000
b0 >
b0 ?
b0 ;
0@
0<
0=
19
#140000
09
#145000
b1111 >
b11001 ?
b11000 ;
1@
1=
19
#150000
09
#155000
1<
19
#160000
09
#165000
b0 >
b0 ?
b0 ;
0@
0<
0=
19
#170000
09
#175000
b1111 >
b100100 ;
1@
1=
19
#180000
09
#185000
1<
19
#190000
09
#195000
b0 >
b0 ;
0@
0<
0=
19
#200000
09
#205000
b1111 >
b110 ?
b101000 ;
1@
1=
19
#210000
09
#215000
1<
19
#220000
09
#225000
b0 >
b0 ?
b0 ;
0@
0<
0=
19
#230000
09
#235000
b1111 >
b110000 ;
1@
1=
19
#240000
09
#245000
1<
19
#250000
09
#255000
b0 >
b0 ;
0@
0<
0=
19
#260000
09
#265000
b1111 >
b100000001 ?
b100 ;
1@
1=
19
#270000
09
#275000
1<
19
#280000
09
#285000
b0 >
b0 ?
b0 ;
0@
0<
0=
19
#290000
09
#295000
b1000 ;
1=
19
#300000
09
#305000
b1000 %
1<
19
#310000
09
#315000
b0 %
08
b0 ;
0<
0=
19
#320000
09
#325000
19
#330000
09
#335000
19
#340000
09
#345000
19
#350000
09
#355000
bz0 !
19
