checklist_tb.vcd
$date
	Wed Sep 10 00:13:55 2025
$end
$version
	Icarus Verilog
$end
$timescale
	1ps
$end
$scope module checklist_tb $end
$var wire 4 ! io [3:0] $end
$var wire 1 " pready $end
$var wire 1 # xip_en_w $end
$var wire 1 $ sclk $end
$var wire 1 % quad_en_w $end
$var wire 1 & pslverr $end
$var wire 32 ' prdata [31:0] $end
$var wire 8 ( opcode_w [7:0] $end
$var wire 1 ) mode_en_w $end
$var wire 8 * mode_bits_w [7:0] $end
$var wire 1 + m_wvalid $end
$var wire 4 , m_wstrb [3:0] $end
$var wire 1 - m_wready $end
$var wire 32 . m_wdata [31:0] $end
$var wire 1 / m_rvalid $end
$var wire 2 0 m_rresp [1:0] $end
$var wire 1 1 m_rready $end
$var wire 32 2 m_rdata [31:0] $end
$var wire 1 3 m_bvalid $end
$var wire 2 4 m_bresp [1:0] $end
$var wire 1 5 m_bready $end
$var wire 1 6 m_awvalid $end
$var wire 1 7 m_awready $end
$var wire 32 8 m_awaddr [31:0] $end
$var wire 1 9 m_arvalid $end
$var wire 1 : m_arready $end
$var wire 32 ; m_araddr [31:0] $end
$var wire 1 < is_write_w $end
$var wire 1 = fsm_tx_ren_w $end
$var wire 1 > fsm_start_w $end
$var wire 1 ? fsm_rx_wen_w $end
$var wire 32 @ fsm_rx_data_w [31:0] $end
$var wire 1 A fsm_done_w $end
$var wire 1 B fifo_tx_we_csr_w $end
$var wire 32 C fifo_tx_rd_data_w [31:0] $end
$var wire 5 D fifo_tx_level_w [4:0] $end
$var wire 1 E fifo_tx_full_w $end
$var wire 1 F fifo_tx_empty_w $end
$var wire 32 G fifo_tx_data_csr_w [31:0] $end
$var wire 1 H fifo_rx_re_dma_w $end
$var wire 1 I fifo_rx_re_csr_w $end
$var wire 32 J fifo_rx_rd_data_w [31:0] $end
$var wire 5 K fifo_rx_level_w [4:0] $end
$var wire 1 L fifo_rx_full_w $end
$var wire 1 M fifo_rx_empty_w $end
$var wire 8 N extra_dummy_w [7:0] $end
$var wire 1 O enable_w $end
$var wire 4 P dummy_cycles_w [3:0] $end
$var wire 1 Q dma_en_w $end
$var wire 1 R dma_done_set_w $end
$var wire 1 S dma_busy_w $end
$var wire 1 T dma_axi_err_w $end
$var wire 2 U data_lanes_w [1:0] $end
$var wire 1 V cs_n $end
$var wire 2 W cs_level_w [1:0] $end
$var wire 2 X cs_delay_w [1:0] $end
$var wire 1 Y cs_auto_w $end
$var wire 1 Z cpol_w $end
$var wire 1 [ cpha_w $end
$var wire 1 \ cmd_trigger_clr_w $end
$var wire 1 ] cmd_start_w $end
$var wire 32 ^ cmd_len_w [31:0] $end
$var wire 2 _ cmd_lanes_w [1:0] $end
$var wire 32 ` cmd_addr_w [31:0] $end
$var wire 3 a clk_div_w [2:0] $end
$var wire 2 b addr_lanes_w [1:0] $end
$var wire 2 c addr_bytes_w [1:0] $end
$var reg 1 d axi_err_i $end
$var reg 1 e clk $end
$var reg 32 f d [31:0] $end
$var reg 1 g overrun_i $end
$var reg 12 h paddr [11:0] $end
$var reg 1 i penable $end
$var reg 1 j psel $end
$var reg 4 k pstrb [3:0] $end
$var reg 32 l pwdata [31:0] $end
$var reg 1 m pwrite $end
$var reg 1 n resetn $end
$var reg 1 o rx_full_i $end
$var reg 4 p rx_level_i [3:0] $end
$var reg 1 q timeout_i $end
$var reg 1 r tx_empty_i $end
$var reg 4 s tx_level_i [3:0] $end
$var reg 1 t underrun_i $end
$var integer 32 u failed [31:0] $end
$var integer 32 v passed [31:0] $end
$var integer 32 w total [31:0] $end
$scope module dev $end
$var wire 1 x qspi_io0 $end
$var wire 1 y qspi_io1 $end
$var wire 1 z qspi_io2 $end
$var wire 1 { qspi_io3 $end
$var wire 1 $ qspi_sclk $end
$var wire 1 V qspi_cs_n $end
$var wire 4 | io_di [3:0] $end
$var reg 24 } addr_reg [23:0] $end
$var reg 32 ~ bit_cnt [31:0] $end
$var reg 32 !" byte_cnt [31:0] $end
$var reg 8 "" cmd_reg [7:0] $end
$var reg 1 #" continuous_read $end
$var reg 64 $" cs_high_accum_t [63:0] $end
$var reg 64 %" cs_high_last_t [63:0] $end
$var reg 64 &" cs_high_start_t [63:0] $end
$var reg 5 '" dummy_cycles [4:0] $end
$var reg 32 (" erase_counter [31:0] $end
$var reg 2 )" id_idx [1:0] $end
$var reg 24 *" id_reg [23:0] $end
$var reg 4 +" io_do [3:0] $end
$var reg 4 ," io_oe [3:0] $end
$var reg 4 -" lanes [3:0] $end
$var reg 1 ." last_cmd_wren $end
$var reg 8 /" mode_bits [7:0] $end
$var reg 32 0" nxt_addr_reg [31:0] $end
$var reg 32 1" nxt_bit_cnt [31:0] $end
$var reg 8 2" nxt_cmd_reg [7:0] $end
$var reg 8 3" shift_in [7:0] $end
$var reg 8 4" shift_out [7:0] $end
$var reg 4 5" state [3:0] $end
$var reg 8 6" status_reg [7:0] $end
$var reg 1 7" wip $end
$scope begin $unm_blk_214 $end
$var integer 32 8" i [31:0] $end
$upscope $end
$scope begin $unm_blk_240 $end
$var integer 32 9" j [31:0] $end
$upscope $end
$scope begin $unm_blk_251 $end
$var integer 32 :" j [31:0] $end
$upscope $end
$upscope $end
$scope module u_ce $end
$var wire 2 ;" addr_bytes_o [1:0] $end
$var wire 2 <" addr_lanes_o [1:0] $end
$var wire 32 =" addr_o [31:0] $end
$var wire 1 e clk $end
$var wire 3 >" clk_div_o [2:0] $end
$var wire 2 ?" cmd_lanes_o [1:0] $end
$var wire 1 @" cpha_o $end
$var wire 1 A" cpol_o $end
$var wire 1 B" cs_auto_o $end
$var wire 2 C" data_lanes_o [1:0] $end
$var wire 1 D" dir_o $end
$var wire 4 E" dummy_cycles_o [3:0] $end
$var wire 32 F" len_o [31:0] $end
$var wire 8 G" mode_bits_o [7:0] $end
$var wire 1 H" mode_en_o $end
$var wire 8 I" opcode_o [7:0] $end
$var wire 1 J" quad_en_i $end
$var wire 1 K" quad_en_o $end
$var wire 1 n resetn $end
$var wire 1 L" xip_cont_read_i $end
$var wire 1 M" xip_cont_read_o $end
$var wire 8 N" opcode_i [7:0] $end
$var wire 1 ) mode_en_i $end
$var wire 8 O" mode_bits_i [7:0] $end
$var wire 1 < is_write_i $end
$var wire 8 P" extra_dummy_i [7:0] $end
$var wire 4 Q" dummy_cycles_i [3:0] $end
$var wire 1 A done_i $end
$var wire 2 R" data_lanes_i [1:0] $end
$var wire 1 Y cs_auto_i $end
$var wire 1 Z cpol_i $end
$var wire 1 [ cpha_i $end
$var wire 1 ] cmd_start_i $end
$var wire 32 S" cmd_len_i [31:0] $end
$var wire 2 T" cmd_lanes_i [1:0] $end
$var wire 32 U" cmd_addr_i [31:0] $end
$var wire 3 V" clk_div_i [2:0] $end
$var wire 2 W" addr_lanes_i [1:0] $end
$var wire 2 X" addr_bytes_i [1:0] $end
$var reg 2 Y" addr_bytes_r [1:0] $end
$var reg 2 Z" addr_lanes_r [1:0] $end
$var reg 32 [" addr_r [31:0] $end
$var reg 1 \" busy_o $end
$var reg 3 ]" clk_div_r [2:0] $end
$var reg 1 ^" cmd_done_set_o $end
$var reg 2 _" cmd_lanes_r [1:0] $end
$var reg 1 \ cmd_trigger_clr_o $end
$var reg 1 `" cpha_r $end
$var reg 1 a" cpol_r $end
$var reg 1 b" cs_auto_r $end
$var reg 2 c" data_lanes_r [1:0] $end
$var reg 4 d" dummy_cycles_r [3:0] $end
$var reg 8 e" extra_dummy_r [7:0] $end
$var reg 1 f" is_write_r $end
$var reg 32 g" len_r [31:0] $end
$var reg 8 h" mode_bits_r [7:0] $end
$var reg 1 i" mode_en_r $end
$var reg 8 j" opcode_r [7:0] $end
$var reg 1 k" quad_en_r $end
$var reg 1 > start_o $end
$var reg 1 l" state $end
$var reg 1 m" xip_cont_read_r $end
$upscope $end
$scope module u_csr $end
$var wire 32 n" CLKDIV_WMASK [31:0] $end
$var wire 32 o" CMDCFG_WMASK [31:0] $end
$var wire 32 p" CMDDMY_WMASK [31:0] $end
$var wire 32 q" CMDOP_WMASK [31:0] $end
$var wire 32 r" CSCTRL_WMASK [31:0] $end
$var wire 32 s" CTRL_WMASK [31:0] $end
$var wire 32 t" DMACFG_WMASK [31:0] $end
$var wire 32 u" XIPCFG_WMASK [31:0] $end
$var wire 32 v" XIPCMD_WMASK [31:0] $end
$var wire 12 w" a [11:0] $end
$var wire 1 x" access_phase $end
$var wire 1 d axi_err_i $end
$var wire 32 y" cmd_addr_o [31:0] $end
$var wire 1 z" cmd_done_i $end
$var wire 1 ] cmd_start_o $end
$var wire 1 {" cmd_trig_ok $end
$var wire 1 |" cmd_trig_wr $end
$var wire 1 \ cmd_trigger_clr_i $end
$var wire 32 }" dma_addr_o [31:0] $end
$var wire 1 ~" dma_done_i $end
$var wire 32 !# dma_len_o [31:0] $end
$var wire 1 I fifo_rx_re_o $end
$var wire 32 "# fifo_tx_data_o [31:0] $end
$var wire 1 ## fifo_tx_empty_set_i $end
$var wire 1 B fifo_tx_we_o $end
$var wire 1 g overrun_i $end
$var wire 12 $# paddr [11:0] $end
$var wire 1 e pclk $end
$var wire 1 i penable $end
$var wire 1 " pready $end
$var wire 1 n presetn $end
$var wire 1 j psel $end
$var wire 4 %# pstrb [3:0] $end
$var wire 4 &# pstrb_eff [3:0] $end
$var wire 32 '# pwdata [31:0] $end
$var wire 1 m pwrite $end
$var wire 1 (# read_phase $end
$var wire 4 )# rx_level_i [3:0] $end
$var wire 1 *# setup_phase $end
$var wire 1 q timeout_i $end
$var wire 4 +# tx_level_i [3:0] $end
$var wire 1 t underrun_i $end
$var wire 1 ,# wp_en_o $end
$var wire 1 -# wr_ok $end
$var wire 1 .# write_phase $end
$var wire 1 /# xip_active_i $end
$var wire 8 0# xip_write_op_o [7:0] $end
$var wire 1 1# xip_write_en_o $end
$var wire 8 2# xip_read_op_o [7:0] $end
$var wire 1 3# xip_mode_en_o $end
$var wire 8 4# xip_mode_bits_o [7:0] $end
$var wire 1 # xip_en_o $end
$var wire 4 5# xip_dummy_cycles_o [3:0] $end
$var wire 2 6# xip_data_lanes_o [1:0] $end
$var wire 1 7# xip_cont_read_o $end
$var wire 2 8# xip_addr_bytes_o [1:0] $end
$var wire 1 F tx_empty_i $end
$var wire 1 L rx_full_i $end
$var wire 1 % quad_en_o $end
$var wire 8 9# opcode_o [7:0] $end
$var wire 1 ) mode_en_cfg_o $end
$var wire 8 :# mode_bits_o [7:0] $end
$var wire 1 ;# lsb_first_o $end
$var wire 1 < is_write_o $end
$var wire 1 <# irq $end
$var wire 5 =# int_en_o [4:0] $end
$var wire 1 ># incr_addr_o $end
$var wire 1 ?# hold_en_o $end
$var wire 1 L fifo_rx_full_set_i $end
$var wire 32 @# fifo_rx_data_i [31:0] $end
$var wire 8 A# extra_dummy_o [7:0] $end
$var wire 1 T err_set_i $end
$var wire 1 O enable_o $end
$var wire 4 B# dummy_cycles_o [3:0] $end
$var wire 1 Q dma_en_o $end
$var wire 1 R dma_done_set_i $end
$var wire 1 C# dma_dir_o $end
$var wire 2 D# data_lanes_o [1:0] $end
$var wire 1 E# ctrl_xip_n $end
$var wire 1 F# ctrl_enable_n $end
$var wire 2 G# cs_level_o [1:0] $end
$var wire 2 H# cs_delay_o [1:0] $end
$var wire 1 Y cs_auto_o $end
$var wire 1 Z cpol_o $end
$var wire 1 [ cpha_o $end
$var wire 32 I# cmd_len_o [31:0] $end
$var wire 2 J# cmd_lanes_o [1:0] $end
$var wire 1 A cmd_done_set_i $end
$var wire 3 K# clk_div_o [2:0] $end
$var wire 1 S busy_i $end
$var wire 4 L# burst_size_o [3:0] $end
$var wire 2 M# addr_lanes_o [1:0] $end
$var wire 2 N# addr_bytes_o [1:0] $end
$var reg 32 O# clk_div_reg [31:0] $end
$var reg 32 P# cmd_addr_reg [31:0] $end
$var reg 32 Q# cmd_cfg_reg [31:0] $end
$var reg 1 R# cmd_done_latched $end
$var reg 32 S# cmd_dummy_reg [31:0] $end
$var reg 32 T# cmd_len_reg [31:0] $end
$var reg 32 U# cmd_op_reg [31:0] $end
$var reg 1 V# cmd_trig_q $end
$var reg 32 W# cs_ctrl_reg [31:0] $end
$var reg 32 X# ctrl_reg [31:0] $end
$var reg 32 Y# dma_addr_reg [31:0] $end
$var reg 32 Z# dma_cfg_reg [31:0] $end
$var reg 1 [# dma_done_latched $end
$var reg 32 \# dma_len_reg [31:0] $end
$var reg 32 ]# err_stat_reg [31:0] $end
$var reg 32 ^# fifo_rx_data_q [31:0] $end
$var reg 1 _# fifo_rx_pop_seen $end
$var reg 1 `# fifo_rx_re_q $end
$var reg 32 a# int_en_reg [31:0] $end
$var reg 32 b# int_stat_reg [31:0] $end
$var reg 32 c# prdata [31:0] $end
$var reg 1 & pslverr $end
$var reg 1 d# ro_addr $end
$var reg 1 e# valid_addr $end
$var reg 32 f# xip_cfg_reg [31:0] $end
$var reg 32 g# xip_cmd_reg [31:0] $end
$scope function apply_strb $end
$var reg 32 h# cur [31:0] $end
$var reg 32 i# data [31:0] $end
$upscope $end
$scope begin $unm_blk_38 $end
$var reg 32 j# next_ctrl [31:0] $end
$upscope $end
$upscope $end
$scope module u_dma $end
$var wire 32 k# araddr_o [31:0] $end
$var wire 1 9 arvalid_o $end
$var wire 32 l# awaddr_o [31:0] $end
$var wire 1 6 awvalid_o $end
$var wire 1 5 bready_o $end
$var wire 4 m# burst_size_i [3:0] $end
$var wire 1 S busy_o $end
$var wire 1 e clk $end
$var wire 32 n# dma_addr_i [31:0] $end
$var wire 1 o# dma_dir_i $end
$var wire 1 Q dma_en_i $end
$var wire 32 p# dma_len_i [31:0] $end
$var wire 1 H fifo_rx_re_o $end
$var wire 32 q# fifo_tx_data_o [31:0] $end
$var wire 1 r# fifo_tx_we_o $end
$var wire 1 s# incr_addr_i $end
$var wire 1 n resetn $end
$var wire 1 1 rready_o $end
$var wire 1 t# start_pulse $end
$var wire 32 u# wdata_o [31:0] $end
$var wire 4 v# wstrb_o [3:0] $end
$var wire 1 + wvalid_o $end
$var wire 1 w# wvalid_w $end
$var wire 4 x# wstrb_w [3:0] $end
$var wire 1 - wready_i $end
$var wire 1 y# wr_en_w $end
$var wire 1 z# wr_done $end
$var wire 32 {# wdata_w [31:0] $end
$var wire 1 |# tx_space_ok $end
$var wire 5 }# tx_level_i [4:0] $end
$var wire 1 ~# tx_full $end
$var wire 5 !$ rx_level_i [4:0] $end
$var wire 1 "$ rx_empty $end
$var wire 1 #$ rx_data_ok $end
$var wire 1 / rvalid_i $end
$var wire 2 $$ rresp_i [1:0] $end
$var wire 1 %$ rready_w $end
$var wire 32 &$ rem_words_w [31:0] $end
$var wire 1 '$ rem_lt_burst $end
$var wire 32 ($ rdata_i [31:0] $end
$var wire 1 )$ rd_en_w $end
$var wire 1 *$ rd_done $end
$var wire 32 +$ len_w [31:0] $end
$var wire 32 ,$ fifo_rx_data_i [31:0] $end
$var wire 32 -$ data_out_w [31:0] $end
$var wire 1 3 bvalid_i $end
$var wire 4 .$ burst_words_w [3:0] $end
$var wire 2 /$ bresp_i [1:0] $end
$var wire 1 0$ bready_w $end
$var wire 4 1$ beats_w [3:0] $end
$var wire 5 2$ beats_level [4:0] $end
$var wire 1 3$ awvalid_w $end
$var wire 1 7 awready_i $end
$var wire 32 4$ awaddr_w [31:0] $end
$var wire 1 5$ arvalid_w $end
$var wire 1 : arready_i $end
$var wire 32 6$ araddr_w [31:0] $end
$var reg 32 7$ addr_r [31:0] $end
$var reg 1 T axi_err_o $end
$var reg 32 8$ burst_len_r [31:0] $end
$var reg 4 9$ burst_size_r [3:0] $end
$var reg 1 :$ busy_r $end
$var reg 1 R dma_done_set_o $end
$var reg 1 ;$ dma_en_d $end
$var reg 1 <$ incr_addr_r $end
$var reg 1 =$ rd_start $end
$var reg 32 >$ rem_bytes_r [31:0] $end
$var reg 3 ?$ state [2:0] $end
$var reg 1 @$ wr_start $end
$scope module u_axi_read_block $end
$var wire 32 A$ addr [31:0] $end
$var wire 1 e clk $end
$var wire 1 ~# full $end
$var wire 1 B$ reset $end
$var wire 1 =$ start $end
$var wire 16 C$ transfer_size [15:0] $end
$var wire 1 / rvalid $end
$var wire 32 D$ rdata [31:0] $end
$var wire 1 : arready $end
$var reg 32 E$ addr_reg [31:0] $end
$var reg 32 F$ araddr [31:0] $end
$var reg 1 5$ arvalid $end
$var reg 1 G$ arvalid_r $end
$var reg 1 H$ busy $end
$var reg 16 I$ count [15:0] $end
$var reg 32 J$ data_out [31:0] $end
$var reg 1 *$ done $end
$var reg 1 %$ rready $end
$var reg 2 K$ state [1:0] $end
$var reg 1 y# wr_en $end
$upscope $end
$scope module u_axi_write_block $end
$var wire 32 L$ addr [31:0] $end
$var wire 1 e clk $end
$var wire 1 "$ empty $end
$var wire 1 M$ reset $end
$var wire 1 @$ start $end
$var wire 16 N$ transfer_size [15:0] $end
$var wire 1 - wready $end
$var wire 32 O$ data_in [31:0] $end
$var wire 1 3 bvalid $end
$var wire 1 7 awready $end
$var reg 32 P$ addr_reg [31:0] $end
$var reg 32 Q$ awaddr [31:0] $end
$var reg 1 3$ awvalid $end
$var reg 1 R$ awvalid_r $end
$var reg 1 0$ bready $end
$var reg 1 S$ busy $end
$var reg 16 T$ count [15:0] $end
$var reg 1 z# done $end
$var reg 1 U$ have_word $end
$var reg 1 V$ hold_bready $end
$var reg 1 )$ rd_en $end
$var reg 1 W$ rd_pending $end
$var reg 2 X$ state [1:0] $end
$var reg 32 Y$ wdata [31:0] $end
$var reg 32 Z$ word_q [31:0] $end
$var reg 4 [$ wstrb [3:0] $end
$var reg 1 w# wvalid $end
$var reg 1 \$ wvalid_r $end
$upscope $end
$upscope $end
$scope module u_frx $end
$var wire 1 e clk $end
$var wire 5 ]$ level_o [4:0] $end
$var wire 32 ^$ rd_data_o [31:0] $end
$var wire 1 _$ rd_en_i $end
$var wire 1 n resetn $end
$var wire 1 ? wr_en_i $end
$var wire 32 `$ wr_data_i [31:0] $end
$var wire 1 L full_o $end
$var wire 1 M empty_o $end
$var reg 5 a$ count [4:0] $end
$var reg 32 b$ rd_data_r [31:0] $end
$var reg 4 c$ rd_ptr [3:0] $end
$var reg 4 d$ wr_ptr [3:0] $end
$upscope $end
$scope module u_fsm $end
$var wire 32 e$ addr [31:0] $end
$var wire 2 f$ addr_bytes_sel [1:0] $end
$var wire 2 g$ addr_lanes_sel [1:0] $end
$var wire 1 h$ bit_tick $end
$var wire 1 e clk $end
$var wire 32 i$ clk_div [31:0] $end
$var wire 2 j$ cmd_lanes_sel [1:0] $end
$var wire 8 k$ cmd_opcode [7:0] $end
$var wire 1 [ cpha $end
$var wire 1 Z cpol $end
$var wire 1 Y cs_auto $end
$var wire 2 l$ cs_delay [1:0] $end
$var wire 2 m$ data_lanes_sel [1:0] $end
$var wire 1 n$ dir $end
$var wire 1 A done $end
$var wire 4 o$ dummy_cycles [3:0] $end
$var wire 1 p$ io0 $end
$var wire 1 q$ io1 $end
$var wire 1 r$ io2 $end
$var wire 1 s$ io3 $end
$var wire 1 t$ leading_edge $end
$var wire 32 u$ len_bytes [31:0] $end
$var wire 8 v$ mode_bits [7:0] $end
$var wire 1 ) mode_en $end
$var wire 1 w$ quad_en $end
$var wire 1 n resetn $end
$var wire 1 L rx_full $end
$var wire 1 > start $end
$var wire 1 x$ trailing_edge $end
$var wire 1 = tx_ren $end
$var wire 1 y$ xip_cont_read $end
$var wire 1 F tx_empty $end
$var wire 32 z$ tx_data_fifo [31:0] $end
$var wire 1 {$ shift_pulse $end
$var wire 1 $ sclk $end
$var wire 1 |$ sample_pulse $end
$var wire 4 }$ io_di [3:0] $end
$var wire 8 ~$ cs_delay_cycles [7:0] $end
$var wire 6 !% addr_bits [5:0] $end
$var reg 3 "% addr_lanes_eff [2:0] $end
$var reg 6 #% bit_cnt [5:0] $end
$var reg 6 $% bit_cnt_n [5:0] $end
$var reg 32 %% byte_cnt [31:0] $end
$var reg 32 &% byte_cnt_n [31:0] $end
$var reg 3 '% cmd_lanes_eff [2:0] $end
$var reg 8 (% cs_cnt [7:0] $end
$var reg 8 )% cs_cnt_n [7:0] $end
$var reg 1 V cs_n $end
$var reg 1 *% cs_n_n $end
$var reg 3 +% data_lanes_eff [2:0] $end
$var reg 4 ,% dummy_cnt [3:0] $end
$var reg 4 -% dummy_cnt_n [3:0] $end
$var reg 4 .% in_bits [3:0] $end
$var reg 4 /% io_oe [3:0] $end
$var reg 4 0% io_oe_n [3:0] $end
$var reg 1 1% is_write_cmd $end
$var reg 1 2% is_write_cmd_n $end
$var reg 3 3% lanes [2:0] $end
$var reg 3 4% lanes_n [2:0] $end
$var reg 4 5% out_bits [3:0] $end
$var reg 1 6% post_hold_write $end
$var reg 1 7% post_hold_write_n $end
$var reg 1 8% rd_warmup $end
$var reg 4 9% rd_warmup_cnt [3:0] $end
$var reg 4 :% rd_warmup_cnt_n [3:0] $end
$var reg 1 ;% rd_warmup_n $end
$var reg 32 <% rx_data_fifo [31:0] $end
$var reg 1 ? rx_wen $end
$var reg 1 =% sclk_armed $end
$var reg 32 >% sclk_cnt [31:0] $end
$var reg 1 ?% sclk_edge $end
$var reg 1 @% sclk_en $end
$var reg 1 A% sclk_en_n $end
$var reg 1 B% sclk_q $end
$var reg 1 C% sclk_q_prev $end
$var reg 32 D% shreg [31:0] $end
$var reg 32 E% shreg_n [31:0] $end
$var reg 4 F% state [3:0] $end
$var reg 4 G% state_n [3:0] $end
$scope function lane_decode $end
$var reg 2 H% sel [1:0] $end
$upscope $end
$scope function lane_mask $end
$var reg 3 I% lanes [2:0] $end
$upscope $end
$scope function rev8 $end
$var reg 8 J% b [7:0] $end
$upscope $end
$upscope $end
$scope module u_ftx $end
$var wire 1 e clk $end
$var wire 5 K% level_o [4:0] $end
$var wire 32 L% rd_data_o [31:0] $end
$var wire 1 = rd_en_i $end
$var wire 1 n resetn $end
$var wire 32 M% wr_data_i [31:0] $end
$var wire 1 B wr_en_i $end
$var wire 1 E full_o $end
$var wire 1 F empty_o $end
$var reg 5 N% count [4:0] $end
$var reg 32 O% rd_data_r [31:0] $end
$var reg 4 P% rd_ptr [3:0] $end
$var reg 4 Q% wr_ptr [3:0] $end
$upscope $end
$scope module u_ram $end
$var wire 32 R% araddr [31:0] $end
$var wire 1 9 arvalid $end
$var wire 32 S% awaddr [31:0] $end
$var wire 1 6 awvalid $end
$var wire 1 5 bready $end
$var wire 1 e clk $end
$var wire 1 n resetn $end
$var wire 1 1 rready $end
$var wire 32 T% wdata [31:0] $end
$var wire 4 U% wstrb [3:0] $end
$var wire 1 + wvalid $end
$var reg 1 : arready $end
$var reg 32 V% awaddr_q [31:0] $end
$var reg 1 7 awready $end
$var reg 2 W% bresp [1:0] $end
$var reg 1 3 bvalid $end
$var reg 1 X% have_aw $end
$var reg 1 Y% have_w $end
$var reg 32 Z% rdata [31:0] $end
$var reg 2 [% rresp [1:0] $end
$var reg 1 / rvalid $end
$var reg 32 \% wdata_q [31:0] $end
$var reg 1 - wready $end
$var reg 4 ]% wstrb_q [3:0] $end
$var integer 32 ^% i [31:0] $end
$scope begin $unm_blk_285 $end
$var integer 32 _% widx [31:0] $end
$upscope $end
$scope begin $unm_blk_286 $end
$var integer 32 `% ridx [31:0] $end
$upscope $end
$upscope $end
$scope task apb_read $end
$var reg 12 a% addr [11:0] $end
$var reg 32 b% data [31:0] $end
$upscope $end
$scope task apb_write $end
$var reg 12 c% addr [11:0] $end
$var reg 32 d% data [31:0] $end
$upscope $end
$scope task check_eq $end
$var reg 32 e% exp [31:0] $end
$var reg 32 f% got [31:0] $end
$var reg 128 g% what [127:0] $end
$upscope $end
$upscope $end
$enddefinitions $end
#0
$dumpvars
bx g%
bx f%
bx e%
bx d%
bx c%
bx b%
bx a%
bx `%
bx _%
b100000000000000 ^%
bx ]%
bx \%
b0 [%
b0 Z%
0Y%
0X%
b0 W%
b0 V%
bx U%
bx T%
bx S%
bx R%
b0 Q%
b0 P%
b0 O%
b0 N%
b0 M%
b0 L%
b0 K%
bx J%
bx I%
b0 H%
b0 G%
b0 F%
b0 E%
b0 D%
0C%
0B%
0A%
0@%
0?%
b0 >%
0=%
b0 <%
0;%
b0 :%
b0 9%
08%
07%
06%
b0 5%
b1 4%
b1 3%
02%
01%
b0 0%
b0 /%
b0z .%
b0 -%
b0 ,%
b1 +%
1*%
b0 )%
b0 (%
b1 '%
b0 &%
b0 %%
b0 $%
b0 #%
b1 "%
b0 !%
b0 ~$
bz }$
0|$
0{$
b0 z$
0y$
0x$
0w$
b0 v$
b0 u$
0t$
zs$
zr$
zq$
zp$
b0 o$
1n$
b0 m$
b0 l$
b0 k$
b0 j$
b0 i$
0h$
b0 g$
b0 f$
b0 e$
b0 d$
b0 c$
b0 b$
b0 a$
b0 `$
x_$
b0 ^$
b0 ]$
x\$
bx [$
bx Z$
bx Y$
bx X$
xW$
xV$
xU$
bx T$
xS$
xR$
bx Q$
bx P$
b0 O$
bx N$
1M$
bx L$
bx K$
bx J$
bx I$
xH$
xG$
bx F$
bx E$
b0 D$
bx C$
1B$
bx A$
x@$
bx ?$
bx >$
x=$
x<$
x;$
x:$
bx 9$
bx 8$
bx 7$
bx 6$
x5$
bx 4$
x3$
b0xxxx 2$
bx 1$
x0$
b0 /$
bx .$
bx -$
b0 ,$
b0xxxx00 +$
x*$
x)$
b0 ($
x'$
b0xxxxxxxxxxxxxxxxxxxxxxxxxxxxxx &$
x%$
b0 $$
x#$
1"$
b0 !$
0~#
b0 }#
x|#
bx {#
xz#
xy#
bx x#
xw#
bx v#
bx u#
0t#
1s#
xr#
bx q#
b100 p#
1o#
b0 n#
b1 m#
bx l#
bx k#
bx j#
bx i#
bx h#
b1011 g#
b10000001 f#
1e#
1d#
b0 c#
b0 b#
b0 a#
0`#
0_#
b0 ^#
b0 ]#
b0 \#
0[#
b0 Z#
b0 Y#
b0 X#
b1 W#
0V#
b0 U#
b0 T#
b0 S#
0R#
b0 Q#
b0 P#
b0 O#
b0 N#
b0 M#
b0 L#
b0 K#
b0 J#
b0 I#
b0 H#
b0 G#
0F#
0E#
b0 D#
0C#
b0 B#
b0 A#
b0 @#
0?#
0>#
b0 =#
0<#
0;#
b0 :#
b0 9#
b1 8#
07#
b0 6#
b1000 5#
b0 4#
03#
b1011 2#
01#
b0 0#
0/#
0.#
0-#
0,#
b0 +#
0*#
b0 )#
0(#
b0 '#
b1111 &#
b0 %#
b0 $#
0##
b0 "#
b0 !#
0~"
b0 }"
0|"
0{"
0z"
b0 y"
0x"
b0 w"
b111111111111111111111111 v"
b11111111111111 u"
b111111 t"
b1001111111 s"
b11111 r"
b1111111111111111 q"
b11111111 p"
b11111111111111 o"
b1111 n"
0m"
0l"
0k"
b0 j"
0i"
b0 h"
b0 g"
0f"
b0 e"
b0 d"
b0 c"
1b"
0a"
0`"
b0 _"
0^"
b0 ]"
0\"
b0 ["
b0 Z"
b0 Y"
b0 X"
b0 W"
b0 V"
b0 U"
b0 T"
b0 S"
b0 R"
b0 Q"
b0 P"
b0 O"
b0 N"
0M"
0L"
0K"
0J"
b0 I"
0H"
b0 G"
b0 F"
b0 E"
1D"
b0 C"
1B"
0A"
0@"
b0 ?"
b0 >"
b0 ="
b0 <"
b0 ;"
bx :"
bx 9"
b100000000000000000000 8"
07"
b0 6"
b0 5"
b0 4"
b0 3"
b0z 2"
b1 1"
b0zzzz 0"
b0 /"
0."
b0 -"
b0 ,"
bx +"
b110000100010000000010111 *"
b0 )"
b0 ("
b0 '"
b0 &"
b0 %"
b0 $"
0#"
b0 ""
b0 !"
b0 ~
b0 }
bz |
z{
zz
zy
zx
b0 w
b0 v
b0 u
0t
b0 s
0r
0q
b0 p
0o
0n
0m
b0 l
b0 k
0j
0i
b0 h
0g
bx f
0e
0d
b0 c
b0 b
b0 a
b0 `
b0 _
b0 ^
0]
0\
0[
0Z
1Y
b0 X
b0 W
1V
b0 U
xT
0S
xR
0Q
b0 P
0O
b0 N
1M
0L
b0 K
b0 J
0I
xH
b0 G
1F
0E
b0 D
b0 C
0B
0A
b0 @
0?
0>
0=
0<
bx ;
0:
x9
bx 8
07
x6
x5
b0 4
03
b0 2
x1
b0 0
0/
bx .
0-
bx ,
x+
b0 *
0)
b0 (
b0 '
0&
0%
0$
0#
1"
bz !
$end
#5000
b0 +$
1|#
1#$
b0 2$
b0 1$
0_$
b0 C$
b0 N$
1'$
b0 &$
b1 .$
b0 I$
b0 E$
0*$
0H$
0r#
0y#
b0 q#
b0 -$
b0 J$
01
0%$
0G$
09
05$
b0 ;
b0 k#
b0 R%
b0 6$
b0 F$
b0 K$
0V$
b0 Z$
0W$
0U$
b0 T$
b0 P$
0z#
0S$
0H
0)$
05
00$
b1111 ,
b1111 v#
b1111 U%
b1111 x#
b1111 [$
0\$
0+
0w#
b0 .
b0 u#
b0 T%
b0 {#
b0 Y$
0R$
06
03$
b0 8
b0 l#
b0 S%
b0 4$
b0 Q$
b0 X$
0;$
0@$
0=$
b0 8$
b0 >$
b0 7$
b0 A$
b0 L$
b0 9$
0<$
0:$
0T
0R
b0 ?$
b100000000000000 ^%
1e
#10000
0e
#15000
b100000000000000 ^%
1e
#20000
0e
#25000
b100000000000000 ^%
1e
#30000
0e
#35000
b100000000000000 ^%
1e
#40000
0e
#45000
b100000000000000 ^%
1e
#50000
0e
#55000
b100000000000000 ^%
1e
#60000
0e
#65000
b100000000000000 ^%
1e
#70000
0e
#75000
1:
1-
17
0B$
0M$
b0 a%
1n
1e
#80000
0e
#85000
1*#
1j
1e
#90000
0e
#95000
b11010000000000001000010000001 '
b11010000000000001000010000001 c#
0*#
1(#
1x"
1i
1e
#100000
0e
