int_write_erase_tb.vcd
$date
	Wed Sep 10 00:13:54 2025
$end
$version
	Icarus Verilog
$end
$timescale
	1ps
$end
$scope module int_write_erase_tb $end
$var wire 4 ! io [3:0] $end
$var wire 1 " pready $end
$var wire 1 # xip_en_w $end
$var wire 1 $ sclk $end
$var wire 1 % quad_en_w $end
$var wire 1 & pslverr $end
$var wire 32 ' prdata [31:0] $end
$var wire 8 ( opcode_w [7:0] $end
$var wire 1 ) mode_en_w $end
$var wire 8 * mode_bits_w [7:0] $end
$var wire 1 + is_write_w $end
$var wire 1 , fsm_tx_ren_w $end
$var wire 1 - fsm_start_w $end
$var wire 1 . fsm_rx_wen_w $end
$var wire 32 / fsm_rx_data_w [31:0] $end
$var wire 1 0 fsm_done_w $end
$var wire 1 1 fifo_tx_we_csr_w $end
$var wire 32 2 fifo_tx_rd_data_w [31:0] $end
$var wire 5 3 fifo_tx_level_w [4:0] $end
$var wire 1 4 fifo_tx_full_w $end
$var wire 1 5 fifo_tx_empty_w $end
$var wire 32 6 fifo_tx_data_csr_w [31:0] $end
$var wire 1 7 fifo_rx_re_csr_w $end
$var wire 32 8 fifo_rx_rd_data_w [31:0] $end
$var wire 5 9 fifo_rx_level_w [4:0] $end
$var wire 1 : fifo_rx_full_w $end
$var wire 1 ; fifo_rx_empty_w $end
$var wire 8 < extra_dummy_w [7:0] $end
$var wire 1 = enable_w $end
$var wire 4 > dummy_cycles_w [3:0] $end
$var wire 1 ? dma_en_w $end
$var wire 2 @ data_lanes_w [1:0] $end
$var wire 1 A cs_n $end
$var wire 1 B cs_auto_w $end
$var wire 1 C cpol_w $end
$var wire 1 D cpha_w $end
$var wire 1 E cmd_trigger_clr_w $end
$var wire 1 F cmd_start_w $end
$var wire 32 G cmd_len_w [31:0] $end
$var wire 2 H cmd_lanes_w [1:0] $end
$var wire 32 I cmd_addr_w [31:0] $end
$var wire 3 J clk_div_w [2:0] $end
$var wire 2 K addr_lanes_w [1:0] $end
$var wire 2 L addr_bytes_w [1:0] $end
$var reg 32 M cap_d [31:0] $end
$var reg 1 N clk $end
$var reg 12 O paddr [11:0] $end
$var reg 1 P penable $end
$var reg 1 Q psel $end
$var reg 4 R pstrb [3:0] $end
$var reg 32 S pwdata [31:0] $end
$var reg 1 T pwrite $end
$var reg 1 U resetn $end
$var reg 1 V seen $end
$var integer 32 W i [31:0] $end
$scope module dev $end
$var wire 1 X qspi_io0 $end
$var wire 1 Y qspi_io1 $end
$var wire 1 Z qspi_io2 $end
$var wire 1 [ qspi_io3 $end
$var wire 1 $ qspi_sclk $end
$var wire 1 A qspi_cs_n $end
$var wire 4 \ io_di [3:0] $end
$var reg 24 ] addr_reg [23:0] $end
$var reg 32 ^ bit_cnt [31:0] $end
$var reg 32 _ byte_cnt [31:0] $end
$var reg 8 ` cmd_reg [7:0] $end
$var reg 1 a continuous_read $end
$var reg 64 b cs_high_accum_t [63:0] $end
$var reg 64 c cs_high_last_t [63:0] $end
$var reg 64 d cs_high_start_t [63:0] $end
$var reg 5 e dummy_cycles [4:0] $end
$var reg 32 f erase_counter [31:0] $end
$var reg 2 g id_idx [1:0] $end
$var reg 24 h id_reg [23:0] $end
$var reg 4 i io_do [3:0] $end
$var reg 4 j io_oe [3:0] $end
$var reg 4 k lanes [3:0] $end
$var reg 1 l last_cmd_wren $end
$var reg 8 m mode_bits [7:0] $end
$var reg 32 n nxt_addr_reg [31:0] $end
$var reg 32 o nxt_bit_cnt [31:0] $end
$var reg 8 p nxt_cmd_reg [7:0] $end
$var reg 8 q shift_in [7:0] $end
$var reg 8 r shift_out [7:0] $end
$var reg 4 s state [3:0] $end
$var reg 8 t status_reg [7:0] $end
$var reg 1 u wip $end
$scope begin $unm_blk_214 $end
$var integer 32 v i [31:0] $end
$upscope $end
$scope begin $unm_blk_240 $end
$var integer 32 w j [31:0] $end
$upscope $end
$scope begin $unm_blk_251 $end
$var integer 32 x j [31:0] $end
$upscope $end
$upscope $end
$scope module u_ce $end
$var wire 2 y addr_bytes_o [1:0] $end
$var wire 2 z addr_lanes_o [1:0] $end
$var wire 32 { addr_o [31:0] $end
$var wire 1 N clk $end
$var wire 3 | clk_div_o [2:0] $end
$var wire 2 } cmd_lanes_o [1:0] $end
$var wire 1 ~ cpha_o $end
$var wire 1 !" cpol_o $end
$var wire 1 "" cs_auto_o $end
$var wire 2 #" data_lanes_o [1:0] $end
$var wire 1 $" dir_o $end
$var wire 4 %" dummy_cycles_o [3:0] $end
$var wire 32 &" len_o [31:0] $end
$var wire 8 '" mode_bits_o [7:0] $end
$var wire 1 (" mode_en_o $end
$var wire 8 )" opcode_o [7:0] $end
$var wire 1 *" quad_en_o $end
$var wire 1 U resetn $end
$var wire 1 +" xip_cont_read_i $end
$var wire 1 ," xip_cont_read_o $end
$var wire 1 % quad_en_i $end
$var wire 8 -" opcode_i [7:0] $end
$var wire 1 ) mode_en_i $end
$var wire 8 ." mode_bits_i [7:0] $end
$var wire 1 + is_write_i $end
$var wire 8 /" extra_dummy_i [7:0] $end
$var wire 4 0" dummy_cycles_i [3:0] $end
$var wire 1 0 done_i $end
$var wire 2 1" data_lanes_i [1:0] $end
$var wire 1 B cs_auto_i $end
$var wire 1 C cpol_i $end
$var wire 1 D cpha_i $end
$var wire 1 F cmd_start_i $end
$var wire 32 2" cmd_len_i [31:0] $end
$var wire 2 3" cmd_lanes_i [1:0] $end
$var wire 32 4" cmd_addr_i [31:0] $end
$var wire 3 5" clk_div_i [2:0] $end
$var wire 2 6" addr_lanes_i [1:0] $end
$var wire 2 7" addr_bytes_i [1:0] $end
$var reg 2 8" addr_bytes_r [1:0] $end
$var reg 2 9" addr_lanes_r [1:0] $end
$var reg 32 :" addr_r [31:0] $end
$var reg 1 ;" busy_o $end
$var reg 3 <" clk_div_r [2:0] $end
$var reg 1 =" cmd_done_set_o $end
$var reg 2 >" cmd_lanes_r [1:0] $end
$var reg 1 E cmd_trigger_clr_o $end
$var reg 1 ?" cpha_r $end
$var reg 1 @" cpol_r $end
$var reg 1 A" cs_auto_r $end
$var reg 2 B" data_lanes_r [1:0] $end
$var reg 4 C" dummy_cycles_r [3:0] $end
$var reg 8 D" extra_dummy_r [7:0] $end
$var reg 1 E" is_write_r $end
$var reg 32 F" len_r [31:0] $end
$var reg 8 G" mode_bits_r [7:0] $end
$var reg 1 H" mode_en_r $end
$var reg 8 I" opcode_r [7:0] $end
$var reg 1 J" quad_en_r $end
$var reg 1 - start_o $end
$var reg 1 K" state $end
$var reg 1 L" xip_cont_read_r $end
$upscope $end
$scope module u_csr $end
$var wire 32 M" CLKDIV_WMASK [31:0] $end
$var wire 32 N" CMDCFG_WMASK [31:0] $end
$var wire 32 O" CMDDMY_WMASK [31:0] $end
$var wire 32 P" CMDOP_WMASK [31:0] $end
$var wire 32 Q" CSCTRL_WMASK [31:0] $end
$var wire 32 R" CTRL_WMASK [31:0] $end
$var wire 32 S" DMACFG_WMASK [31:0] $end
$var wire 32 T" XIPCFG_WMASK [31:0] $end
$var wire 32 U" XIPCMD_WMASK [31:0] $end
$var wire 12 V" a [11:0] $end
$var wire 1 W" access_phase $end
$var wire 1 X" axi_err_i $end
$var wire 1 Y" busy_i $end
$var wire 32 Z" cmd_addr_o [31:0] $end
$var wire 1 [" cmd_done_i $end
$var wire 1 F cmd_start_o $end
$var wire 1 \" cmd_trig_ok $end
$var wire 1 ]" cmd_trig_wr $end
$var wire 1 E cmd_trigger_clr_i $end
$var wire 32 ^" dma_addr_o [31:0] $end
$var wire 1 _" dma_done_i $end
$var wire 1 `" dma_done_set_i $end
$var wire 32 a" dma_len_o [31:0] $end
$var wire 1 b" err_set_i $end
$var wire 1 c" fifo_rx_full_set_i $end
$var wire 1 7 fifo_rx_re_o $end
$var wire 32 d" fifo_tx_data_o [31:0] $end
$var wire 1 e" fifo_tx_empty_set_i $end
$var wire 1 1 fifo_tx_we_o $end
$var wire 1 f" overrun_i $end
$var wire 12 g" paddr [11:0] $end
$var wire 1 N pclk $end
$var wire 1 P penable $end
$var wire 1 " pready $end
$var wire 1 U presetn $end
$var wire 1 Q psel $end
$var wire 4 h" pstrb [3:0] $end
$var wire 4 i" pstrb_eff [3:0] $end
$var wire 32 j" pwdata [31:0] $end
$var wire 1 T pwrite $end
$var wire 1 k" read_phase $end
$var wire 4 l" rx_level_i [3:0] $end
$var wire 1 m" setup_phase $end
$var wire 1 n" timeout_i $end
$var wire 4 o" tx_level_i [3:0] $end
$var wire 1 p" underrun_i $end
$var wire 1 q" wp_en_o $end
$var wire 1 r" wr_ok $end
$var wire 1 s" write_phase $end
$var wire 1 t" xip_active_i $end
$var wire 8 u" xip_write_op_o [7:0] $end
$var wire 1 v" xip_write_en_o $end
$var wire 8 w" xip_read_op_o [7:0] $end
$var wire 1 x" xip_mode_en_o $end
$var wire 8 y" xip_mode_bits_o [7:0] $end
$var wire 1 # xip_en_o $end
$var wire 4 z" xip_dummy_cycles_o [3:0] $end
$var wire 2 {" xip_data_lanes_o [1:0] $end
$var wire 1 |" xip_cont_read_o $end
$var wire 2 }" xip_addr_bytes_o [1:0] $end
$var wire 1 5 tx_empty_i $end
$var wire 1 : rx_full_i $end
$var wire 1 % quad_en_o $end
$var wire 8 ~" opcode_o [7:0] $end
$var wire 1 ) mode_en_cfg_o $end
$var wire 8 !# mode_bits_o [7:0] $end
$var wire 1 "# lsb_first_o $end
$var wire 1 + is_write_o $end
$var wire 1 ## irq $end
$var wire 5 $# int_en_o [4:0] $end
$var wire 1 %# incr_addr_o $end
$var wire 1 &# hold_en_o $end
$var wire 32 '# fifo_rx_data_i [31:0] $end
$var wire 8 (# extra_dummy_o [7:0] $end
$var wire 1 = enable_o $end
$var wire 4 )# dummy_cycles_o [3:0] $end
$var wire 1 ? dma_en_o $end
$var wire 1 *# dma_dir_o $end
$var wire 2 +# data_lanes_o [1:0] $end
$var wire 1 ,# ctrl_xip_n $end
$var wire 1 -# ctrl_enable_n $end
$var wire 2 .# cs_level_o [1:0] $end
$var wire 2 /# cs_delay_o [1:0] $end
$var wire 1 B cs_auto_o $end
$var wire 1 C cpol_o $end
$var wire 1 D cpha_o $end
$var wire 32 0# cmd_len_o [31:0] $end
$var wire 2 1# cmd_lanes_o [1:0] $end
$var wire 1 0 cmd_done_set_i $end
$var wire 3 2# clk_div_o [2:0] $end
$var wire 4 3# burst_size_o [3:0] $end
$var wire 2 4# addr_lanes_o [1:0] $end
$var wire 2 5# addr_bytes_o [1:0] $end
$var reg 32 6# clk_div_reg [31:0] $end
$var reg 32 7# cmd_addr_reg [31:0] $end
$var reg 32 8# cmd_cfg_reg [31:0] $end
$var reg 1 9# cmd_done_latched $end
$var reg 32 :# cmd_dummy_reg [31:0] $end
$var reg 32 ;# cmd_len_reg [31:0] $end
$var reg 32 <# cmd_op_reg [31:0] $end
$var reg 1 =# cmd_trig_q $end
$var reg 32 ># cs_ctrl_reg [31:0] $end
$var reg 32 ?# ctrl_reg [31:0] $end
$var reg 32 @# dma_addr_reg [31:0] $end
$var reg 32 A# dma_cfg_reg [31:0] $end
$var reg 1 B# dma_done_latched $end
$var reg 32 C# dma_len_reg [31:0] $end
$var reg 32 D# err_stat_reg [31:0] $end
$var reg 32 E# fifo_rx_data_q [31:0] $end
$var reg 1 F# fifo_rx_pop_seen $end
$var reg 1 G# fifo_rx_re_q $end
$var reg 32 H# int_en_reg [31:0] $end
$var reg 32 I# int_stat_reg [31:0] $end
$var reg 32 J# prdata [31:0] $end
$var reg 1 & pslverr $end
$var reg 1 K# ro_addr $end
$var reg 1 L# valid_addr $end
$var reg 32 M# xip_cfg_reg [31:0] $end
$var reg 32 N# xip_cmd_reg [31:0] $end
$scope function apply_strb $end
$var reg 32 O# cur [31:0] $end
$var reg 32 P# data [31:0] $end
$upscope $end
$scope begin $unm_blk_38 $end
$var reg 32 Q# next_ctrl [31:0] $end
$upscope $end
$upscope $end
$scope module u_frx $end
$var wire 1 N clk $end
$var wire 5 R# level_o [4:0] $end
$var wire 32 S# rd_data_o [31:0] $end
$var wire 1 7 rd_en_i $end
$var wire 1 U resetn $end
$var wire 1 . wr_en_i $end
$var wire 32 T# wr_data_i [31:0] $end
$var wire 1 : full_o $end
$var wire 1 ; empty_o $end
$var reg 5 U# count [4:0] $end
$var reg 32 V# rd_data_r [31:0] $end
$var reg 4 W# rd_ptr [3:0] $end
$var reg 4 X# wr_ptr [3:0] $end
$upscope $end
$scope module u_fsm $end
$var wire 32 Y# addr [31:0] $end
$var wire 2 Z# addr_bytes_sel [1:0] $end
$var wire 2 [# addr_lanes_sel [1:0] $end
$var wire 1 \# bit_tick $end
$var wire 1 N clk $end
$var wire 32 ]# clk_div [31:0] $end
$var wire 2 ^# cmd_lanes_sel [1:0] $end
$var wire 8 _# cmd_opcode [7:0] $end
$var wire 1 D cpha $end
$var wire 1 C cpol $end
$var wire 1 `# cs_auto $end
$var wire 2 a# cs_delay [1:0] $end
$var wire 2 b# data_lanes_sel [1:0] $end
$var wire 1 c# dir $end
$var wire 1 0 done $end
$var wire 4 d# dummy_cycles [3:0] $end
$var wire 1 e# io0 $end
$var wire 1 f# io1 $end
$var wire 1 g# io2 $end
$var wire 1 h# io3 $end
$var wire 1 i# leading_edge $end
$var wire 32 j# len_bytes [31:0] $end
$var wire 8 k# mode_bits [7:0] $end
$var wire 1 l# mode_en $end
$var wire 1 m# quad_en $end
$var wire 1 U resetn $end
$var wire 1 : rx_full $end
$var wire 1 - start $end
$var wire 1 n# trailing_edge $end
$var wire 1 , tx_ren $end
$var wire 1 o# xip_cont_read $end
$var wire 1 5 tx_empty $end
$var wire 32 p# tx_data_fifo [31:0] $end
$var wire 1 q# shift_pulse $end
$var wire 1 $ sclk $end
$var wire 1 r# sample_pulse $end
$var wire 4 s# io_di [3:0] $end
$var wire 8 t# cs_delay_cycles [7:0] $end
$var wire 6 u# addr_bits [5:0] $end
$var reg 3 v# addr_lanes_eff [2:0] $end
$var reg 6 w# bit_cnt [5:0] $end
$var reg 6 x# bit_cnt_n [5:0] $end
$var reg 32 y# byte_cnt [31:0] $end
$var reg 32 z# byte_cnt_n [31:0] $end
$var reg 3 {# cmd_lanes_eff [2:0] $end
$var reg 8 |# cs_cnt [7:0] $end
$var reg 8 }# cs_cnt_n [7:0] $end
$var reg 1 A cs_n $end
$var reg 1 ~# cs_n_n $end
$var reg 3 !$ data_lanes_eff [2:0] $end
$var reg 4 "$ dummy_cnt [3:0] $end
$var reg 4 #$ dummy_cnt_n [3:0] $end
$var reg 4 $$ in_bits [3:0] $end
$var reg 4 %$ io_oe [3:0] $end
$var reg 4 &$ io_oe_n [3:0] $end
$var reg 1 '$ is_write_cmd $end
$var reg 1 ($ is_write_cmd_n $end
$var reg 3 )$ lanes [2:0] $end
$var reg 3 *$ lanes_n [2:0] $end
$var reg 4 +$ out_bits [3:0] $end
$var reg 1 ,$ post_hold_write $end
$var reg 1 -$ post_hold_write_n $end
$var reg 1 .$ rd_warmup $end
$var reg 4 /$ rd_warmup_cnt [3:0] $end
$var reg 4 0$ rd_warmup_cnt_n [3:0] $end
$var reg 1 1$ rd_warmup_n $end
$var reg 32 2$ rx_data_fifo [31:0] $end
$var reg 1 . rx_wen $end
$var reg 1 3$ sclk_armed $end
$var reg 32 4$ sclk_cnt [31:0] $end
$var reg 1 5$ sclk_edge $end
$var reg 1 6$ sclk_en $end
$var reg 1 7$ sclk_en_n $end
$var reg 1 8$ sclk_q $end
$var reg 1 9$ sclk_q_prev $end
$var reg 32 :$ shreg [31:0] $end
$var reg 32 ;$ shreg_n [31:0] $end
$var reg 4 <$ state [3:0] $end
$var reg 4 =$ state_n [3:0] $end
$scope function lane_decode $end
$var reg 2 >$ sel [1:0] $end
$upscope $end
$scope function lane_mask $end
$var reg 3 ?$ lanes [2:0] $end
$upscope $end
$scope function rev8 $end
$var reg 8 @$ b [7:0] $end
$upscope $end
$upscope $end
$scope module u_ftx $end
$var wire 1 N clk $end
$var wire 5 A$ level_o [4:0] $end
$var wire 32 B$ rd_data_o [31:0] $end
$var wire 1 , rd_en_i $end
$var wire 1 U resetn $end
$var wire 32 C$ wr_data_i [31:0] $end
$var wire 1 1 wr_en_i $end
$var wire 1 4 full_o $end
$var wire 1 5 empty_o $end
$var reg 5 D$ count [4:0] $end
$var reg 32 E$ rd_data_r [31:0] $end
$var reg 4 F$ rd_ptr [3:0] $end
$var reg 4 G$ wr_ptr [3:0] $end
$upscope $end
$scope task apb_read $end
$var reg 12 H$ addr [11:0] $end
$var reg 32 I$ data [31:0] $end
$upscope $end
$scope task apb_write $end
$var reg 12 J$ addr [11:0] $end
$var reg 32 K$ data [31:0] $end
$upscope $end
$upscope $end
$enddefinitions $end
#0
$dumpvars
bx K$
bx J$
bx I$
bx H$
b0 G$
b0 F$
b0 E$
b0 D$
b0 C$
b0 B$
b0 A$
bx @$
bx ?$
b0 >$
b0 =$
b0 <$
b0 ;$
b0 :$
09$
08$
07$
06$
05$
b0 4$
03$
b0 2$
01$
b0 0$
b0 /$
0.$
0-$
0,$
b0 +$
b1 *$
b1 )$
0($
0'$
b0 &$
b0 %$
b0z $$
b0 #$
b0 "$
b1 !$
1~#
b0 }#
b0 |#
b1 {#
b0 z#
b0 y#
b0 x#
b0 w#
b1 v#
b0 u#
b0zz0000 t#
bz s#
0r#
0q#
b0 p#
0o#
0n#
0m#
0l#
b0 k#
b0 j#
0i#
zh#
zg#
zf#
ze#
b0 d#
1c#
b0 b#
bz a#
1`#
b0 _#
b0 ^#
b0 ]#
0\#
b0 [#
b0 Z#
b0 Y#
b0 X#
b0 W#
b0 V#
b0 U#
b0 T#
b0 S#
b0 R#
bx Q#
bx P#
bx O#
b1011 N#
b10000001 M#
1L#
1K#
b0 J#
b0 I#
b0 H#
0G#
0F#
b0 E#
b0 D#
b0 C#
0B#
b0 A#
b0 @#
b0 ?#
b1 >#
0=#
b0 <#
b0 ;#
b0 :#
09#
b0 8#
b0 7#
b0 6#
b0 5#
b0 4#
b0 3#
b0 2#
b0 1#
b0 0#
b0 /#
b0 .#
0-#
0,#
b0 +#
0*#
b0 )#
b0 (#
b0 '#
0&#
0%#
b0 $#
0##
0"#
b0 !#
b0 ~"
b1 }"
0|"
b0 {"
b1000 z"
b0 y"
0x"
b1011 w"
0v"
b0 u"
0t"
0s"
0r"
0q"
0p"
b0 o"
0n"
0m"
b0 l"
0k"
b0 j"
b1111 i"
b0 h"
b0 g"
0f"
0e"
b0 d"
0c"
0b"
b0 a"
0`"
0_"
b0 ^"
0]"
0\"
0["
b0 Z"
0Y"
0X"
0W"
b0 V"
b111111111111111111111111 U"
b11111111111111 T"
b111111 S"
b1001111111 R"
b11111 Q"
b1111111111111111 P"
b11111111 O"
b11111111111111 N"
b1111 M"
0L"
0K"
0J"
b0 I"
0H"
b0 G"
b0 F"
0E"
b0 D"
b0 C"
b0 B"
1A"
0@"
0?"
b0 >"
0="
b0 <"
0;"
b0 :"
b0 9"
b0 8"
b0 7"
b0 6"
b0 5"
b0 4"
b0 3"
b0 2"
b0 1"
b0 0"
b0 /"
b0 ."
b0 -"
0,"
0+"
0*"
b0 )"
0("
b0 '"
b0 &"
b0 %"
1$"
b0 #"
1""
0!"
0~
b0 }
b0 |
b0 {
b0 z
b0 y
bx x
bx w
b100000000000000000000 v
0u
b0 t
b0 s
b0 r
b0 q
b0z p
b1 o
b0zzzz n
b0 m
0l
b0 k
b0 j
bx i
b110000100010000000010111 h
b0 g
b0 f
b0 e
b0 d
b0 c
b0 b
0a
b0 `
b0 _
b0 ^
b0 ]
bz \
z[
zZ
zY
zX
bx W
xV
0U
0T
b0 S
b0 R
0Q
0P
b0 O
0N
bx M
b0 L
b0 K
b0 J
b0 I
b0 H
b0 G
0F
0E
0D
0C
1B
1A
b0 @
0?
b0 >
0=
b0 <
1;
0:
b0 9
b0 8
07
b0 6
15
04
b0 3
b0 2
01
00
b0 /
0.
0-
0,
0+
b0 *
0)
b0 (
b0 '
0&
0%
0$
0#
1"
bz !
$end
#5000
b0 M
0V
1N
#10000
0N
#15000
1N
#20000
0N
#25000
1N
#30000
0N
#35000
1N
#40000
0N
#45000
1N
#50000
0N
#55000
1N
#60000
0N
#65000
1N
#70000
0N
#75000
1N
#80000
0N
#85000
1N
#90000
0N
#95000
b1 K$
b100 J$
1U
1N
#100000
0N
#105000
0K#
1L#
1m"
b1111 R
b1111 h"
b1 6
b1 d"
b1 C$
b1 S
b1 j"
b100 V"
b100 O
b100 g"
1T
1Q
1N
#110000
0N
#115000
1-#
1r"
0m"
1s"
1W"
1P
1N
#120000
0N
#125000
0r"
1=
1K#
1L#
0s"
0W"
b1 ?#
b0 R
b0 h"
b0 6
b0 d"
b0 C$
b0 S
b0 j"
b0 V"
b0 O
b0 g"
0T
0P
0Q
b1 Q#
b0 O#
b1 P#
b100 K$
b10100 J$
1N
#130000
0N
#135000
0K#
1L#
1m"
b1111 R
b1111 h"
b100 6
b100 d"
b100 C$
b100 S
b100 j"
b10100 V"
b10100 O
b10100 g"
1T
1Q
1N
#140000
0N
#145000
1r"
0m"
1s"
1W"
1P
1N
#150000
0N
#155000
0r"
b100 ]#
b100 J
b100 5"
b100 2#
1K#
1L#
0s"
0W"
b100 6#
b0 R
b0 h"
b0 6
b0 d"
b0 C$
b0 S
b0 j"
b0 V"
b0 O
b0 g"
0T
0P
0Q
b100 P#
b1 K$
b11000 J$
1N
#160000
0N
#165000
0K#
1L#
1m"
b1111 R
b1111 h"
b1 6
b1 d"
b1 C$
b1 S
b1 j"
b11000 V"
b11000 O
b11000 g"
1T
1Q
1N
#170000
0N
#175000
1r"
0m"
1s"
1W"
1P
1N
#180000
0N
#185000
0r"
1K#
1L#
0s"
0W"
b0 R
b0 h"
b0 6
b0 d"
b0 C$
b0 S
b0 j"
b0 V"
b0 O
b0 g"
0T
0P
0Q
b1 O#
b1 P#
b1000000 K$
b100100 J$
1N
#190000
0N
#195000
0K#
1L#
1m"
b1111 R
b1111 h"
b1000000 6
b1000000 d"
b1000000 C$
b1000000 S
b1000000 j"
b100100 V"
b100100 O
b100100 g"
1T
1Q
1N
#200000
0N
#205000
1r"
0m"
1s"
1W"
1P
1N
#210000
0N
#215000
0r"
b11000 u#
b1 L
b1 7"
b1 5#
b1 Z#
1K#
1L#
0s"
0W"
b1000000 8#
b0 R
b0 h"
b0 6
b0 d"
b0 C$
b0 S
b0 j"
b0 V"
b0 O
b0 g"
0T
0P
0Q
b0 O#
b1000000 P#
b11 K$
b101000 J$
1N
#220000
0N
#225000
0K#
1L#
1m"
b1111 R
b1111 h"
b11 6
b11 d"
b11 C$
b11 S
b11 j"
b101000 V"
b101000 O
b101000 g"
1T
1Q
1N
#230000
0N
#235000
1r"
0m"
1s"
1W"
1P
1N
#240000
0N
#245000
0r"
b11 (
b11 -"
b11 ~"
b11 _#
1K#
1L#
0s"
0W"
b11 <#
b0 R
b0 h"
b0 6
b0 d"
b0 C$
b0 S
b0 j"
b0 V"
b0 O
b0 g"
0T
0P
0Q
b11 P#
b0 K$
b101100 J$
1N
#250000
0N
#255000
0K#
1L#
1m"
b1111 R
b1111 h"
b101100 V"
b101100 O
b101100 g"
1T
1Q
1N
#260000
0N
#265000
1r"
0m"
1s"
1W"
1P
1N
#270000
0N
#275000
0r"
1K#
1L#
0s"
0W"
b0 R
b0 h"
b0 V"
b0 O
b0 g"
0T
0P
0Q
b0 P#
b100 K$
b110000 J$
1N
#280000
0N
#285000
0K#
1L#
1m"
b1111 R
b1111 h"
b100 6
b100 d"
b100 C$
b100 S
b100 j"
b110000 V"
b110000 O
b110000 g"
1T
1Q
1N
#290000
0N
#295000
1r"
0m"
1s"
1W"
1P
1N
#300000
0N
#305000
0r"
1K#
1L#
0s"
0W"
b100 G
b100 2"
b100 0#
b100 ;#
b100 j#
b0 R
b0 h"
b0 6
b0 d"
b0 C$
b0 S
b0 j"
b0 V"
b0 O
b0 g"
0T
0P
0Q
b100 P#
b100000001 K$
b100 J$
1N
#310000
0N
#315000
0K#
1L#
1m"
b1111 R
b1111 h"
b100000001 6
b100000001 d"
b100000001 C$
b100000001 S
b100000001 j"
b100 V"
b100 O
b100 g"
1T
1Q
1N
#320000
0N
#325000
1\"
1]"
1r"
0m"
1s"
1W"
1P
1N
#330000
0N
#335000
0\"
0r"
0]"
1K#
1L#
0s"
0W"
1F
1=#
b0 R
b0 h"
b0 6
b0 d"
b0 C$
b0 S
b0 j"
b0 V"
b0 O
b0 g"
0T
0P
0Q
b1 Q#
b1 O#
b100000001 P#
1N
#340000
0N
#345000
b0zz }#
b11000000000000000000000000 ;$
b1 =$
1K"
1;"
1E
1-
b100 |
b100 <"
b100 &"
b100 F"
b11 )"
b11 I"
b1 y
b1 8"
1N
#350000
0N
#355000
b10 =$
0~#
0F
0=#
0-
0E
b0zz |#
b11000000000000000000000000 :$
b1 <$
1N
#360000
0N
#365000
b1 &$
b1 ?$
17$
0A
b10 <$
1N
#370000
0N
#375000
b0zzz0 n
b0 p
bz0 s#
0e#
bz0 \
0X
bz0 !
16$
b1 %$
1N
#380000
0N
#385000
13$
1N
#390000
0N
#395000
b1 4$
1N
#400000
0N
#405000
b10 4$
1N
#410000
0N
#415000
b11 4$
1N
#420000
0N
#425000
b100 4$
1N
#430000
0N
#435000
b0 n
b10 o
b1 k
b1 ^
b1 s
b1 x#
b110000000000000000000000000 ;$
17$
b1 &$
1\#
1r#
1i#
1$
15$
18$
b0 4$
1N
#440000
0N
#445000
0\#
0r#
b1 x#
b110000000000000000000000000 ;$
17$
b1 &$
0i#
b1 w#
b110000000000000000000000000 :$
b1 4$
05$
1N
#450000
0N
#455000
b10 4$
1N
#460000
0N
#465000
b11 4$
1N
#470000
0N
#475000
b100 4$
1N
#480000
0N
#485000
17$
b1 &$
1q#
1n#
0$
15$
08$
19$
b0 4$
1N
#490000
0N
#495000
17$
b1 &$
0q#
0n#
b1 4$
05$
1N
#500000
0N
#505000
b10 4$
1N
#510000
0N
#515000
b11 4$
1N
#520000
0N
#525000
b100 4$
1N
#530000
0N
#535000
b11 o
b10 ^
b10 x#
b1100000000000000000000000000 ;$
17$
b1 &$
1\#
1r#
1i#
1$
15$
18$
09$
b0 4$
1N
#540000
0N
#545000
0\#
0r#
b10 x#
b1100000000000000000000000000 ;$
17$
b1 &$
0i#
b10 w#
b1100000000000000000000000000 :$
b1 4$
05$
1N
#550000
0N
#555000
b10 4$
1N
#560000
0N
#565000
b11 4$
1N
#570000
0N
#575000
b100 4$
1N
#580000
0N
#585000
17$
b1 &$
1q#
1n#
0$
15$
08$
19$
b0 4$
1N
#590000
0N
#595000
17$
b1 &$
0q#
0n#
b1 4$
05$
1N
#600000
0N
#605000
b10 4$
1N
#610000
0N
#615000
b11 4$
1N
#620000
0N
#625000
b100 4$
1N
#630000
0N
#635000
b100 o
b11 ^
b11 x#
b11000000000000000000000000000 ;$
17$
b1 &$
1\#
1r#
1i#
1$
15$
18$
09$
b0 4$
1N
#640000
0N
#645000
0\#
0r#
b11 x#
b11000000000000000000000000000 ;$
17$
b1 &$
0i#
b11 w#
b11000000000000000000000000000 :$
b1 4$
05$
1N
#650000
0N
#655000
b10 4$
1N
#660000
0N
#665000
b11 4$
1N
#670000
0N
#675000
b100 4$
1N
#680000
0N
#685000
17$
b1 &$
1q#
1n#
0$
15$
08$
19$
b0 4$
1N
#690000
0N
#695000
17$
b1 &$
0q#
0n#
b1 4$
05$
1N
#700000
0N
#705000
b10 4$
1N
#710000
0N
#715000
b11 4$
1N
#720000
0N
#725000
b100 4$
1N
#730000
0N
#735000
b101 o
b100 ^
b100 x#
b110000000000000000000000000000 ;$
17$
b1 &$
1\#
1r#
1i#
1$
15$
18$
09$
b0 4$
1N
#740000
0N
#745000
0\#
0r#
b100 x#
b110000000000000000000000000000 ;$
17$
b1 &$
0i#
b100 w#
b110000000000000000000000000000 :$
b1 4$
05$
1N
#750000
0N
#755000
b10 4$
1N
#760000
0N
#765000
b11 4$
1N
#770000
0N
#775000
b100 4$
1N
#780000
0N
#785000
17$
b1 &$
1q#
1n#
0$
15$
08$
19$
b0 4$
1N
#790000
0N
#795000
17$
b1 &$
0q#
0n#
b1 4$
05$
1N
#800000
0N
#805000
b10 4$
1N
#810000
0N
#815000
b11 4$
1N
#820000
0N
#825000
b100 4$
1N
#830000
0N
#835000
b110 o
b101 ^
b101 x#
b1100000000000000000000000000000 ;$
17$
b1 &$
1\#
1r#
1i#
1$
15$
18$
09$
b0 4$
1N
#840000
0N
#845000
0\#
0r#
b101 x#
b1100000000000000000000000000000 ;$
17$
b1 &$
0i#
b101 w#
b1100000000000000000000000000000 :$
b1 4$
05$
1N
#850000
0N
#855000
b10 4$
1N
#860000
0N
#865000
b11 4$
1N
#870000
0N
#875000
b100 4$
1N
#880000
0N
#885000
17$
b1 &$
1q#
1n#
0$
15$
08$
19$
b0 4$
1N
#890000
0N
#895000
17$
b1 &$
0q#
0n#
b1 4$
05$
1N
#900000
0N
#905000
b10 4$
1N
#910000
0N
#915000
b11 4$
1N
#920000
0N
#925000
b100 4$
1N
#930000
0N
#935000
b111 o
b110 ^
b110 x#
b11000000000000000000000000000000 ;$
17$
b1 &$
1\#
1r#
1i#
1$
15$
18$
09$
b0 4$
1N
#940000
0N
#945000
b1 n
b1 p
bz1 s#
1e#
bz1 \
1X
bz1 !
0\#
0r#
b110 x#
b11000000000000000000000000000000 ;$
17$
b1 &$
b1 +$
0i#
b110 w#
b11000000000000000000000000000000 :$
b1 4$
05$
1N
#950000
0N
#955000
b10 4$
1N
#960000
0N
#965000
b11 4$
1N
#970000
0N
#975000
b100 4$
1N
#980000
0N
#985000
17$
b1 &$
1q#
1n#
0$
15$
08$
19$
b0 4$
1N
#990000
0N
