int_csr_ce_fsm_dma_tb.vcd
$date
	Sat Sep  6 15:21:22 2025
$end
$version
	Icarus Verilog
$end
$timescale
	1ps
$end
$scope module int_csr_ce_fsm_dma_tb $end
$var wire 4 ! io [3:0] $end
$var wire 1 " pready $end
$var wire 1 # xip_en_w $end
$var wire 1 $ sclk $end
$var wire 1 % quad_en_w $end
$var wire 1 & pslverr $end
$var wire 32 ' prdata [31:0] $end
$var wire 8 ( opcode_w [7:0] $end
$var wire 1 ) mode_en_w $end
$var wire 8 * mode_bits_w [7:0] $end
$var wire 1 + m_wvalid $end
$var wire 4 , m_wstrb [3:0] $end
$var wire 1 - m_wready $end
$var wire 32 . m_wdata [31:0] $end
$var wire 1 / m_rvalid $end
$var wire 2 0 m_rresp [1:0] $end
$var wire 1 1 m_rready $end
$var wire 32 2 m_rdata [31:0] $end
$var wire 1 3 m_bvalid $end
$var wire 2 4 m_bresp [1:0] $end
$var wire 1 5 m_bready $end
$var wire 1 6 m_awvalid $end
$var wire 1 7 m_awready $end
$var wire 32 8 m_awaddr [31:0] $end
$var wire 1 9 m_arvalid $end
$var wire 1 : m_arready $end
$var wire 32 ; m_araddr [31:0] $end
$var wire 1 < is_write_w $end
$var wire 1 = incr_addr_w $end
$var wire 1 > fsm_tx_ren_w $end
$var wire 1 ? fsm_start_w $end
$var wire 1 @ fsm_rx_wen_w $end
$var wire 32 A fsm_rx_data_w [31:0] $end
$var wire 1 B fsm_done_w $end
$var wire 1 C fifo_tx_we_csr_w $end
$var wire 32 D fifo_tx_rd_data_w [31:0] $end
$var wire 6 E fifo_tx_level_w [5:0] $end
$var wire 1 F fifo_tx_full_w $end
$var wire 1 G fifo_tx_empty_w $end
$var wire 32 H fifo_tx_data_csr_w [31:0] $end
$var wire 1 I fifo_rx_re_dma_w $end
$var wire 1 J fifo_rx_re_csr_w $end
$var wire 32 K fifo_rx_rd_data_w [31:0] $end
$var wire 6 L fifo_rx_level_w [5:0] $end
$var wire 1 M fifo_rx_full_w $end
$var wire 1 N fifo_rx_empty_w $end
$var wire 8 O extra_dummy_w [7:0] $end
$var wire 1 P enable_w $end
$var wire 4 Q dummy_cycles_w [3:0] $end
$var wire 32 R dma_len_w [31:0] $end
$var wire 1 S dma_en_w $end
$var wire 1 T dma_done_set_w $end
$var wire 1 U dma_dir_w $end
$var wire 1 V dma_busy_w $end
$var wire 1 W dma_axi_err_w $end
$var wire 32 X dma_addr_w [31:0] $end
$var wire 2 Y data_lanes_w [1:0] $end
$var wire 1 Z cs_n $end
$var wire 1 [ cs_auto_w $end
$var wire 1 \ cpol_w $end
$var wire 1 ] cpha_w $end
$var wire 1 ^ cmd_trigger_clr_w $end
$var wire 1 _ cmd_start_w $end
$var wire 32 ` cmd_len_w [31:0] $end
$var wire 2 a cmd_lanes_w [1:0] $end
$var wire 32 b cmd_addr_w [31:0] $end
$var wire 3 c clk_div_w [2:0] $end
$var wire 4 d burst_size_w [3:0] $end
$var wire 2 e addr_lanes_w [1:0] $end
$var wire 2 f addr_bytes_w [1:0] $end
$var reg 1 g clk $end
$var reg 12 h paddr [11:0] $end
$var reg 1 i penable $end
$var reg 1 j psel $end
$var reg 4 k pstrb [3:0] $end
$var reg 32 l pwdata [31:0] $end
$var reg 1 m pwrite $end
$var reg 1 n resetn $end
$var integer 32 o i [31:0] $end
$scope module dev $end
$var wire 1 p qspi_io0 $end
$var wire 1 q qspi_io1 $end
$var wire 1 r qspi_io2 $end
$var wire 1 s qspi_io3 $end
$var wire 1 $ qspi_sclk $end
$var wire 1 Z qspi_cs_n $end
$var wire 4 t io_di [3:0] $end
$var reg 2 u addr_bytes [1:0] $end
$var reg 24 v addr_reg [23:0] $end
$var reg 6 w bit_cnt [5:0] $end
$var reg 8 x cmd_reg [7:0] $end
$var reg 2 y data_lanes [1:0] $end
$var reg 5 z dummy_cycles [4:0] $end
$var reg 1 { erase_pending $end
$var reg 24 | id_reg [23:0] $end
$var reg 4 } io_do [3:0] $end
$var reg 4 ~ io_oe [3:0] $end
$var reg 8 !" shift_in [7:0] $end
$var reg 8 "" shift_out [7:0] $end
$var reg 4 #" state [3:0] $end
$var reg 8 $" status_reg [7:0] $end
$var integer 32 %" k [31:0] $end
$scope begin $unm_blk_201 $end
$var integer 32 &" base [31:0] $end
$var integer 32 '" s [31:0] $end
$upscope $end
$upscope $end
$scope module u_ce $end
$var wire 2 (" addr_bytes_o [1:0] $end
$var wire 2 )" addr_lanes_o [1:0] $end
$var wire 32 *" addr_o [31:0] $end
$var wire 1 +" busy_o $end
$var wire 1 g clk $end
$var wire 32 ," clk_div_o [31:0] $end
$var wire 2 -" cmd_lanes_o [1:0] $end
$var wire 1 ." cpha_o $end
$var wire 1 /" cpol_o $end
$var wire 1 0" cs_auto_o $end
$var wire 2 1" data_lanes_o [1:0] $end
$var wire 1 2" dir_o $end
$var wire 4 3" dummy_cycles_o [3:0] $end
$var wire 32 4" len_o [31:0] $end
$var wire 8 5" mode_bits_o [7:0] $end
$var wire 1 6" mode_en_o $end
$var wire 8 7" opcode_o [7:0] $end
$var wire 1 8" quad_en_o $end
$var wire 1 n resetn $end
$var wire 1 9" xip_cont_read_i $end
$var wire 1 :" xip_cont_read_o $end
$var wire 1 % quad_en_i $end
$var wire 8 ;" opcode_i [7:0] $end
$var wire 1 ) mode_en_i $end
$var wire 8 <" mode_bits_i [7:0] $end
$var wire 1 < is_write_i $end
$var wire 8 =" extra_dummy_i [7:0] $end
$var wire 5 >" dummy_sum [4:0] $end
$var wire 4 ?" dummy_eff [3:0] $end
$var wire 4 @" dummy_cycles_i [3:0] $end
$var wire 1 B done_i $end
$var wire 2 A" data_lanes_i [1:0] $end
$var wire 1 [ cs_auto_i $end
$var wire 1 \ cpol_i $end
$var wire 1 ] cpha_i $end
$var wire 1 _ cmd_start_i $end
$var wire 32 B" cmd_len_i [31:0] $end
$var wire 2 C" cmd_lanes_i [1:0] $end
$var wire 32 D" cmd_addr_i [31:0] $end
$var wire 3 E" clk_div_i [2:0] $end
$var wire 2 F" addr_lanes_i [1:0] $end
$var wire 2 G" addr_bytes_i [1:0] $end
$var reg 2 H" addr_bytes_r [1:0] $end
$var reg 2 I" addr_lanes_r [1:0] $end
$var reg 32 J" addr_r [31:0] $end
$var reg 1 K" busy_r $end
$var reg 32 L" clk_div_r [31:0] $end
$var reg 1 M" cmd_done_set_o $end
$var reg 2 N" cmd_lanes_r [1:0] $end
$var reg 1 ^ cmd_trigger_clr_o $end
$var reg 1 O" cpha_r $end
$var reg 1 P" cpol_r $end
$var reg 1 Q" cs_auto_r $end
$var reg 2 R" data_lanes_r [1:0] $end
$var reg 4 S" dummy_cycles_r [3:0] $end
$var reg 1 T" is_write_r $end
$var reg 32 U" len_r [31:0] $end
$var reg 8 V" mode_bits_r [7:0] $end
$var reg 1 W" mode_en_r $end
$var reg 8 X" opcode_r [7:0] $end
$var reg 1 Y" quad_en_r $end
$var reg 1 ? start_o $end
$var reg 1 Z" xip_cont_read_r $end
$upscope $end
$scope module u_csr $end
$var wire 32 [" CLKDIV_WMASK [31:0] $end
$var wire 32 \" CMDCFG_WMASK [31:0] $end
$var wire 32 ]" CMDDMY_WMASK [31:0] $end
$var wire 32 ^" CMDOP_WMASK [31:0] $end
$var wire 32 _" CSCTRL_WMASK [31:0] $end
$var wire 32 `" CTRL_WMASK [31:0] $end
$var wire 32 a" DMACFG_WMASK [31:0] $end
$var wire 32 b" XIPCFG_WMASK [31:0] $end
$var wire 32 c" XIPCMD_WMASK [31:0] $end
$var wire 12 d" a [11:0] $end
$var wire 1 e" access_phase $end
$var wire 32 f" cmd_addr_o [31:0] $end
$var wire 1 g" cmd_done_i $end
$var wire 1 _ cmd_start_o $end
$var wire 1 h" cmd_trig_ok $end
$var wire 1 i" cmd_trig_wr $end
$var wire 1 ^ cmd_trigger_clr_i $end
$var wire 32 j" dma_addr_o [31:0] $end
$var wire 1 k" dma_done_i $end
$var wire 32 l" dma_len_o [31:0] $end
$var wire 1 m" fifo_rx_full_set_i $end
$var wire 1 J fifo_rx_re_o $end
$var wire 32 n" fifo_tx_data_o [31:0] $end
$var wire 1 o" fifo_tx_empty_set_i $end
$var wire 1 C fifo_tx_we_o $end
$var wire 1 p" mode_en_cfg_o $end
$var wire 1 q" overrun_i $end
$var wire 12 r" paddr [11:0] $end
$var wire 1 g pclk $end
$var wire 1 i penable $end
$var wire 1 " pready $end
$var wire 1 n presetn $end
$var wire 1 j psel $end
$var wire 4 s" pstrb [3:0] $end
$var wire 4 t" pstrb_eff [3:0] $end
$var wire 32 u" pwdata [31:0] $end
$var wire 1 m pwrite $end
$var wire 1 v" read_phase $end
$var wire 4 w" rx_level_i [3:0] $end
$var wire 1 x" setup_phase $end
$var wire 1 y" timeout_i $end
$var wire 4 z" tx_level_i [3:0] $end
$var wire 1 {" underrun_i $end
$var wire 1 |" wp_en_o $end
$var wire 1 }" wr_ok $end
$var wire 1 ~" write_phase $end
$var wire 1 !# xip_active_i $end
$var wire 8 "# xip_write_op_o [7:0] $end
$var wire 1 ## xip_write_en_o $end
$var wire 8 $# xip_read_op_o [7:0] $end
$var wire 1 %# xip_mode_en_o $end
$var wire 8 &# xip_mode_bits_o [7:0] $end
$var wire 1 # xip_en_o $end
$var wire 4 '# xip_dummy_cycles_o [3:0] $end
$var wire 2 (# xip_data_lanes_o [1:0] $end
$var wire 1 )# xip_cont_read_o $end
$var wire 2 *# xip_addr_bytes_o [1:0] $end
$var wire 1 G tx_empty_i $end
$var wire 1 M rx_full_i $end
$var wire 1 % quad_en_o $end
$var wire 8 +# opcode_o [7:0] $end
$var wire 1 ) mode_en_o $end
$var wire 8 ,# mode_bits_o [7:0] $end
$var wire 1 -# lsb_first_o $end
$var wire 1 < is_write_o $end
$var wire 1 .# irq $end
$var wire 5 /# int_en_o [4:0] $end
$var wire 1 = incr_addr_o $end
$var wire 1 0# hold_en_o $end
$var wire 32 1# fifo_rx_data_i [31:0] $end
$var wire 8 2# extra_dummy_o [7:0] $end
$var wire 1 W err_set_i $end
$var wire 1 P enable_o $end
$var wire 4 3# dummy_cycles_o [3:0] $end
$var wire 1 S dma_en_o $end
$var wire 1 T dma_done_set_i $end
$var wire 1 U dma_dir_o $end
$var wire 2 4# data_lanes_o [1:0] $end
$var wire 2 5# cs_level_o [1:0] $end
$var wire 2 6# cs_delay_o [1:0] $end
$var wire 1 [ cs_auto_o $end
$var wire 1 \ cpol_o $end
$var wire 1 ] cpha_o $end
$var wire 32 7# cmd_len_o [31:0] $end
$var wire 2 8# cmd_lanes_o [1:0] $end
$var wire 1 B cmd_done_set_i $end
$var wire 3 9# clk_div_o [2:0] $end
$var wire 1 V busy_i $end
$var wire 4 :# burst_size_o [3:0] $end
$var wire 1 W axi_err_i $end
$var wire 2 ;# addr_lanes_o [1:0] $end
$var wire 2 <# addr_bytes_o [1:0] $end
$var reg 32 =# clk_div_reg [31:0] $end
$var reg 32 ># cmd_addr_reg [31:0] $end
$var reg 32 ?# cmd_cfg_reg [31:0] $end
$var reg 1 @# cmd_done_latched $end
$var reg 32 A# cmd_dummy_reg [31:0] $end
$var reg 32 B# cmd_len_reg [31:0] $end
$var reg 32 C# cmd_op_reg [31:0] $end
$var reg 1 D# cmd_trig_q $end
$var reg 32 E# cs_ctrl_reg [31:0] $end
$var reg 32 F# ctrl_reg [31:0] $end
$var reg 32 G# dma_addr_reg [31:0] $end
$var reg 32 H# dma_cfg_reg [31:0] $end
$var reg 1 I# dma_done_latched $end
$var reg 32 J# dma_len_reg [31:0] $end
$var reg 32 K# err_stat_reg [31:0] $end
$var reg 32 L# int_en_reg [31:0] $end
$var reg 32 M# int_stat_reg [31:0] $end
$var reg 32 N# prdata [31:0] $end
$var reg 1 & pslverr $end
$var reg 1 O# ro_addr $end
$var reg 1 P# valid_addr $end
$var reg 32 Q# xip_cfg_reg [31:0] $end
$var reg 32 R# xip_cmd_reg [31:0] $end
$scope function apply_strb $end
$var reg 32 S# cur [31:0] $end
$var reg 32 T# data [31:0] $end
$upscope $end
$scope begin $unm_blk_31 $end
$var reg 32 U# next_ctrl [31:0] $end
$upscope $end
$upscope $end
$scope module u_dma $end
$var wire 32 V# araddr_o [31:0] $end
$var wire 1 9 arvalid_o $end
$var wire 32 W# awaddr_o [31:0] $end
$var wire 1 6 awvalid_o $end
$var wire 1 5 bready_o $end
$var wire 4 X# burst_size_i [3:0] $end
$var wire 1 g clk $end
$var wire 32 Y# dma_addr_i [31:0] $end
$var wire 1 U dma_dir_i $end
$var wire 1 S dma_en_i $end
$var wire 32 Z# dma_len_i [31:0] $end
$var wire 1 I fifo_rx_re_o $end
$var wire 32 [# fifo_tx_data_o [31:0] $end
$var wire 1 \# fifo_tx_we_o $end
$var wire 1 = incr_addr_i $end
$var wire 1 n resetn $end
$var wire 1 1 rready_o $end
$var wire 6 ]# rx_level_i [5:0] $end
$var wire 1 ^# start_pulse $end
$var wire 6 _# tx_level_i [5:0] $end
$var wire 32 `# wdata_o [31:0] $end
$var wire 4 a# wstrb_o [3:0] $end
$var wire 1 + wvalid_o $end
$var wire 1 b# wvalid_w $end
$var wire 4 c# wstrb_w [3:0] $end
$var wire 1 - wready_i $end
$var wire 1 d# wr_en_w $end
$var wire 1 e# wr_done $end
$var wire 32 f# wdata_w [31:0] $end
$var wire 1 g# tx_space_ok $end
$var wire 1 h# tx_full $end
$var wire 1 i# rx_empty $end
$var wire 1 j# rx_data_ok $end
$var wire 1 / rvalid_i $end
$var wire 2 k# rresp_i [1:0] $end
$var wire 1 l# rready_w $end
$var wire 32 m# rem_words_w [31:0] $end
$var wire 1 n# rem_lt_burst $end
$var wire 32 o# rdata_i [31:0] $end
$var wire 1 p# rd_en_w $end
$var wire 1 q# rd_done $end
$var wire 32 r# len_w [31:0] $end
$var wire 32 s# fifo_rx_data_i [31:0] $end
$var wire 32 t# data_out_w [31:0] $end
$var wire 1 3 bvalid_i $end
$var wire 1 V busy_o $end
$var wire 4 u# burst_words_w [3:0] $end
$var wire 2 v# bresp_i [1:0] $end
$var wire 1 w# bready_w $end
$var wire 4 x# beats_w [3:0] $end
$var wire 6 y# beats_level [5:0] $end
$var wire 1 z# awvalid_w $end
$var wire 1 7 awready_i $end
$var wire 32 {# awaddr_w [31:0] $end
$var wire 1 |# arvalid_w $end
$var wire 1 : arready_i $end
$var wire 32 }# araddr_w [31:0] $end
$var reg 32 ~# addr_r [31:0] $end
$var reg 1 W axi_err_o $end
$var reg 32 !$ burst_len_r [31:0] $end
$var reg 4 "$ burst_size_r [3:0] $end
$var reg 1 V busy_r $end
$var reg 1 T dma_done_set_o $end
$var reg 1 #$ dma_en_d $end
$var reg 1 $$ incr_addr_r $end
$var reg 1 %$ rd_start $end
$var reg 32 &$ rem_bytes_r [31:0] $end
$var reg 3 '$ state [2:0] $end
$var reg 1 ($ wr_start $end
$scope module u_axi_read_block $end
$var wire 32 )$ addr [31:0] $end
$var wire 1 g clk $end
$var wire 1 h# full $end
$var wire 1 *$ reset $end
$var wire 1 %$ start $end
$var wire 16 +$ transfer_size [15:0] $end
$var wire 1 / rvalid $end
$var wire 32 ,$ rdata [31:0] $end
$var wire 1 : arready $end
$var reg 32 -$ addr_reg [31:0] $end
$var reg 32 .$ araddr [31:0] $end
$var reg 1 |# arvalid $end
$var reg 1 /$ busy $end
$var reg 16 0$ count [15:0] $end
$var reg 32 1$ data_out [31:0] $end
$var reg 1 q# done $end
$var reg 1 l# rready $end
$var reg 2 2$ state [1:0] $end
$var reg 1 d# wr_en $end
$upscope $end
$scope module u_axi_write_block $end
$var wire 32 3$ addr [31:0] $end
$var wire 1 g clk $end
$var wire 1 i# empty $end
$var wire 1 4$ reset $end
$var wire 1 ($ start $end
$var wire 16 5$ transfer_size [15:0] $end
$var wire 1 - wready $end
$var wire 32 6$ data_in [31:0] $end
$var wire 1 3 bvalid $end
$var wire 1 7 awready $end
$var reg 32 7$ addr_reg [31:0] $end
$var reg 32 8$ awaddr [31:0] $end
$var reg 1 z# awvalid $end
$var reg 1 w# bready $end
$var reg 1 9$ busy $end
$var reg 16 :$ count [15:0] $end
$var reg 1 e# done $end
$var reg 1 ;$ have_word $end
$var reg 1 <$ hold_bready $end
$var reg 1 p# rd_en $end
$var reg 1 =$ rd_pending $end
$var reg 2 >$ state [1:0] $end
$var reg 32 ?$ wdata [31:0] $end
$var reg 32 @$ word_q [31:0] $end
$var reg 4 A$ wstrb [3:0] $end
$var reg 1 b# wvalid $end
$upscope $end
$upscope $end
$scope module u_frx $end
$var wire 1 g clk $end
$var wire 1 B$ rd_en_i $end
$var wire 1 n resetn $end
$var wire 1 @ wr_en_i $end
$var wire 32 C$ wr_data_i [31:0] $end
$var wire 1 M full_o $end
$var wire 1 N empty_o $end
$var reg 5 D$ count [4:0] $end
$var reg 5 E$ level_o [4:0] $end
$var reg 32 F$ rd_data_o [31:0] $end
$var reg 4 G$ rptr [3:0] $end
$var reg 4 H$ wptr [3:0] $end
$upscope $end
$scope module u_fsm $end
$var wire 32 I$ addr [31:0] $end
$var wire 2 J$ addr_bytes_sel [1:0] $end
$var wire 2 K$ addr_lanes_sel [1:0] $end
$var wire 1 L$ bit_tick $end
$var wire 1 g clk $end
$var wire 32 M$ clk_div [31:0] $end
$var wire 2 N$ cmd_lanes_sel [1:0] $end
$var wire 8 O$ cmd_opcode [7:0] $end
$var wire 1 ] cpha $end
$var wire 1 \ cpol $end
$var wire 1 P$ cs_auto $end
$var wire 2 Q$ data_lanes_sel [1:0] $end
$var wire 1 R$ dir $end
$var wire 1 B done $end
$var wire 4 S$ dummy_cycles [3:0] $end
$var wire 1 T$ io0 $end
$var wire 1 U$ io1 $end
$var wire 1 V$ io2 $end
$var wire 1 W$ io3 $end
$var wire 1 X$ leading_edge $end
$var wire 32 Y$ len_bytes [31:0] $end
$var wire 8 Z$ mode_bits [7:0] $end
$var wire 1 [$ mode_en $end
$var wire 1 \$ quad_en $end
$var wire 1 n resetn $end
$var wire 1 M rx_full $end
$var wire 1 ? start $end
$var wire 1 ]$ trailing_edge $end
$var wire 1 > tx_ren $end
$var wire 1 ^$ xip_cont_read $end
$var wire 1 G tx_empty $end
$var wire 32 _$ tx_data_fifo [31:0] $end
$var wire 1 `$ shift_pulse $end
$var wire 1 $ sclk $end
$var wire 1 a$ sample_pulse $end
$var wire 4 b$ io_di [3:0] $end
$var wire 6 c$ addr_bits [5:0] $end
$var reg 3 d$ addr_lanes_eff [2:0] $end
$var reg 6 e$ bit_cnt [5:0] $end
$var reg 6 f$ bit_cnt_n [5:0] $end
$var reg 32 g$ byte_cnt [31:0] $end
$var reg 32 h$ byte_cnt_n [31:0] $end
$var reg 3 i$ cmd_lanes_eff [2:0] $end
$var reg 1 Z cs_n $end
$var reg 1 j$ cs_n_n $end
$var reg 3 k$ data_lanes_eff [2:0] $end
$var reg 4 l$ dummy_cnt [3:0] $end
$var reg 4 m$ dummy_cnt_n [3:0] $end
$var reg 4 n$ in_bits [3:0] $end
$var reg 4 o$ io_oe [3:0] $end
$var reg 4 p$ io_oe_n [3:0] $end
$var reg 3 q$ lanes [2:0] $end
$var reg 3 r$ lanes_n [2:0] $end
$var reg 4 s$ out_bits [3:0] $end
$var reg 32 t$ rx_data_fifo [31:0] $end
$var reg 1 @ rx_wen $end
$var reg 32 u$ sclk_cnt [31:0] $end
$var reg 1 v$ sclk_edge $end
$var reg 1 w$ sclk_en $end
$var reg 1 x$ sclk_en_n $end
$var reg 1 y$ sclk_q $end
$var reg 1 z$ sclk_q_prev $end
$var reg 32 {$ shreg [31:0] $end
$var reg 32 |$ shreg_n [31:0] $end
$var reg 4 }$ state [3:0] $end
$var reg 4 ~$ state_n [3:0] $end
$scope function lane_decode $end
$var reg 2 !% sel [1:0] $end
$upscope $end
$scope function lane_mask $end
$var reg 3 "% lanes [2:0] $end
$upscope $end
$upscope $end
$scope module u_ftx $end
$var wire 1 g clk $end
$var wire 1 > rd_en_i $end
$var wire 1 n resetn $end
$var wire 32 #% wr_data_i [31:0] $end
$var wire 1 C wr_en_i $end
$var wire 1 F full_o $end
$var wire 1 G empty_o $end
$var reg 5 $% count [4:0] $end
$var reg 5 %% level_o [4:0] $end
$var reg 32 &% rd_data_o [31:0] $end
$var reg 4 '% rptr [3:0] $end
$var reg 4 (% wptr [3:0] $end
$upscope $end
$scope module u_ram $end
$var wire 32 )% araddr [31:0] $end
$var wire 1 9 arvalid $end
$var wire 32 *% awaddr [31:0] $end
$var wire 1 6 awvalid $end
$var wire 1 5 bready $end
$var wire 1 g clk $end
$var wire 1 n resetn $end
$var wire 1 1 rready $end
$var wire 32 +% wdata [31:0] $end
$var wire 4 ,% wstrb [3:0] $end
$var wire 1 + wvalid $end
$var reg 1 : arready $end
$var reg 1 -% aw_captured $end
$var reg 1 7 awready $end
$var reg 2 .% bresp [1:0] $end
$var reg 1 3 bvalid $end
$var reg 32 /% cur [31:0] $end
$var reg 32 0% rd_addr_q [31:0] $end
$var reg 32 1% rdata [31:0] $end
$var reg 2 2% rresp [1:0] $end
$var reg 1 / rvalid $end
$var reg 32 3% wr_addr_q [31:0] $end
$var reg 1 - wready $end
$upscope $end
$scope task apb_write $end
$var reg 12 4% addr [11:0] $end
$var reg 32 5% data [31:0] $end
$upscope $end
$upscope $end
$enddefinitions $end
#0
$dumpvars
bx 5%
bx 4%
bx 3%
bx 2%
bx 1%
bx 0%
bx /%
bx .%
x-%
bx ,%
bx +%
bx *%
bx )%
bx (%
bx '%
bx &%
bx %%
bx $%
b0 #%
bx "%
b0 !%
b0 ~$
b0 }$
b0 |$
b0 {$
0z$
0y$
0x$
0w$
0v$
b0 u$
b0 t$
b0 s$
b1 r$
b1 q$
b0 p$
b0 o$
b0z n$
b0 m$
b0 l$
b1 k$
1j$
b1 i$
b0 h$
b0 g$
b0 f$
b0 e$
b1 d$
b0 c$
bz b$
0a$
0`$
bx _$
0^$
0]$
0\$
0[$
b0 Z$
b0 Y$
0X$
zW$
zV$
zU$
zT$
b0 S$
1R$
b0 Q$
1P$
b0 O$
b0 N$
b0 M$
0L$
b0 K$
b0 J$
b0 I$
bx H$
bx G$
bx F$
bx E$
bx D$
b0 C$
xB$
bx A$
bx @$
bx ?$
bx >$
x=$
x<$
x;$
bx :$
x9$
bx 8$
bx 7$
bx 6$
bx 5$
14$
bx 3$
bx 2$
bx 1$
bx 0$
x/$
bx .$
bx -$
bx ,$
bx +$
1*$
bx )$
x($
bx '$
bx &$
x%$
x$$
x#$
bx "$
bx !$
bx ~#
bx }#
x|#
bx {#
xz#
b0xxxx y#
bx x#
xw#
bx v#
bx u#
bx t#
bx s#
b0xxxx00 r#
xq#
xp#
bx o#
xn#
b0xxxxxxxxxxxxxxxxxxxxxxxxxxxxxx m#
xl#
bx k#
xj#
xi#
xh#
xg#
bx f#
xe#
xd#
bx c#
xb#
bx a#
bx `#
b0xxxxx _#
0^#
b0xxxxx ]#
x\#
bx [#
b0 Z#
b0 Y#
b0 X#
bx W#
bx V#
bx U#
bx T#
bx S#
b0 R#
b0 Q#
1P#
1O#
b0 N#
b0 M#
b0 L#
b0 K#
b0 J#
0I#
b0 H#
b0 G#
b0 F#
b1 E#
0D#
b0 C#
b0 B#
b0 A#
0@#
b0 ?#
b0 >#
b0 =#
b0 <#
b0 ;#
b0 :#
b0 9#
b0 8#
b0 7#
b0 6#
b0 5#
b0 4#
b0 3#
b0 2#
bx 1#
00#
b0 /#
0.#
0-#
b0 ,#
b0 +#
b0 *#
0)#
b0 (#
b0 '#
b0 &#
0%#
b0 $#
0##
b0 "#
0!#
0~"
0}"
0|"
0{"
bx z"
0y"
0x"
bx w"
0v"
b0 u"
b1111 t"
b0 s"
b0 r"
0q"
0p"
0o"
b0 n"
0m"
b0 l"
0k"
b0 j"
0i"
0h"
0g"
b0 f"
0e"
b0 d"
b111111111111111111111111 c"
b11111111111111 b"
b111111 a"
b1011111111 `"
b11111 _"
b1111111111111111 ^"
b11111111 ]"
b1111111111111 \"
b1111 ["
xZ"
xY"
bx X"
xW"
bx V"
bx U"
xT"
bx S"
bx R"
xQ"
xP"
xO"
bx N"
xM"
bx L"
xK"
bx J"
bx I"
bx H"
b0 G"
b0 F"
b0 E"
b0 D"
b0 C"
b0 B"
b0 A"
b0 @"
b0 ?"
b0 >"
b0 ="
b0 <"
b0 ;"
x:"
09"
x8"
bx 7"
x6"
bx 5"
bx 4"
bx 3"
x2"
bx 1"
x0"
x/"
x."
bx -"
bx ,"
x+"
bx *"
bx )"
bx ("
bx '"
bx &"
b100000000000000000000 %"
b0 $"
b0 #"
b0 ""
b0 !"
b0 ~
b0 }
b110000100010000000010111 |
x{
b0 z
b0 y
b0 x
b0 w
bx v
b0 u
bz t
zs
zr
zq
zp
bx o
0n
0m
b0 l
b0 k
0j
0i
b0 h
0g
b0 f
b0 e
b0 d
b0 c
b0 b
b0 a
b0 `
0_
x^
0]
0\
1[
1Z
b0 Y
b0 X
xW
xV
0U
xT
0S
b0 R
b0 Q
0P
b0 O
xN
xM
b0xxxxx L
bx K
0J
xI
b0 H
xG
xF
b0xxxxx E
bx D
0C
0B
b0 A
0@
x?
0>
0=
0<
bx ;
x:
x9
bx 8
x7
x6
x5
bx 4
x3
bx 2
x1
bx 0
x/
bx .
x-
bx ,
x+
b0 *
0)
b0 (
b0 '
0&
0%
0$
0#
1"
bz !
$end
#5000
b0 r#
1g#
1j#
b0 y#
b0 x#
12"
b0 z"
b0 w"
0B$
b0 +$
b0 5$
1n#
b0 m#
b1 u#
0."
0O"
0/"
0P"
b0 ,"
b0 L"
0:"
0Z"
00"
0Q"
08"
0Y"
b0 4"
b0 U"
b0 *"
b0 J"
b0 5"
b0 V"
b0 7"
b0 X"
0T"
b0 3"
b0 S"
06"
0W"
b0 ("
b0 H"
b0 1"
b0 R"
b0 )"
b0 I"
b0 -"
b0 N"
0M"
0^
0?
0+"
0K"
0h#
b0 E
b0 _#
b0 %%
b0 D
b0 _$
b0 &%
0F
1G
b0 $%
b0 '%
b0 (%
1i#
b0 L
b0 ]#
b0 E$
b0 K
b0 1#
b0 s#
b0 6$
b0 F$
0M
1N
b0 D$
b0 G$
b0 H$
b0 0$
b0 -$
0q#
0/$
0\#
0d#
b0 [#
b0 t#
b0 1$
01
0l#
09
0|#
b0 ;
b0 V#
b0 )%
b0 }#
b0 .$
b0 2$
0<$
b0 @$
0=$
0;$
b0 :$
b0 7$
0e#
09$
0I
0p#
05
0w#
b1111 ,
b1111 a#
b1111 ,%
b1111 c#
b1111 A$
0+
0b#
b0 .
b0 `#
b0 +%
b0 f#
b0 ?$
06
0z#
b0 8
b0 W#
b0 *%
b0 {#
b0 8$
b0 >$
0#$
0($
0%$
b0 !$
b0 &$
b0 ~#
b0 )$
b0 3$
b0 "$
0$$
0V
0W
0T
b0 '$
0-%
b0 3%
b0 4
b0 v#
b0 .%
03
0-
07
b0 0%
b0 2
b0 o#
b0 ,$
b0 1%
b0 0
b0 k#
b0 2%
0/
0:
1g
#10000
0g
#15000
1g
#20000
0g
#25000
1g
#30000
0g
#35000
1g
#40000
0g
#45000
1g
#50000
0g
#55000
1g
#60000
0g
#65000
1g
#70000
0g
#75000
1g
#80000
0g
#85000
1g
#90000
0g
#95000
0*$
04$
b1 5%
b100 4%
1n
1g
#100000
0g
#105000
0O#
1P#
1x"
b1111 k
b1111 s"
b1 H
b1 n"
b1 #%
b1 l
b1 u"
b100 d"
b100 h
b100 r"
1m
1j
1g
#110000
0g
#115000
1}"
0x"
1~"
1e"
1i
1g
#120000
0g
#125000
0}"
1P
1O#
1P#
0~"
0e"
b1 F#
b0 k
b0 s"
b0 H
b0 n"
b0 #%
b0 l
b0 u"
b0 d"
b0 h
b0 r"
0m
0i
0j
b1 U#
b0 S#
b1 T#
b100 5%
b10100 4%
1g
#130000
0g
#135000
0O#
1P#
1x"
b1111 k
b1111 s"
b100 H
b100 n"
b100 #%
b100 l
b100 u"
b10100 d"
b10100 h
b10100 r"
1m
1j
1g
#140000
0g
#145000
1}"
0x"
1~"
1e"
1i
1g
#150000
0g
#155000
0}"
b100 M$
b100 c
b100 E"
b100 9#
1O#
1P#
0~"
0e"
b100 =#
b0 k
b0 s"
b0 H
b0 n"
b0 #%
b0 l
b0 u"
b0 d"
b0 h
b0 r"
0m
0i
0j
b100 T#
b1 5%
b11000 4%
1g
#160000
0g
#165000
0O#
1P#
1x"
b1111 k
b1111 s"
b1 H
b1 n"
b1 #%
b1 l
b1 u"
b11000 d"
b11000 h
b11000 r"
1m
1j
1g
#170000
0g
#175000
1}"
0x"
1~"
1e"
1i
1g
#180000
0g
#185000
0}"
1O#
1P#
0~"
0e"
b0 k
b0 s"
b0 H
b0 n"
b0 #%
b0 l
b0 u"
b0 d"
b0 h
b0 r"
0m
0i
0j
b1 S#
b1 T#
b110001 5%
b111000 4%
1g
#190000
0g
#195000
0O#
1P#
1x"
b1111 k
b1111 s"
b110001 H
b110001 n"
b110001 #%
b110001 l
b110001 u"
b111000 d"
b111000 h
b111000 r"
1m
1j
1g
#200000
0g
#205000
1}"
0x"
1~"
1e"
1i
1g
#210000
0g
#215000
0}"
b1 d
b1 :#
b1 X#
1U
1=
1O#
1P#
0~"
0e"
b110001 H#
b0 k
b0 s"
b0 H
b0 n"
b0 #%
b0 l
b0 u"
b0 d"
b0 h
b0 r"
0m
0i
0j
b0 S#
b110001 T#
b0 5%
b111100 4%
1g
#220000
0g
#225000
0O#
1P#
1x"
b1111 k
b1111 s"
b111100 d"
b111100 h
b111100 r"
1m
1j
1g
#230000
0g
#235000
1}"
0x"
1~"
1e"
1i
1g
#240000
0g
