int_csr_ce_fsm_dma_tb.vcd
$date
	Tue Sep  9 02:02:04 2025
$end
$version
	Icarus Verilog
$end
$timescale
	1ps
$end
$scope module int_csr_ce_fsm_dma_tb $end
$var wire 4 ! io [3:0] $end
$var wire 1 " pready $end
$var wire 1 # xip_en_w $end
$var wire 1 $ sclk $end
$var wire 1 % quad_en_w $end
$var wire 1 & pslverr $end
$var wire 32 ' prdata [31:0] $end
$var wire 8 ( opcode_w [7:0] $end
$var wire 1 ) mode_en_w $end
$var wire 8 * mode_bits_w [7:0] $end
$var wire 1 + m_wvalid $end
$var wire 4 , m_wstrb [3:0] $end
$var wire 1 - m_wready $end
$var wire 32 . m_wdata [31:0] $end
$var wire 1 / m_rvalid $end
$var wire 2 0 m_rresp [1:0] $end
$var wire 1 1 m_rready $end
$var wire 32 2 m_rdata [31:0] $end
$var wire 1 3 m_bvalid $end
$var wire 2 4 m_bresp [1:0] $end
$var wire 1 5 m_bready $end
$var wire 1 6 m_awvalid $end
$var wire 1 7 m_awready $end
$var wire 32 8 m_awaddr [31:0] $end
$var wire 1 9 m_arvalid $end
$var wire 1 : m_arready $end
$var wire 32 ; m_araddr [31:0] $end
$var wire 1 < is_write_w $end
$var wire 1 = incr_addr_w $end
$var wire 1 > fsm_tx_ren_w $end
$var wire 1 ? fsm_start_w $end
$var wire 1 @ fsm_rx_wen_w $end
$var wire 32 A fsm_rx_data_w [31:0] $end
$var wire 1 B fsm_done_w $end
$var wire 1 C fifo_tx_we_csr_w $end
$var wire 32 D fifo_tx_rd_data_w [31:0] $end
$var wire 5 E fifo_tx_level_w [4:0] $end
$var wire 1 F fifo_tx_full_w $end
$var wire 1 G fifo_tx_empty_w $end
$var wire 32 H fifo_tx_data_csr_w [31:0] $end
$var wire 1 I fifo_rx_re_dma_w $end
$var wire 1 J fifo_rx_re_csr_w $end
$var wire 32 K fifo_rx_rd_data_w [31:0] $end
$var wire 5 L fifo_rx_level_w [4:0] $end
$var wire 1 M fifo_rx_full_w $end
$var wire 1 N fifo_rx_empty_w $end
$var wire 8 O extra_dummy_w [7:0] $end
$var wire 1 P enable_w $end
$var wire 4 Q dummy_cycles_w [3:0] $end
$var wire 32 R dma_len_w [31:0] $end
$var wire 1 S dma_en_w $end
$var wire 1 T dma_done_set_w $end
$var wire 1 U dma_dir_w $end
$var wire 1 V dma_busy_w $end
$var wire 1 W dma_axi_err_w $end
$var wire 32 X dma_addr_w [31:0] $end
$var wire 2 Y data_lanes_w [1:0] $end
$var wire 1 Z cs_n $end
$var wire 1 [ cs_auto_w $end
$var wire 1 \ cpol_w $end
$var wire 1 ] cpha_w $end
$var wire 1 ^ cmd_trigger_clr_w $end
$var wire 1 _ cmd_start_w $end
$var wire 32 ` cmd_len_w [31:0] $end
$var wire 2 a cmd_lanes_w [1:0] $end
$var wire 32 b cmd_addr_w [31:0] $end
$var wire 3 c clk_div_w [2:0] $end
$var wire 4 d burst_size_w [3:0] $end
$var wire 2 e addr_lanes_w [1:0] $end
$var wire 2 f addr_bytes_w [1:0] $end
$var reg 1 g clk $end
$var reg 12 h paddr [11:0] $end
$var reg 1 i penable $end
$var reg 1 j psel $end
$var reg 4 k pstrb [3:0] $end
$var reg 32 l pwdata [31:0] $end
$var reg 1 m pwrite $end
$var reg 1 n resetn $end
$var integer 32 o i [31:0] $end
$scope module dev $end
$var wire 1 p qspi_io0 $end
$var wire 1 q qspi_io1 $end
$var wire 1 r qspi_io2 $end
$var wire 1 s qspi_io3 $end
$var wire 1 $ qspi_sclk $end
$var wire 1 Z qspi_cs_n $end
$var wire 4 t io_di [3:0] $end
$var reg 24 u addr_reg [23:0] $end
$var reg 32 v bit_cnt [31:0] $end
$var reg 32 w byte_cnt [31:0] $end
$var reg 8 x cmd_reg [7:0] $end
$var reg 1 y continuous_read $end
$var reg 5 z dummy_cycles [4:0] $end
$var reg 32 { erase_counter [31:0] $end
$var reg 2 | id_idx [1:0] $end
$var reg 24 } id_reg [23:0] $end
$var reg 4 ~ io_do [3:0] $end
$var reg 4 !" io_oe [3:0] $end
$var reg 4 "" lanes [3:0] $end
$var reg 8 #" mode_bits [7:0] $end
$var reg 32 $" nxt_addr_reg [31:0] $end
$var reg 32 %" nxt_bit_cnt [31:0] $end
$var reg 8 &" nxt_cmd_reg [7:0] $end
$var reg 8 '" shift_in [7:0] $end
$var reg 8 (" shift_out [7:0] $end
$var reg 4 )" state [3:0] $end
$var reg 8 *" status_reg [7:0] $end
$var reg 1 +" wip $end
$scope begin $unm_blk_209 $end
$var integer 32 ," i [31:0] $end
$upscope $end
$scope begin $unm_blk_231 $end
$var integer 32 -" j [31:0] $end
$upscope $end
$scope begin $unm_blk_240 $end
$var integer 32 ." j [31:0] $end
$upscope $end
$upscope $end
$scope module u_ce $end
$var wire 2 /" addr_bytes_o [1:0] $end
$var wire 2 0" addr_lanes_o [1:0] $end
$var wire 32 1" addr_o [31:0] $end
$var wire 1 g clk $end
$var wire 3 2" clk_div_o [2:0] $end
$var wire 2 3" cmd_lanes_o [1:0] $end
$var wire 1 4" cpha_o $end
$var wire 1 5" cpol_o $end
$var wire 1 6" cs_auto_o $end
$var wire 2 7" data_lanes_o [1:0] $end
$var wire 1 8" dir_o $end
$var wire 4 9" dummy_cycles_o [3:0] $end
$var wire 32 :" len_o [31:0] $end
$var wire 8 ;" mode_bits_o [7:0] $end
$var wire 1 <" mode_en_o $end
$var wire 8 =" opcode_o [7:0] $end
$var wire 1 >" quad_en_o $end
$var wire 1 n resetn $end
$var wire 1 ?" xip_cont_read_i $end
$var wire 1 @" xip_cont_read_o $end
$var wire 1 % quad_en_i $end
$var wire 8 A" opcode_i [7:0] $end
$var wire 1 ) mode_en_i $end
$var wire 8 B" mode_bits_i [7:0] $end
$var wire 1 < is_write_i $end
$var wire 8 C" extra_dummy_i [7:0] $end
$var wire 4 D" dummy_cycles_i [3:0] $end
$var wire 1 B done_i $end
$var wire 2 E" data_lanes_i [1:0] $end
$var wire 1 [ cs_auto_i $end
$var wire 1 \ cpol_i $end
$var wire 1 ] cpha_i $end
$var wire 1 _ cmd_start_i $end
$var wire 32 F" cmd_len_i [31:0] $end
$var wire 2 G" cmd_lanes_i [1:0] $end
$var wire 32 H" cmd_addr_i [31:0] $end
$var wire 3 I" clk_div_i [2:0] $end
$var wire 2 J" addr_lanes_i [1:0] $end
$var wire 2 K" addr_bytes_i [1:0] $end
$var reg 2 L" addr_bytes_r [1:0] $end
$var reg 2 M" addr_lanes_r [1:0] $end
$var reg 32 N" addr_r [31:0] $end
$var reg 1 O" busy_o $end
$var reg 3 P" clk_div_r [2:0] $end
$var reg 1 Q" cmd_done_set_o $end
$var reg 2 R" cmd_lanes_r [1:0] $end
$var reg 1 ^ cmd_trigger_clr_o $end
$var reg 1 S" cpha_r $end
$var reg 1 T" cpol_r $end
$var reg 1 U" cs_auto_r $end
$var reg 2 V" data_lanes_r [1:0] $end
$var reg 4 W" dummy_cycles_r [3:0] $end
$var reg 8 X" extra_dummy_r [7:0] $end
$var reg 1 Y" is_write_r $end
$var reg 32 Z" len_r [31:0] $end
$var reg 8 [" mode_bits_r [7:0] $end
$var reg 1 \" mode_en_r $end
$var reg 8 ]" opcode_r [7:0] $end
$var reg 1 ^" quad_en_r $end
$var reg 1 ? start_o $end
$var reg 1 _" state $end
$var reg 1 `" xip_cont_read_r $end
$upscope $end
$scope module u_csr $end
$var wire 32 a" CLKDIV_WMASK [31:0] $end
$var wire 32 b" CMDCFG_WMASK [31:0] $end
$var wire 32 c" CMDDMY_WMASK [31:0] $end
$var wire 32 d" CMDOP_WMASK [31:0] $end
$var wire 32 e" CSCTRL_WMASK [31:0] $end
$var wire 32 f" CTRL_WMASK [31:0] $end
$var wire 32 g" DMACFG_WMASK [31:0] $end
$var wire 32 h" XIPCFG_WMASK [31:0] $end
$var wire 32 i" XIPCMD_WMASK [31:0] $end
$var wire 12 j" a [11:0] $end
$var wire 1 k" access_phase $end
$var wire 32 l" cmd_addr_o [31:0] $end
$var wire 1 m" cmd_done_i $end
$var wire 1 _ cmd_start_o $end
$var wire 1 n" cmd_trig_ok $end
$var wire 1 o" cmd_trig_wr $end
$var wire 1 ^ cmd_trigger_clr_i $end
$var wire 32 p" dma_addr_o [31:0] $end
$var wire 1 q" dma_done_i $end
$var wire 32 r" dma_len_o [31:0] $end
$var wire 1 s" fifo_rx_full_set_i $end
$var wire 1 J fifo_rx_re_o $end
$var wire 32 t" fifo_tx_data_o [31:0] $end
$var wire 1 u" fifo_tx_empty_set_i $end
$var wire 1 C fifo_tx_we_o $end
$var wire 1 v" overrun_i $end
$var wire 12 w" paddr [11:0] $end
$var wire 1 g pclk $end
$var wire 1 i penable $end
$var wire 1 " pready $end
$var wire 1 n presetn $end
$var wire 1 j psel $end
$var wire 4 x" pstrb [3:0] $end
$var wire 4 y" pstrb_eff [3:0] $end
$var wire 32 z" pwdata [31:0] $end
$var wire 1 m pwrite $end
$var wire 1 {" read_phase $end
$var wire 4 |" rx_level_i [3:0] $end
$var wire 1 }" setup_phase $end
$var wire 1 ~" timeout_i $end
$var wire 4 !# tx_level_i [3:0] $end
$var wire 1 "# underrun_i $end
$var wire 1 ## wp_en_o $end
$var wire 1 $# wr_ok $end
$var wire 1 %# write_phase $end
$var wire 1 &# xip_active_i $end
$var wire 8 '# xip_write_op_o [7:0] $end
$var wire 1 (# xip_write_en_o $end
$var wire 8 )# xip_read_op_o [7:0] $end
$var wire 1 *# xip_mode_en_o $end
$var wire 8 +# xip_mode_bits_o [7:0] $end
$var wire 1 # xip_en_o $end
$var wire 4 ,# xip_dummy_cycles_o [3:0] $end
$var wire 2 -# xip_data_lanes_o [1:0] $end
$var wire 1 .# xip_cont_read_o $end
$var wire 2 /# xip_addr_bytes_o [1:0] $end
$var wire 1 G tx_empty_i $end
$var wire 1 M rx_full_i $end
$var wire 1 % quad_en_o $end
$var wire 8 0# opcode_o [7:0] $end
$var wire 1 ) mode_en_cfg_o $end
$var wire 8 1# mode_bits_o [7:0] $end
$var wire 1 2# lsb_first_o $end
$var wire 1 < is_write_o $end
$var wire 1 3# irq $end
$var wire 5 4# int_en_o [4:0] $end
$var wire 1 = incr_addr_o $end
$var wire 1 5# hold_en_o $end
$var wire 32 6# fifo_rx_data_i [31:0] $end
$var wire 8 7# extra_dummy_o [7:0] $end
$var wire 1 W err_set_i $end
$var wire 1 P enable_o $end
$var wire 4 8# dummy_cycles_o [3:0] $end
$var wire 1 S dma_en_o $end
$var wire 1 T dma_done_set_i $end
$var wire 1 U dma_dir_o $end
$var wire 2 9# data_lanes_o [1:0] $end
$var wire 1 :# ctrl_xip_n $end
$var wire 1 ;# ctrl_enable_n $end
$var wire 2 <# cs_level_o [1:0] $end
$var wire 2 =# cs_delay_o [1:0] $end
$var wire 1 [ cs_auto_o $end
$var wire 1 \ cpol_o $end
$var wire 1 ] cpha_o $end
$var wire 32 ># cmd_len_o [31:0] $end
$var wire 2 ?# cmd_lanes_o [1:0] $end
$var wire 1 B cmd_done_set_i $end
$var wire 3 @# clk_div_o [2:0] $end
$var wire 1 V busy_i $end
$var wire 4 A# burst_size_o [3:0] $end
$var wire 1 W axi_err_i $end
$var wire 2 B# addr_lanes_o [1:0] $end
$var wire 2 C# addr_bytes_o [1:0] $end
$var reg 32 D# clk_div_reg [31:0] $end
$var reg 32 E# cmd_addr_reg [31:0] $end
$var reg 32 F# cmd_cfg_reg [31:0] $end
$var reg 1 G# cmd_done_latched $end
$var reg 32 H# cmd_dummy_reg [31:0] $end
$var reg 32 I# cmd_len_reg [31:0] $end
$var reg 32 J# cmd_op_reg [31:0] $end
$var reg 1 K# cmd_trig_q $end
$var reg 32 L# cs_ctrl_reg [31:0] $end
$var reg 32 M# ctrl_reg [31:0] $end
$var reg 32 N# dma_addr_reg [31:0] $end
$var reg 32 O# dma_cfg_reg [31:0] $end
$var reg 1 P# dma_done_latched $end
$var reg 32 Q# dma_len_reg [31:0] $end
$var reg 32 R# err_stat_reg [31:0] $end
$var reg 32 S# fifo_rx_data_q [31:0] $end
$var reg 1 T# fifo_rx_pop_seen $end
$var reg 1 U# fifo_rx_re_q $end
$var reg 32 V# int_en_reg [31:0] $end
$var reg 32 W# int_stat_reg [31:0] $end
$var reg 32 X# prdata [31:0] $end
$var reg 1 & pslverr $end
$var reg 1 Y# ro_addr $end
$var reg 1 Z# valid_addr $end
$var reg 32 [# xip_cfg_reg [31:0] $end
$var reg 32 \# xip_cmd_reg [31:0] $end
$scope function apply_strb $end
$var reg 32 ]# cur [31:0] $end
$var reg 32 ^# data [31:0] $end
$upscope $end
$scope begin $unm_blk_37 $end
$var reg 32 _# next_ctrl [31:0] $end
$upscope $end
$upscope $end
$scope module u_dma $end
$var wire 32 `# araddr_o [31:0] $end
$var wire 1 9 arvalid_o $end
$var wire 32 a# awaddr_o [31:0] $end
$var wire 1 6 awvalid_o $end
$var wire 1 5 bready_o $end
$var wire 4 b# burst_size_i [3:0] $end
$var wire 1 V busy_o $end
$var wire 1 g clk $end
$var wire 32 c# dma_addr_i [31:0] $end
$var wire 1 U dma_dir_i $end
$var wire 1 S dma_en_i $end
$var wire 32 d# dma_len_i [31:0] $end
$var wire 1 I fifo_rx_re_o $end
$var wire 32 e# fifo_tx_data_o [31:0] $end
$var wire 1 f# fifo_tx_we_o $end
$var wire 1 = incr_addr_i $end
$var wire 1 n resetn $end
$var wire 1 1 rready_o $end
$var wire 1 g# start_pulse $end
$var wire 32 h# wdata_o [31:0] $end
$var wire 4 i# wstrb_o [3:0] $end
$var wire 1 + wvalid_o $end
$var wire 1 j# wvalid_w $end
$var wire 4 k# wstrb_w [3:0] $end
$var wire 1 - wready_i $end
$var wire 1 l# wr_en_w $end
$var wire 1 m# wr_done $end
$var wire 32 n# wdata_w [31:0] $end
$var wire 1 o# tx_space_ok $end
$var wire 5 p# tx_level_i [4:0] $end
$var wire 1 q# tx_full $end
$var wire 5 r# rx_level_i [4:0] $end
$var wire 1 s# rx_empty $end
$var wire 1 t# rx_data_ok $end
$var wire 1 / rvalid_i $end
$var wire 2 u# rresp_i [1:0] $end
$var wire 1 v# rready_w $end
$var wire 32 w# rem_words_w [31:0] $end
$var wire 1 x# rem_lt_burst $end
$var wire 32 y# rdata_i [31:0] $end
$var wire 1 z# rd_en_w $end
$var wire 1 {# rd_done $end
$var wire 32 |# len_w [31:0] $end
$var wire 32 }# fifo_rx_data_i [31:0] $end
$var wire 32 ~# data_out_w [31:0] $end
$var wire 1 3 bvalid_i $end
$var wire 4 !$ burst_words_w [3:0] $end
$var wire 2 "$ bresp_i [1:0] $end
$var wire 1 #$ bready_w $end
$var wire 4 $$ beats_w [3:0] $end
$var wire 5 %$ beats_level [4:0] $end
$var wire 1 &$ awvalid_w $end
$var wire 1 7 awready_i $end
$var wire 32 '$ awaddr_w [31:0] $end
$var wire 1 ($ arvalid_w $end
$var wire 1 : arready_i $end
$var wire 32 )$ araddr_w [31:0] $end
$var reg 32 *$ addr_r [31:0] $end
$var reg 1 W axi_err_o $end
$var reg 32 +$ burst_len_r [31:0] $end
$var reg 4 ,$ burst_size_r [3:0] $end
$var reg 1 -$ busy_r $end
$var reg 1 T dma_done_set_o $end
$var reg 1 .$ dma_en_d $end
$var reg 1 /$ incr_addr_r $end
$var reg 1 0$ rd_start $end
$var reg 32 1$ rem_bytes_r [31:0] $end
$var reg 3 2$ state [2:0] $end
$var reg 1 3$ wr_start $end
$scope module u_axi_read_block $end
$var wire 32 4$ addr [31:0] $end
$var wire 1 g clk $end
$var wire 1 q# full $end
$var wire 1 5$ reset $end
$var wire 1 0$ start $end
$var wire 16 6$ transfer_size [15:0] $end
$var wire 1 / rvalid $end
$var wire 32 7$ rdata [31:0] $end
$var wire 1 : arready $end
$var reg 32 8$ addr_reg [31:0] $end
$var reg 32 9$ araddr [31:0] $end
$var reg 1 ($ arvalid $end
$var reg 1 :$ arvalid_r $end
$var reg 1 ;$ busy $end
$var reg 16 <$ count [15:0] $end
$var reg 32 =$ data_out [31:0] $end
$var reg 1 {# done $end
$var reg 1 v# rready $end
$var reg 2 >$ state [1:0] $end
$var reg 1 l# wr_en $end
$upscope $end
$scope module u_axi_write_block $end
$var wire 32 ?$ addr [31:0] $end
$var wire 1 g clk $end
$var wire 1 s# empty $end
$var wire 1 @$ reset $end
$var wire 1 3$ start $end
$var wire 16 A$ transfer_size [15:0] $end
$var wire 1 - wready $end
$var wire 32 B$ data_in [31:0] $end
$var wire 1 3 bvalid $end
$var wire 1 7 awready $end
$var reg 32 C$ addr_reg [31:0] $end
$var reg 32 D$ awaddr [31:0] $end
$var reg 1 &$ awvalid $end
$var reg 1 E$ awvalid_r $end
$var reg 1 #$ bready $end
$var reg 1 F$ busy $end
$var reg 16 G$ count [15:0] $end
$var reg 1 m# done $end
$var reg 1 H$ have_word $end
$var reg 1 I$ hold_bready $end
$var reg 1 z# rd_en $end
$var reg 1 J$ rd_pending $end
$var reg 2 K$ state [1:0] $end
$var reg 32 L$ wdata [31:0] $end
$var reg 32 M$ word_q [31:0] $end
$var reg 4 N$ wstrb [3:0] $end
$var reg 1 j# wvalid $end
$var reg 1 O$ wvalid_r $end
$upscope $end
$upscope $end
$scope module u_frx $end
$var wire 1 g clk $end
$var wire 5 P$ level_o [4:0] $end
$var wire 32 Q$ rd_data_o [31:0] $end
$var wire 1 R$ rd_en_i $end
$var wire 1 n resetn $end
$var wire 1 @ wr_en_i $end
$var wire 32 S$ wr_data_i [31:0] $end
$var wire 1 M full_o $end
$var wire 1 N empty_o $end
$var reg 5 T$ count [4:0] $end
$var reg 32 U$ rd_data_r [31:0] $end
$var reg 4 V$ rd_ptr [3:0] $end
$var reg 4 W$ wr_ptr [3:0] $end
$upscope $end
$scope module u_fsm $end
$var wire 32 X$ addr [31:0] $end
$var wire 2 Y$ addr_bytes_sel [1:0] $end
$var wire 2 Z$ addr_lanes_sel [1:0] $end
$var wire 1 [$ bit_tick $end
$var wire 1 g clk $end
$var wire 32 \$ clk_div [31:0] $end
$var wire 2 ]$ cmd_lanes_sel [1:0] $end
$var wire 8 ^$ cmd_opcode [7:0] $end
$var wire 1 ] cpha $end
$var wire 1 \ cpol $end
$var wire 1 _$ cs_auto $end
$var wire 2 `$ cs_delay [1:0] $end
$var wire 2 a$ data_lanes_sel [1:0] $end
$var wire 1 b$ dir $end
$var wire 1 B done $end
$var wire 4 c$ dummy_cycles [3:0] $end
$var wire 1 d$ io0 $end
$var wire 1 e$ io1 $end
$var wire 1 f$ io2 $end
$var wire 1 g$ io3 $end
$var wire 1 h$ leading_edge $end
$var wire 32 i$ len_bytes [31:0] $end
$var wire 8 j$ mode_bits [7:0] $end
$var wire 1 k$ mode_en $end
$var wire 1 l$ quad_en $end
$var wire 1 n resetn $end
$var wire 1 M rx_full $end
$var wire 1 ? start $end
$var wire 1 m$ trailing_edge $end
$var wire 1 > tx_ren $end
$var wire 1 n$ xip_cont_read $end
$var wire 1 G tx_empty $end
$var wire 32 o$ tx_data_fifo [31:0] $end
$var wire 1 p$ shift_pulse $end
$var wire 1 $ sclk $end
$var wire 1 q$ sample_pulse $end
$var wire 4 r$ io_di [3:0] $end
$var wire 6 s$ addr_bits [5:0] $end
$var reg 3 t$ addr_lanes_eff [2:0] $end
$var reg 6 u$ bit_cnt [5:0] $end
$var reg 6 v$ bit_cnt_n [5:0] $end
$var reg 32 w$ byte_cnt [31:0] $end
$var reg 32 x$ byte_cnt_n [31:0] $end
$var reg 3 y$ cmd_lanes_eff [2:0] $end
$var reg 8 z$ cs_cnt [7:0] $end
$var reg 8 {$ cs_cnt_n [7:0] $end
$var reg 1 Z cs_n $end
$var reg 1 |$ cs_n_n $end
$var reg 3 }$ data_lanes_eff [2:0] $end
$var reg 4 ~$ dummy_cnt [3:0] $end
$var reg 4 !% dummy_cnt_n [3:0] $end
$var reg 4 "% in_bits [3:0] $end
$var reg 4 #% io_oe [3:0] $end
$var reg 4 $% io_oe_n [3:0] $end
$var reg 1 %% is_write_cmd $end
$var reg 1 &% is_write_cmd_n $end
$var reg 3 '% lanes [2:0] $end
$var reg 3 (% lanes_n [2:0] $end
$var reg 4 )% out_bits [3:0] $end
$var reg 1 *% post_hold_write $end
$var reg 1 +% post_hold_write_n $end
$var reg 1 ,% rd_warmup $end
$var reg 4 -% rd_warmup_cnt [3:0] $end
$var reg 4 .% rd_warmup_cnt_n [3:0] $end
$var reg 1 /% rd_warmup_n $end
$var reg 32 0% rx_data_fifo [31:0] $end
$var reg 1 @ rx_wen $end
$var reg 1 1% sclk_armed $end
$var reg 32 2% sclk_cnt [31:0] $end
$var reg 1 3% sclk_edge $end
$var reg 1 4% sclk_en $end
$var reg 1 5% sclk_en_n $end
$var reg 1 6% sclk_q $end
$var reg 1 7% sclk_q_prev $end
$var reg 32 8% shreg [31:0] $end
$var reg 32 9% shreg_n [31:0] $end
$var reg 4 :% state [3:0] $end
$var reg 4 ;% state_n [3:0] $end
$scope function lane_decode $end
$var reg 2 <% sel [1:0] $end
$upscope $end
$scope function lane_mask $end
$var reg 3 =% lanes [2:0] $end
$upscope $end
$upscope $end
$scope module u_ftx $end
$var wire 1 g clk $end
$var wire 5 >% level_o [4:0] $end
$var wire 32 ?% rd_data_o [31:0] $end
$var wire 1 > rd_en_i $end
$var wire 1 n resetn $end
$var wire 32 @% wr_data_i [31:0] $end
$var wire 1 C wr_en_i $end
$var wire 1 F full_o $end
$var wire 1 G empty_o $end
$var reg 5 A% count [4:0] $end
$var reg 32 B% rd_data_r [31:0] $end
$var reg 4 C% rd_ptr [3:0] $end
$var reg 4 D% wr_ptr [3:0] $end
$upscope $end
$scope module u_ram $end
$var wire 32 E% araddr [31:0] $end
$var wire 1 9 arvalid $end
$var wire 32 F% awaddr [31:0] $end
$var wire 1 6 awvalid $end
$var wire 1 5 bready $end
$var wire 1 g clk $end
$var wire 1 n resetn $end
$var wire 1 1 rready $end
$var wire 32 G% wdata [31:0] $end
$var wire 4 H% wstrb [3:0] $end
$var wire 1 + wvalid $end
$var reg 1 : arready $end
$var reg 32 I% awaddr_q [31:0] $end
$var reg 1 7 awready $end
$var reg 2 J% bresp [1:0] $end
$var reg 1 3 bvalid $end
$var reg 1 K% have_aw $end
$var reg 1 L% have_w $end
$var reg 32 M% rdata [31:0] $end
$var reg 2 N% rresp [1:0] $end
$var reg 1 / rvalid $end
$var reg 32 O% wdata_q [31:0] $end
$var reg 1 - wready $end
$var reg 4 P% wstrb_q [3:0] $end
$var integer 32 Q% i [31:0] $end
$scope begin $unm_blk_273 $end
$var integer 32 R% widx [31:0] $end
$upscope $end
$scope begin $unm_blk_274 $end
$var integer 32 S% ridx [31:0] $end
$upscope $end
$upscope $end
$scope task apb_write $end
$var reg 12 T% addr [11:0] $end
$var reg 32 U% data [31:0] $end
$upscope $end
$upscope $end
$enddefinitions $end
#0
$dumpvars
bx U%
bx T%
bx S%
bx R%
b100000000000000 Q%
bx P%
bx O%
b0 N%
b0 M%
0L%
0K%
b0 J%
b0 I%
bx H%
bx G%
bx F%
bx E%
b0 D%
b0 C%
b0 B%
b0 A%
b0 @%
b0 ?%
b0 >%
bx =%
b0 <%
b0 ;%
b0 :%
b0 9%
b0 8%
07%
06%
05%
04%
03%
b0 2%
01%
b0 0%
0/%
b0 .%
b0 -%
0,%
0+%
0*%
b0 )%
b1 (%
b1 '%
0&%
0%%
b0 $%
b0 #%
b0z "%
b0 !%
b0 ~$
b1 }$
1|$
b0 {$
b0 z$
b1 y$
b0 x$
b0 w$
b0 v$
b0 u$
b1 t$
b0 s$
bz r$
0q$
0p$
b0 o$
0n$
0m$
0l$
0k$
b0 j$
b0 i$
0h$
zg$
zf$
ze$
zd$
b0 c$
1b$
b0 a$
bz `$
1_$
b0 ^$
b0 ]$
b0 \$
0[$
b0 Z$
b0 Y$
b0 X$
b0 W$
b0 V$
b0 U$
b0 T$
b0 S$
xR$
b0 Q$
b0 P$
xO$
bx N$
bx M$
bx L$
bx K$
xJ$
xI$
xH$
bx G$
xF$
xE$
bx D$
bx C$
b0 B$
bx A$
1@$
bx ?$
bx >$
bx =$
bx <$
x;$
x:$
bx 9$
bx 8$
b0 7$
bx 6$
15$
bx 4$
x3$
bx 2$
bx 1$
x0$
x/$
x.$
x-$
bx ,$
bx +$
bx *$
bx )$
x($
bx '$
x&$
b0xxxx %$
bx $$
x#$
b0 "$
bx !$
bx ~#
b0 }#
b0xxxx00 |#
x{#
xz#
b0 y#
xx#
b0xxxxxxxxxxxxxxxxxxxxxxxxxxxxxx w#
xv#
b0 u#
xt#
1s#
b0 r#
0q#
b0 p#
xo#
bx n#
xm#
xl#
bx k#
xj#
bx i#
bx h#
0g#
xf#
bx e#
b0 d#
b0 c#
b0 b#
bx a#
bx `#
bx _#
bx ^#
bx ]#
b1011 \#
b10000001 [#
1Z#
1Y#
b0 X#
b0 W#
b0 V#
0U#
0T#
b0 S#
b0 R#
b0 Q#
0P#
b0 O#
b0 N#
b0 M#
b1 L#
0K#
b0 J#
b0 I#
b0 H#
0G#
b0 F#
b0 E#
b0 D#
b0 C#
b0 B#
b0 A#
b0 @#
b0 ?#
b0 >#
b0 =#
b0 <#
0;#
0:#
b0 9#
b0 8#
b0 7#
b0 6#
05#
b0 4#
03#
02#
b0 1#
b0 0#
b1 /#
0.#
b0 -#
b1000 ,#
b0 +#
0*#
b1011 )#
0(#
b0 '#
0&#
0%#
0$#
0##
0"#
b0 !#
0~"
0}"
b0 |"
0{"
b0 z"
b1111 y"
b0 x"
b0 w"
0v"
0u"
b0 t"
0s"
b0 r"
0q"
b0 p"
0o"
0n"
0m"
b0 l"
0k"
b0 j"
b111111111111111111111111 i"
b11111111111111 h"
b111111 g"
b1001111111 f"
b11111 e"
b1111111111111111 d"
b11111111 c"
b11111111111111 b"
b1111 a"
0`"
0_"
0^"
b0 ]"
0\"
b0 ["
b0 Z"
0Y"
b0 X"
b0 W"
b0 V"
1U"
0T"
0S"
b0 R"
0Q"
b0 P"
0O"
b0 N"
b0 M"
b0 L"
b0 K"
b0 J"
b0 I"
b0 H"
b0 G"
b0 F"
b0 E"
b0 D"
b0 C"
b0 B"
b0 A"
0@"
0?"
0>"
b0 ="
0<"
b0 ;"
b0 :"
b0 9"
18"
b0 7"
16"
05"
04"
b0 3"
b0 2"
b0 1"
b0 0"
b0 /"
bx ."
bx -"
b100000000000000000000 ,"
0+"
b0 *"
b0 )"
b0 ("
b0 '"
b0z &"
b1 %"
b0zzzz $"
b0 #"
b0 ""
b0 !"
bx ~
b110000100010000000010111 }
b0 |
b0 {
b0 z
0y
b0 x
b0 w
b0 v
b0 u
bz t
zs
zr
zq
zp
bx o
0n
0m
b0 l
b0 k
0j
0i
b0 h
0g
b0 f
b0 e
b0 d
b0 c
b0 b
b0 a
b0 `
0_
0^
0]
0\
1[
1Z
b0 Y
b0 X
xW
0V
0U
xT
0S
b0 R
b0 Q
0P
b0 O
1N
0M
b0 L
b0 K
0J
xI
b0 H
1G
0F
b0 E
b0 D
0C
0B
b0 A
0@
0?
0>
0=
0<
bx ;
0:
x9
bx 8
07
x6
x5
b0 4
03
b0 2
x1
b0 0
0/
bx .
0-
bx ,
x+
b0 *
0)
b0 (
b0 '
0&
0%
0$
0#
1"
bz !
$end
#5000
b0 |#
1o#
1t#
b0 %$
b0 $$
0R$
b0 6$
b0 A$
1x#
b0 w#
b1 !$
b0 <$
b0 8$
0{#
0;$
0f#
0l#
b0 e#
b0 ~#
b0 =$
01
0v#
0:$
09
0($
b0 ;
b0 `#
b0 E%
b0 )$
b0 9$
b0 >$
0I$
b0 M$
0J$
0H$
b0 G$
b0 C$
0m#
0F$
0I
0z#
05
0#$
b1111 ,
b1111 i#
b1111 H%
b1111 k#
b1111 N$
0O$
0+
0j#
b0 .
b0 h#
b0 G%
b0 n#
b0 L$
0E$
06
0&$
b0 8
b0 a#
b0 F%
b0 '$
b0 D$
b0 K$
0.$
03$
00$
b0 +$
b0 1$
b0 *$
b0 4$
b0 ?$
b0 ,$
0/$
0-$
0W
0T
b0 2$
b100000000000000 Q%
1g
#10000
0g
#15000
b100000000000000 Q%
1g
#20000
0g
#25000
b100000000000000 Q%
1g
#30000
0g
#35000
b100000000000000 Q%
1g
#40000
0g
#45000
b100000000000000 Q%
1g
#50000
0g
#55000
b100000000000000 Q%
1g
#60000
0g
#65000
b100000000000000 Q%
1g
#70000
0g
#75000
b100000000000000 Q%
1g
#80000
0g
#85000
b100000000000000 Q%
1g
#90000
0g
#95000
1:
1-
17
05$
0@$
b1 U%
b100 T%
1n
1g
#100000
0g
#105000
0Y#
1Z#
1}"
b1111 k
b1111 x"
b1 H
b1 t"
b1 @%
b1 l
b1 z"
b100 j"
b100 h
b100 w"
1m
1j
1g
#110000
0g
#115000
1;#
1$#
0}"
1%#
1k"
1i
1g
#120000
0g
#125000
0$#
1P
1Y#
1Z#
0%#
0k"
b1 M#
b0 k
b0 x"
b0 H
b0 t"
b0 @%
b0 l
b0 z"
b0 j"
b0 h
b0 w"
0m
0i
0j
b1 _#
b0 ]#
b1 ^#
b100 U%
b10100 T%
1g
#130000
0g
#135000
0Y#
1Z#
1}"
b1111 k
b1111 x"
b100 H
b100 t"
b100 @%
b100 l
b100 z"
b10100 j"
b10100 h
b10100 w"
1m
1j
1g
#140000
0g
#145000
1$#
0}"
1%#
1k"
1i
1g
#150000
0g
#155000
0$#
b100 \$
b100 c
b100 I"
b100 @#
1Y#
1Z#
0%#
0k"
b100 D#
b0 k
b0 x"
b0 H
b0 t"
b0 @%
b0 l
b0 z"
b0 j"
b0 h
b0 w"
0m
0i
0j
b100 ^#
b1 U%
b11000 T%
1g
#160000
0g
