int_csr_ce_fsm_dma_tb.vcd
$date
	Wed Sep 10 00:06:54 2025
$end
$version
	Icarus Verilog
$end
$timescale
	1ps
$end
$scope module int_csr_ce_fsm_dma_tb $end
$var wire 4 ! io [3:0] $end
$var wire 1 " pready $end
$var wire 1 # xip_en_w $end
$var wire 1 $ sclk $end
$var wire 1 % quad_en_w $end
$var wire 1 & pslverr $end
$var wire 32 ' prdata [31:0] $end
$var wire 8 ( opcode_w [7:0] $end
$var wire 1 ) mode_en_w $end
$var wire 8 * mode_bits_w [7:0] $end
$var wire 1 + m_wvalid $end
$var wire 4 , m_wstrb [3:0] $end
$var wire 1 - m_wready $end
$var wire 32 . m_wdata [31:0] $end
$var wire 1 / m_rvalid $end
$var wire 2 0 m_rresp [1:0] $end
$var wire 1 1 m_rready $end
$var wire 32 2 m_rdata [31:0] $end
$var wire 1 3 m_bvalid $end
$var wire 2 4 m_bresp [1:0] $end
$var wire 1 5 m_bready $end
$var wire 1 6 m_awvalid $end
$var wire 1 7 m_awready $end
$var wire 32 8 m_awaddr [31:0] $end
$var wire 1 9 m_arvalid $end
$var wire 1 : m_arready $end
$var wire 32 ; m_araddr [31:0] $end
$var wire 1 < is_write_w $end
$var wire 1 = incr_addr_w $end
$var wire 1 > fsm_tx_ren_w $end
$var wire 1 ? fsm_start_w $end
$var wire 1 @ fsm_rx_wen_w $end
$var wire 32 A fsm_rx_data_w [31:0] $end
$var wire 1 B fsm_done_w $end
$var wire 1 C fifo_tx_we_csr_w $end
$var wire 32 D fifo_tx_rd_data_w [31:0] $end
$var wire 5 E fifo_tx_level_w [4:0] $end
$var wire 1 F fifo_tx_full_w $end
$var wire 1 G fifo_tx_empty_w $end
$var wire 32 H fifo_tx_data_csr_w [31:0] $end
$var wire 1 I fifo_rx_re_dma_w $end
$var wire 1 J fifo_rx_re_csr_w $end
$var wire 32 K fifo_rx_rd_data_w [31:0] $end
$var wire 5 L fifo_rx_level_w [4:0] $end
$var wire 1 M fifo_rx_full_w $end
$var wire 1 N fifo_rx_empty_w $end
$var wire 8 O extra_dummy_w [7:0] $end
$var wire 1 P enable_w $end
$var wire 4 Q dummy_cycles_w [3:0] $end
$var wire 32 R dma_len_w [31:0] $end
$var wire 1 S dma_en_w $end
$var wire 1 T dma_done_set_w $end
$var wire 1 U dma_dir_w $end
$var wire 1 V dma_busy_w $end
$var wire 1 W dma_axi_err_w $end
$var wire 32 X dma_addr_w [31:0] $end
$var wire 2 Y data_lanes_w [1:0] $end
$var wire 1 Z cs_n $end
$var wire 1 [ cs_auto_w $end
$var wire 1 \ cpol_w $end
$var wire 1 ] cpha_w $end
$var wire 1 ^ cmd_trigger_clr_w $end
$var wire 1 _ cmd_start_w $end
$var wire 32 ` cmd_len_w [31:0] $end
$var wire 2 a cmd_lanes_w [1:0] $end
$var wire 32 b cmd_addr_w [31:0] $end
$var wire 3 c clk_div_w [2:0] $end
$var wire 4 d burst_size_w [3:0] $end
$var wire 2 e addr_lanes_w [1:0] $end
$var wire 2 f addr_bytes_w [1:0] $end
$var reg 1 g clk $end
$var reg 12 h paddr [11:0] $end
$var reg 1 i penable $end
$var reg 1 j psel $end
$var reg 4 k pstrb [3:0] $end
$var reg 32 l pwdata [31:0] $end
$var reg 1 m pwrite $end
$var reg 1 n resetn $end
$var integer 32 o i [31:0] $end
$scope module dev $end
$var wire 1 p qspi_io0 $end
$var wire 1 q qspi_io1 $end
$var wire 1 r qspi_io2 $end
$var wire 1 s qspi_io3 $end
$var wire 1 $ qspi_sclk $end
$var wire 1 Z qspi_cs_n $end
$var wire 4 t io_di [3:0] $end
$var reg 24 u addr_reg [23:0] $end
$var reg 32 v bit_cnt [31:0] $end
$var reg 32 w byte_cnt [31:0] $end
$var reg 8 x cmd_reg [7:0] $end
$var reg 1 y continuous_read $end
$var reg 64 z cs_high_accum_t [63:0] $end
$var reg 64 { cs_high_last_t [63:0] $end
$var reg 64 | cs_high_start_t [63:0] $end
$var reg 5 } dummy_cycles [4:0] $end
$var reg 32 ~ erase_counter [31:0] $end
$var reg 2 !" id_idx [1:0] $end
$var reg 24 "" id_reg [23:0] $end
$var reg 4 #" io_do [3:0] $end
$var reg 4 $" io_oe [3:0] $end
$var reg 4 %" lanes [3:0] $end
$var reg 1 &" last_cmd_wren $end
$var reg 8 '" mode_bits [7:0] $end
$var reg 32 (" nxt_addr_reg [31:0] $end
$var reg 32 )" nxt_bit_cnt [31:0] $end
$var reg 8 *" nxt_cmd_reg [7:0] $end
$var reg 8 +" shift_in [7:0] $end
$var reg 8 ," shift_out [7:0] $end
$var reg 4 -" state [3:0] $end
$var reg 8 ." status_reg [7:0] $end
$var reg 1 /" wip $end
$scope begin $unm_blk_214 $end
$var integer 32 0" i [31:0] $end
$upscope $end
$scope begin $unm_blk_240 $end
$var integer 32 1" j [31:0] $end
$upscope $end
$scope begin $unm_blk_251 $end
$var integer 32 2" j [31:0] $end
$upscope $end
$upscope $end
$scope module u_ce $end
$var wire 2 3" addr_bytes_o [1:0] $end
$var wire 2 4" addr_lanes_o [1:0] $end
$var wire 32 5" addr_o [31:0] $end
$var wire 1 g clk $end
$var wire 3 6" clk_div_o [2:0] $end
$var wire 2 7" cmd_lanes_o [1:0] $end
$var wire 1 8" cpha_o $end
$var wire 1 9" cpol_o $end
$var wire 1 :" cs_auto_o $end
$var wire 2 ;" data_lanes_o [1:0] $end
$var wire 1 <" dir_o $end
$var wire 4 =" dummy_cycles_o [3:0] $end
$var wire 32 >" len_o [31:0] $end
$var wire 8 ?" mode_bits_o [7:0] $end
$var wire 1 @" mode_en_o $end
$var wire 8 A" opcode_o [7:0] $end
$var wire 1 B" quad_en_o $end
$var wire 1 n resetn $end
$var wire 1 C" xip_cont_read_i $end
$var wire 1 D" xip_cont_read_o $end
$var wire 1 % quad_en_i $end
$var wire 8 E" opcode_i [7:0] $end
$var wire 1 ) mode_en_i $end
$var wire 8 F" mode_bits_i [7:0] $end
$var wire 1 < is_write_i $end
$var wire 8 G" extra_dummy_i [7:0] $end
$var wire 4 H" dummy_cycles_i [3:0] $end
$var wire 1 B done_i $end
$var wire 2 I" data_lanes_i [1:0] $end
$var wire 1 [ cs_auto_i $end
$var wire 1 \ cpol_i $end
$var wire 1 ] cpha_i $end
$var wire 1 _ cmd_start_i $end
$var wire 32 J" cmd_len_i [31:0] $end
$var wire 2 K" cmd_lanes_i [1:0] $end
$var wire 32 L" cmd_addr_i [31:0] $end
$var wire 3 M" clk_div_i [2:0] $end
$var wire 2 N" addr_lanes_i [1:0] $end
$var wire 2 O" addr_bytes_i [1:0] $end
$var reg 2 P" addr_bytes_r [1:0] $end
$var reg 2 Q" addr_lanes_r [1:0] $end
$var reg 32 R" addr_r [31:0] $end
$var reg 1 S" busy_o $end
$var reg 3 T" clk_div_r [2:0] $end
$var reg 1 U" cmd_done_set_o $end
$var reg 2 V" cmd_lanes_r [1:0] $end
$var reg 1 ^ cmd_trigger_clr_o $end
$var reg 1 W" cpha_r $end
$var reg 1 X" cpol_r $end
$var reg 1 Y" cs_auto_r $end
$var reg 2 Z" data_lanes_r [1:0] $end
$var reg 4 [" dummy_cycles_r [3:0] $end
$var reg 8 \" extra_dummy_r [7:0] $end
$var reg 1 ]" is_write_r $end
$var reg 32 ^" len_r [31:0] $end
$var reg 8 _" mode_bits_r [7:0] $end
$var reg 1 `" mode_en_r $end
$var reg 8 a" opcode_r [7:0] $end
$var reg 1 b" quad_en_r $end
$var reg 1 ? start_o $end
$var reg 1 c" state $end
$var reg 1 d" xip_cont_read_r $end
$upscope $end
$scope module u_csr $end
$var wire 32 e" CLKDIV_WMASK [31:0] $end
$var wire 32 f" CMDCFG_WMASK [31:0] $end
$var wire 32 g" CMDDMY_WMASK [31:0] $end
$var wire 32 h" CMDOP_WMASK [31:0] $end
$var wire 32 i" CSCTRL_WMASK [31:0] $end
$var wire 32 j" CTRL_WMASK [31:0] $end
$var wire 32 k" DMACFG_WMASK [31:0] $end
$var wire 32 l" XIPCFG_WMASK [31:0] $end
$var wire 32 m" XIPCMD_WMASK [31:0] $end
$var wire 12 n" a [11:0] $end
$var wire 1 o" access_phase $end
$var wire 32 p" cmd_addr_o [31:0] $end
$var wire 1 q" cmd_done_i $end
$var wire 1 _ cmd_start_o $end
$var wire 1 r" cmd_trig_ok $end
$var wire 1 s" cmd_trig_wr $end
$var wire 1 ^ cmd_trigger_clr_i $end
$var wire 32 t" dma_addr_o [31:0] $end
$var wire 1 u" dma_done_i $end
$var wire 32 v" dma_len_o [31:0] $end
$var wire 1 w" fifo_rx_full_set_i $end
$var wire 1 J fifo_rx_re_o $end
$var wire 32 x" fifo_tx_data_o [31:0] $end
$var wire 1 y" fifo_tx_empty_set_i $end
$var wire 1 C fifo_tx_we_o $end
$var wire 1 z" overrun_i $end
$var wire 12 {" paddr [11:0] $end
$var wire 1 g pclk $end
$var wire 1 i penable $end
$var wire 1 " pready $end
$var wire 1 n presetn $end
$var wire 1 j psel $end
$var wire 4 |" pstrb [3:0] $end
$var wire 4 }" pstrb_eff [3:0] $end
$var wire 32 ~" pwdata [31:0] $end
$var wire 1 m pwrite $end
$var wire 1 !# read_phase $end
$var wire 4 "# rx_level_i [3:0] $end
$var wire 1 ## setup_phase $end
$var wire 1 $# timeout_i $end
$var wire 4 %# tx_level_i [3:0] $end
$var wire 1 &# underrun_i $end
$var wire 1 '# wp_en_o $end
$var wire 1 (# wr_ok $end
$var wire 1 )# write_phase $end
$var wire 1 *# xip_active_i $end
$var wire 8 +# xip_write_op_o [7:0] $end
$var wire 1 ,# xip_write_en_o $end
$var wire 8 -# xip_read_op_o [7:0] $end
$var wire 1 .# xip_mode_en_o $end
$var wire 8 /# xip_mode_bits_o [7:0] $end
$var wire 1 # xip_en_o $end
$var wire 4 0# xip_dummy_cycles_o [3:0] $end
$var wire 2 1# xip_data_lanes_o [1:0] $end
$var wire 1 2# xip_cont_read_o $end
$var wire 2 3# xip_addr_bytes_o [1:0] $end
$var wire 1 G tx_empty_i $end
$var wire 1 M rx_full_i $end
$var wire 1 % quad_en_o $end
$var wire 8 4# opcode_o [7:0] $end
$var wire 1 ) mode_en_cfg_o $end
$var wire 8 5# mode_bits_o [7:0] $end
$var wire 1 6# lsb_first_o $end
$var wire 1 < is_write_o $end
$var wire 1 7# irq $end
$var wire 5 8# int_en_o [4:0] $end
$var wire 1 = incr_addr_o $end
$var wire 1 9# hold_en_o $end
$var wire 32 :# fifo_rx_data_i [31:0] $end
$var wire 8 ;# extra_dummy_o [7:0] $end
$var wire 1 W err_set_i $end
$var wire 1 P enable_o $end
$var wire 4 <# dummy_cycles_o [3:0] $end
$var wire 1 S dma_en_o $end
$var wire 1 T dma_done_set_i $end
$var wire 1 U dma_dir_o $end
$var wire 2 =# data_lanes_o [1:0] $end
$var wire 1 ># ctrl_xip_n $end
$var wire 1 ?# ctrl_enable_n $end
$var wire 2 @# cs_level_o [1:0] $end
$var wire 2 A# cs_delay_o [1:0] $end
$var wire 1 [ cs_auto_o $end
$var wire 1 \ cpol_o $end
$var wire 1 ] cpha_o $end
$var wire 32 B# cmd_len_o [31:0] $end
$var wire 2 C# cmd_lanes_o [1:0] $end
$var wire 1 B cmd_done_set_i $end
$var wire 3 D# clk_div_o [2:0] $end
$var wire 1 V busy_i $end
$var wire 4 E# burst_size_o [3:0] $end
$var wire 1 W axi_err_i $end
$var wire 2 F# addr_lanes_o [1:0] $end
$var wire 2 G# addr_bytes_o [1:0] $end
$var reg 32 H# clk_div_reg [31:0] $end
$var reg 32 I# cmd_addr_reg [31:0] $end
$var reg 32 J# cmd_cfg_reg [31:0] $end
$var reg 1 K# cmd_done_latched $end
$var reg 32 L# cmd_dummy_reg [31:0] $end
$var reg 32 M# cmd_len_reg [31:0] $end
$var reg 32 N# cmd_op_reg [31:0] $end
$var reg 1 O# cmd_trig_q $end
$var reg 32 P# cs_ctrl_reg [31:0] $end
$var reg 32 Q# ctrl_reg [31:0] $end
$var reg 32 R# dma_addr_reg [31:0] $end
$var reg 32 S# dma_cfg_reg [31:0] $end
$var reg 1 T# dma_done_latched $end
$var reg 32 U# dma_len_reg [31:0] $end
$var reg 32 V# err_stat_reg [31:0] $end
$var reg 32 W# fifo_rx_data_q [31:0] $end
$var reg 1 X# fifo_rx_pop_seen $end
$var reg 1 Y# fifo_rx_re_q $end
$var reg 32 Z# int_en_reg [31:0] $end
$var reg 32 [# int_stat_reg [31:0] $end
$var reg 32 \# prdata [31:0] $end
$var reg 1 & pslverr $end
$var reg 1 ]# ro_addr $end
$var reg 1 ^# valid_addr $end
$var reg 32 _# xip_cfg_reg [31:0] $end
$var reg 32 `# xip_cmd_reg [31:0] $end
$scope function apply_strb $end
$var reg 32 a# cur [31:0] $end
$var reg 32 b# data [31:0] $end
$upscope $end
$scope begin $unm_blk_38 $end
$var reg 32 c# next_ctrl [31:0] $end
$upscope $end
$upscope $end
$scope module u_dma $end
$var wire 32 d# araddr_o [31:0] $end
$var wire 1 9 arvalid_o $end
$var wire 32 e# awaddr_o [31:0] $end
$var wire 1 6 awvalid_o $end
$var wire 1 5 bready_o $end
$var wire 4 f# burst_size_i [3:0] $end
$var wire 1 V busy_o $end
$var wire 1 g clk $end
$var wire 32 g# dma_addr_i [31:0] $end
$var wire 1 U dma_dir_i $end
$var wire 1 S dma_en_i $end
$var wire 32 h# dma_len_i [31:0] $end
$var wire 1 I fifo_rx_re_o $end
$var wire 32 i# fifo_tx_data_o [31:0] $end
$var wire 1 j# fifo_tx_we_o $end
$var wire 1 = incr_addr_i $end
$var wire 1 n resetn $end
$var wire 1 1 rready_o $end
$var wire 1 k# start_pulse $end
$var wire 32 l# wdata_o [31:0] $end
$var wire 4 m# wstrb_o [3:0] $end
$var wire 1 + wvalid_o $end
$var wire 1 n# wvalid_w $end
$var wire 4 o# wstrb_w [3:0] $end
$var wire 1 - wready_i $end
$var wire 1 p# wr_en_w $end
$var wire 1 q# wr_done $end
$var wire 32 r# wdata_w [31:0] $end
$var wire 1 s# tx_space_ok $end
$var wire 5 t# tx_level_i [4:0] $end
$var wire 1 u# tx_full $end
$var wire 5 v# rx_level_i [4:0] $end
$var wire 1 w# rx_empty $end
$var wire 1 x# rx_data_ok $end
$var wire 1 / rvalid_i $end
$var wire 2 y# rresp_i [1:0] $end
$var wire 1 z# rready_w $end
$var wire 32 {# rem_words_w [31:0] $end
$var wire 1 |# rem_lt_burst $end
$var wire 32 }# rdata_i [31:0] $end
$var wire 1 ~# rd_en_w $end
$var wire 1 !$ rd_done $end
$var wire 32 "$ len_w [31:0] $end
$var wire 32 #$ fifo_rx_data_i [31:0] $end
$var wire 32 $$ data_out_w [31:0] $end
$var wire 1 3 bvalid_i $end
$var wire 4 %$ burst_words_w [3:0] $end
$var wire 2 &$ bresp_i [1:0] $end
$var wire 1 '$ bready_w $end
$var wire 4 ($ beats_w [3:0] $end
$var wire 5 )$ beats_level [4:0] $end
$var wire 1 *$ awvalid_w $end
$var wire 1 7 awready_i $end
$var wire 32 +$ awaddr_w [31:0] $end
$var wire 1 ,$ arvalid_w $end
$var wire 1 : arready_i $end
$var wire 32 -$ araddr_w [31:0] $end
$var reg 32 .$ addr_r [31:0] $end
$var reg 1 W axi_err_o $end
$var reg 32 /$ burst_len_r [31:0] $end
$var reg 4 0$ burst_size_r [3:0] $end
$var reg 1 1$ busy_r $end
$var reg 1 T dma_done_set_o $end
$var reg 1 2$ dma_en_d $end
$var reg 1 3$ incr_addr_r $end
$var reg 1 4$ rd_start $end
$var reg 32 5$ rem_bytes_r [31:0] $end
$var reg 3 6$ state [2:0] $end
$var reg 1 7$ wr_start $end
$scope module u_axi_read_block $end
$var wire 32 8$ addr [31:0] $end
$var wire 1 g clk $end
$var wire 1 u# full $end
$var wire 1 9$ reset $end
$var wire 1 4$ start $end
$var wire 16 :$ transfer_size [15:0] $end
$var wire 1 / rvalid $end
$var wire 32 ;$ rdata [31:0] $end
$var wire 1 : arready $end
$var reg 32 <$ addr_reg [31:0] $end
$var reg 32 =$ araddr [31:0] $end
$var reg 1 ,$ arvalid $end
$var reg 1 >$ arvalid_r $end
$var reg 1 ?$ busy $end
$var reg 16 @$ count [15:0] $end
$var reg 32 A$ data_out [31:0] $end
$var reg 1 !$ done $end
$var reg 1 z# rready $end
$var reg 2 B$ state [1:0] $end
$var reg 1 p# wr_en $end
$upscope $end
$scope module u_axi_write_block $end
$var wire 32 C$ addr [31:0] $end
$var wire 1 g clk $end
$var wire 1 w# empty $end
$var wire 1 D$ reset $end
$var wire 1 7$ start $end
$var wire 16 E$ transfer_size [15:0] $end
$var wire 1 - wready $end
$var wire 32 F$ data_in [31:0] $end
$var wire 1 3 bvalid $end
$var wire 1 7 awready $end
$var reg 32 G$ addr_reg [31:0] $end
$var reg 32 H$ awaddr [31:0] $end
$var reg 1 *$ awvalid $end
$var reg 1 I$ awvalid_r $end
$var reg 1 '$ bready $end
$var reg 1 J$ busy $end
$var reg 16 K$ count [15:0] $end
$var reg 1 q# done $end
$var reg 1 L$ have_word $end
$var reg 1 M$ hold_bready $end
$var reg 1 ~# rd_en $end
$var reg 1 N$ rd_pending $end
$var reg 2 O$ state [1:0] $end
$var reg 32 P$ wdata [31:0] $end
$var reg 32 Q$ word_q [31:0] $end
$var reg 4 R$ wstrb [3:0] $end
$var reg 1 n# wvalid $end
$var reg 1 S$ wvalid_r $end
$upscope $end
$upscope $end
$scope module u_frx $end
$var wire 1 g clk $end
$var wire 5 T$ level_o [4:0] $end
$var wire 32 U$ rd_data_o [31:0] $end
$var wire 1 V$ rd_en_i $end
$var wire 1 n resetn $end
$var wire 1 @ wr_en_i $end
$var wire 32 W$ wr_data_i [31:0] $end
$var wire 1 M full_o $end
$var wire 1 N empty_o $end
$var reg 5 X$ count [4:0] $end
$var reg 32 Y$ rd_data_r [31:0] $end
$var reg 4 Z$ rd_ptr [3:0] $end
$var reg 4 [$ wr_ptr [3:0] $end
$upscope $end
$scope module u_fsm $end
$var wire 32 \$ addr [31:0] $end
$var wire 2 ]$ addr_bytes_sel [1:0] $end
$var wire 2 ^$ addr_lanes_sel [1:0] $end
$var wire 1 _$ bit_tick $end
$var wire 1 g clk $end
$var wire 32 `$ clk_div [31:0] $end
$var wire 2 a$ cmd_lanes_sel [1:0] $end
$var wire 8 b$ cmd_opcode [7:0] $end
$var wire 1 ] cpha $end
$var wire 1 \ cpol $end
$var wire 1 c$ cs_auto $end
$var wire 2 d$ cs_delay [1:0] $end
$var wire 2 e$ data_lanes_sel [1:0] $end
$var wire 1 f$ dir $end
$var wire 1 B done $end
$var wire 4 g$ dummy_cycles [3:0] $end
$var wire 1 h$ io0 $end
$var wire 1 i$ io1 $end
$var wire 1 j$ io2 $end
$var wire 1 k$ io3 $end
$var wire 1 l$ leading_edge $end
$var wire 32 m$ len_bytes [31:0] $end
$var wire 8 n$ mode_bits [7:0] $end
$var wire 1 o$ mode_en $end
$var wire 1 p$ quad_en $end
$var wire 1 n resetn $end
$var wire 1 M rx_full $end
$var wire 1 ? start $end
$var wire 1 q$ trailing_edge $end
$var wire 1 > tx_ren $end
$var wire 1 r$ xip_cont_read $end
$var wire 1 G tx_empty $end
$var wire 32 s$ tx_data_fifo [31:0] $end
$var wire 1 t$ shift_pulse $end
$var wire 1 $ sclk $end
$var wire 1 u$ sample_pulse $end
$var wire 4 v$ io_di [3:0] $end
$var wire 8 w$ cs_delay_cycles [7:0] $end
$var wire 6 x$ addr_bits [5:0] $end
$var reg 3 y$ addr_lanes_eff [2:0] $end
$var reg 6 z$ bit_cnt [5:0] $end
$var reg 6 {$ bit_cnt_n [5:0] $end
$var reg 32 |$ byte_cnt [31:0] $end
$var reg 32 }$ byte_cnt_n [31:0] $end
$var reg 3 ~$ cmd_lanes_eff [2:0] $end
$var reg 8 !% cs_cnt [7:0] $end
$var reg 8 "% cs_cnt_n [7:0] $end
$var reg 1 Z cs_n $end
$var reg 1 #% cs_n_n $end
$var reg 3 $% data_lanes_eff [2:0] $end
$var reg 4 %% dummy_cnt [3:0] $end
$var reg 4 &% dummy_cnt_n [3:0] $end
$var reg 4 '% in_bits [3:0] $end
$var reg 4 (% io_oe [3:0] $end
$var reg 4 )% io_oe_n [3:0] $end
$var reg 1 *% is_write_cmd $end
$var reg 1 +% is_write_cmd_n $end
$var reg 3 ,% lanes [2:0] $end
$var reg 3 -% lanes_n [2:0] $end
$var reg 4 .% out_bits [3:0] $end
$var reg 1 /% post_hold_write $end
$var reg 1 0% post_hold_write_n $end
$var reg 1 1% rd_warmup $end
$var reg 4 2% rd_warmup_cnt [3:0] $end
$var reg 4 3% rd_warmup_cnt_n [3:0] $end
$var reg 1 4% rd_warmup_n $end
$var reg 32 5% rx_data_fifo [31:0] $end
$var reg 1 @ rx_wen $end
$var reg 1 6% sclk_armed $end
$var reg 32 7% sclk_cnt [31:0] $end
$var reg 1 8% sclk_edge $end
$var reg 1 9% sclk_en $end
$var reg 1 :% sclk_en_n $end
$var reg 1 ;% sclk_q $end
$var reg 1 <% sclk_q_prev $end
$var reg 32 =% shreg [31:0] $end
$var reg 32 >% shreg_n [31:0] $end
$var reg 4 ?% state [3:0] $end
$var reg 4 @% state_n [3:0] $end
$scope function lane_decode $end
$var reg 2 A% sel [1:0] $end
$upscope $end
$scope function lane_mask $end
$var reg 3 B% lanes [2:0] $end
$upscope $end
$scope function rev8 $end
$var reg 8 C% b [7:0] $end
$upscope $end
$upscope $end
$scope module u_ftx $end
$var wire 1 g clk $end
$var wire 5 D% level_o [4:0] $end
$var wire 32 E% rd_data_o [31:0] $end
$var wire 1 > rd_en_i $end
$var wire 1 n resetn $end
$var wire 32 F% wr_data_i [31:0] $end
$var wire 1 C wr_en_i $end
$var wire 1 F full_o $end
$var wire 1 G empty_o $end
$var reg 5 G% count [4:0] $end
$var reg 32 H% rd_data_r [31:0] $end
$var reg 4 I% rd_ptr [3:0] $end
$var reg 4 J% wr_ptr [3:0] $end
$upscope $end
$scope module u_ram $end
$var wire 32 K% araddr [31:0] $end
$var wire 1 9 arvalid $end
$var wire 32 L% awaddr [31:0] $end
$var wire 1 6 awvalid $end
$var wire 1 5 bready $end
$var wire 1 g clk $end
$var wire 1 n resetn $end
$var wire 1 1 rready $end
$var wire 32 M% wdata [31:0] $end
$var wire 4 N% wstrb [3:0] $end
$var wire 1 + wvalid $end
$var reg 1 : arready $end
$var reg 32 O% awaddr_q [31:0] $end
$var reg 1 7 awready $end
$var reg 2 P% bresp [1:0] $end
$var reg 1 3 bvalid $end
$var reg 1 Q% have_aw $end
$var reg 1 R% have_w $end
$var reg 32 S% rdata [31:0] $end
$var reg 2 T% rresp [1:0] $end
$var reg 1 / rvalid $end
$var reg 32 U% wdata_q [31:0] $end
$var reg 1 - wready $end
$var reg 4 V% wstrb_q [3:0] $end
$var integer 32 W% i [31:0] $end
$scope begin $unm_blk_285 $end
$var integer 32 X% widx [31:0] $end
$upscope $end
$scope begin $unm_blk_286 $end
$var integer 32 Y% ridx [31:0] $end
$upscope $end
$upscope $end
$scope task apb_write $end
$var reg 12 Z% addr [11:0] $end
$var reg 32 [% data [31:0] $end
$upscope $end
$upscope $end
$enddefinitions $end
#0
$dumpvars
bx [%
bx Z%
bx Y%
bx X%
b100000000000000 W%
bx V%
bx U%
b0 T%
b0 S%
0R%
0Q%
b0 P%
b0 O%
bx N%
bx M%
bx L%
bx K%
b0 J%
b0 I%
b0 H%
b0 G%
b0 F%
b0 E%
b0 D%
bx C%
bx B%
b0 A%
b0 @%
b0 ?%
b0 >%
b0 =%
0<%
0;%
0:%
09%
08%
b0 7%
06%
b0 5%
04%
b0 3%
b0 2%
01%
00%
0/%
b0 .%
b1 -%
b1 ,%
0+%
0*%
b0 )%
b0 (%
b0z '%
b0 &%
b0 %%
b1 $%
1#%
b0 "%
b0 !%
b1 ~$
b0 }$
b0 |$
b0 {$
b0 z$
b1 y$
b0 x$
b0zz0000 w$
bz v$
0u$
0t$
b0 s$
0r$
0q$
0p$
0o$
b0 n$
b0 m$
0l$
zk$
zj$
zi$
zh$
b0 g$
1f$
b0 e$
bz d$
1c$
b0 b$
b0 a$
b0 `$
0_$
b0 ^$
b0 ]$
b0 \$
b0 [$
b0 Z$
b0 Y$
b0 X$
b0 W$
xV$
b0 U$
b0 T$
xS$
bx R$
bx Q$
bx P$
bx O$
xN$
xM$
xL$
bx K$
xJ$
xI$
bx H$
bx G$
b0 F$
bx E$
1D$
bx C$
bx B$
bx A$
bx @$
x?$
x>$
bx =$
bx <$
b0 ;$
bx :$
19$
bx 8$
x7$
bx 6$
bx 5$
x4$
x3$
x2$
x1$
bx 0$
bx /$
bx .$
bx -$
x,$
bx +$
x*$
b0xxxx )$
bx ($
x'$
b0 &$
bx %$
bx $$
b0 #$
b0xxxx00 "$
x!$
x~#
b0 }#
x|#
b0xxxxxxxxxxxxxxxxxxxxxxxxxxxxxx {#
xz#
b0 y#
xx#
1w#
b0 v#
0u#
b0 t#
xs#
bx r#
xq#
xp#
bx o#
xn#
bx m#
bx l#
0k#
xj#
bx i#
b0 h#
b0 g#
b0 f#
bx e#
bx d#
bx c#
bx b#
bx a#
b1011 `#
b10000001 _#
1^#
1]#
b0 \#
b0 [#
b0 Z#
0Y#
0X#
b0 W#
b0 V#
b0 U#
0T#
b0 S#
b0 R#
b0 Q#
b1 P#
0O#
b0 N#
b0 M#
b0 L#
0K#
b0 J#
b0 I#
b0 H#
b0 G#
b0 F#
b0 E#
b0 D#
b0 C#
b0 B#
b0 A#
b0 @#
0?#
0>#
b0 =#
b0 <#
b0 ;#
b0 :#
09#
b0 8#
07#
06#
b0 5#
b0 4#
b1 3#
02#
b0 1#
b1000 0#
b0 /#
0.#
b1011 -#
0,#
b0 +#
0*#
0)#
0(#
0'#
0&#
b0 %#
0$#
0##
b0 "#
0!#
b0 ~"
b1111 }"
b0 |"
b0 {"
0z"
0y"
b0 x"
0w"
b0 v"
0u"
b0 t"
0s"
0r"
0q"
b0 p"
0o"
b0 n"
b111111111111111111111111 m"
b11111111111111 l"
b111111 k"
b1001111111 j"
b11111 i"
b1111111111111111 h"
b11111111 g"
b11111111111111 f"
b1111 e"
0d"
0c"
0b"
b0 a"
0`"
b0 _"
b0 ^"
0]"
b0 \"
b0 ["
b0 Z"
1Y"
0X"
0W"
b0 V"
0U"
b0 T"
0S"
b0 R"
b0 Q"
b0 P"
b0 O"
b0 N"
b0 M"
b0 L"
b0 K"
b0 J"
b0 I"
b0 H"
b0 G"
b0 F"
b0 E"
0D"
0C"
0B"
b0 A"
0@"
b0 ?"
b0 >"
b0 ="
1<"
b0 ;"
1:"
09"
08"
b0 7"
b0 6"
b0 5"
b0 4"
b0 3"
bx 2"
bx 1"
b100000000000000000000 0"
0/"
b0 ."
b0 -"
b0 ,"
b0 +"
b0z *"
b1 )"
b0zzzz ("
b0 '"
0&"
b0 %"
b0 $"
bx #"
b110000100010000000010111 ""
b0 !"
b0 ~
b0 }
b0 |
b0 {
b0 z
0y
b0 x
b0 w
b0 v
b0 u
bz t
zs
zr
zq
zp
bx o
0n
0m
b0 l
b0 k
0j
0i
b0 h
0g
b0 f
b0 e
b0 d
b0 c
b0 b
b0 a
b0 `
0_
0^
0]
0\
1[
1Z
b0 Y
b0 X
xW
0V
0U
xT
0S
b0 R
b0 Q
0P
b0 O
1N
0M
b0 L
b0 K
0J
xI
b0 H
1G
0F
b0 E
b0 D
0C
0B
b0 A
0@
0?
0>
0=
0<
bx ;
0:
x9
bx 8
07
x6
x5
b0 4
03
b0 2
x1
b0 0
0/
bx .
0-
bx ,
x+
b0 *
0)
b0 (
b0 '
0&
0%
0$
0#
1"
bz !
$end
#5000
b0 "$
1s#
1x#
b0 )$
b0 ($
0V$
b0 :$
b0 E$
1|#
b0 {#
b1 %$
b0 @$
b0 <$
0!$
0?$
0j#
0p#
b0 i#
b0 $$
b0 A$
01
0z#
0>$
09
0,$
b0 ;
b0 d#
b0 K%
b0 -$
b0 =$
b0 B$
0M$
b0 Q$
0N$
0L$
b0 K$
b0 G$
0q#
0J$
0I
0~#
05
0'$
b1111 ,
b1111 m#
b1111 N%
b1111 o#
b1111 R$
0S$
0+
0n#
b0 .
b0 l#
b0 M%
b0 r#
b0 P$
0I$
06
0*$
b0 8
b0 e#
b0 L%
b0 +$
b0 H$
b0 O$
02$
07$
04$
b0 /$
b0 5$
b0 .$
b0 8$
b0 C$
b0 0$
03$
01$
0W
0T
b0 6$
b100000000000000 W%
1g
#10000
0g
#15000
b100000000000000 W%
1g
#20000
0g
#25000
b100000000000000 W%
1g
#30000
0g
#35000
b100000000000000 W%
1g
#40000
0g
#45000
b100000000000000 W%
1g
#50000
0g
#55000
b100000000000000 W%
1g
#60000
0g
#65000
b100000000000000 W%
1g
#70000
0g
#75000
b100000000000000 W%
1g
#80000
0g
#85000
b100000000000000 W%
1g
#90000
0g
#95000
1:
1-
17
09$
0D$
b1 [%
b100 Z%
1n
1g
#100000
0g
#105000
0]#
1^#
1##
b1111 k
b1111 |"
b1 H
b1 x"
b1 F%
b1 l
b1 ~"
b100 n"
b100 h
b100 {"
1m
1j
1g
#110000
0g
#115000
1?#
1(#
0##
1)#
1o"
1i
1g
#120000
0g
#125000
0(#
1P
1]#
1^#
0)#
0o"
b1 Q#
b0 k
b0 |"
b0 H
b0 x"
b0 F%
b0 l
b0 ~"
b0 n"
b0 h
b0 {"
0m
0i
0j
b1 c#
b0 a#
b1 b#
b100 [%
b10100 Z%
1g
#130000
0g
#135000
0]#
1^#
1##
b1111 k
b1111 |"
b100 H
b100 x"
b100 F%
b100 l
b100 ~"
b10100 n"
b10100 h
b10100 {"
1m
1j
1g
#140000
0g
#145000
1(#
0##
1)#
1o"
1i
1g
#150000
0g
