qspi_fsm_tb.vcd
$date
	Sat Sep  6 15:21:21 2025
$end
$version
	Icarus Verilog
$end
$timescale
	1ps
$end
$scope module qspi_fsm_tb $end
$var wire 1 ! tx_ren $end
$var wire 1 " sclk $end
$var wire 1 # rx_wen $end
$var wire 32 $ rx_data_fifo [31:0] $end
$var wire 1 % io3 $end
$var wire 1 & io2 $end
$var wire 1 ' io1 $end
$var wire 1 ( io0 $end
$var wire 1 ) done $end
$var wire 1 * cs_n $end
$var reg 32 + addr [31:0] $end
$var reg 2 , addr_bytes_sel [1:0] $end
$var reg 2 - addr_lanes_sel [1:0] $end
$var reg 8 . cap [7:0] $end
$var reg 1 / clk $end
$var reg 32 0 clk_div [31:0] $end
$var reg 2 1 cmd_lanes_sel [1:0] $end
$var reg 8 2 cmd_opcode [7:0] $end
$var reg 1 3 cpha $end
$var reg 1 4 cpol $end
$var reg 2 5 data_lanes_sel [1:0] $end
$var reg 1 6 dir $end
$var reg 4 7 dummy_cycles [3:0] $end
$var reg 32 8 len_bytes [31:0] $end
$var reg 8 9 mode_bits [7:0] $end
$var reg 1 : mode_en $end
$var reg 1 ; resetn $end
$var reg 1 < rx_full $end
$var reg 1 = start $end
$var reg 32 > tx_data_fifo [31:0] $end
$var reg 1 ? tx_empty $end
$var integer 32 @ i [31:0] $end
$scope module dut $end
$var wire 32 A addr [31:0] $end
$var wire 2 B addr_bytes_sel [1:0] $end
$var wire 2 C addr_lanes_sel [1:0] $end
$var wire 1 D bit_tick $end
$var wire 1 / clk $end
$var wire 32 E clk_div [31:0] $end
$var wire 2 F cmd_lanes_sel [1:0] $end
$var wire 8 G cmd_opcode [7:0] $end
$var wire 1 3 cpha $end
$var wire 1 4 cpol $end
$var wire 1 H cs_auto $end
$var wire 2 I data_lanes_sel [1:0] $end
$var wire 1 6 dir $end
$var wire 1 ) done $end
$var wire 4 J dummy_cycles [3:0] $end
$var wire 1 K leading_edge $end
$var wire 32 L len_bytes [31:0] $end
$var wire 8 M mode_bits [7:0] $end
$var wire 1 : mode_en $end
$var wire 1 N quad_en $end
$var wire 1 ; resetn $end
$var wire 1 < rx_full $end
$var wire 1 = start $end
$var wire 1 O trailing_edge $end
$var wire 32 P tx_data_fifo [31:0] $end
$var wire 1 ? tx_empty $end
$var wire 1 ! tx_ren $end
$var wire 1 Q xip_cont_read $end
$var wire 1 R shift_pulse $end
$var wire 1 " sclk $end
$var wire 1 S sample_pulse $end
$var wire 4 T io_di [3:0] $end
$var wire 1 % io3 $end
$var wire 1 & io2 $end
$var wire 1 ' io1 $end
$var wire 1 ( io0 $end
$var wire 6 U addr_bits [5:0] $end
$var reg 3 V addr_lanes_eff [2:0] $end
$var reg 6 W bit_cnt [5:0] $end
$var reg 6 X bit_cnt_n [5:0] $end
$var reg 32 Y byte_cnt [31:0] $end
$var reg 32 Z byte_cnt_n [31:0] $end
$var reg 3 [ cmd_lanes_eff [2:0] $end
$var reg 1 * cs_n $end
$var reg 1 \ cs_n_n $end
$var reg 3 ] data_lanes_eff [2:0] $end
$var reg 4 ^ dummy_cnt [3:0] $end
$var reg 4 _ dummy_cnt_n [3:0] $end
$var reg 4 ` in_bits [3:0] $end
$var reg 4 a io_oe [3:0] $end
$var reg 4 b io_oe_n [3:0] $end
$var reg 3 c lanes [2:0] $end
$var reg 3 d lanes_n [2:0] $end
$var reg 4 e out_bits [3:0] $end
$var reg 32 f rx_data_fifo [31:0] $end
$var reg 1 # rx_wen $end
$var reg 32 g sclk_cnt [31:0] $end
$var reg 1 h sclk_edge $end
$var reg 1 i sclk_en $end
$var reg 1 j sclk_en_n $end
$var reg 1 k sclk_q $end
$var reg 1 l sclk_q_prev $end
$var reg 32 m shreg [31:0] $end
$var reg 32 n shreg_n [31:0] $end
$var reg 4 o state [3:0] $end
$var reg 4 p state_n [3:0] $end
$scope function lane_decode $end
$var reg 2 q sel [1:0] $end
$upscope $end
$scope function lane_mask $end
$var reg 3 r lanes [2:0] $end
$upscope $end
$upscope $end
$upscope $end
$enddefinitions $end
#0
$dumpvars
bx r
b0 q
b0 p
b0 o
b0 n
b0 m
0l
0k
0j
0i
0h
b0 g
b0 f
b0 e
b1 d
b1 c
b0 b
b0 a
b0z `
b0 _
b0 ^
b1 ]
1\
b1 [
b0 Z
b0 Y
b0 X
b0 W
b1 V
b0 U
bz T
0S
0R
0Q
b0 P
0O
0N
b0 M
b0 L
0K
b0 J
b0 I
1H
b110 G
b0 F
b0 E
0D
b0 C
b0 B
b0 A
bx @
1?
b0 >
0=
0<
0;
0:
b0 9
b0 8
b0 7
06
b0 5
04
03
b110 2
b0 1
b0 0
0/
b0 .
b0 -
b0 ,
b0 +
1*
0)
z(
z'
z&
z%
b0 $
0#
0"
0!
$end
#5000
1/
#10000
0/
#15000
1/
#20000
0/
1;
#25000
b110000000000000000000000000 n
b1 p
1=
1/
#30000
0/
#35000
b10 p
0\
b110000000000000000000000000 m
b1 o
0=
1/
#40000
0/
#45000
b0 @
b1 b
b1 r
1j
0*
b10 o
1/
#50000
0/
#55000
bz0 T
0(
1i
b1 a
1/
#60000
0/
#65000
b1 X
1j
b1 b
1D
1S
1K
1"
1h
1k
1/
#70000
0/
#75000
b1100000000000000000000000000 n
1R
0D
0S
b1 @
1O
0K
0"
b1 X
1j
b1 b
0k
1l
1h
b1 W
1/
#80000
0/
#85000
b10 X
0R
1D
1S
0O
1K
b1100000000000000000000000000 n
1j
b1 b
1"
b1100000000000000000000000000 m
1k
0l
1h
1/
#90000
0/
#95000
b11000000000000000000000000000 n
1R
0D
0S
b10 @
1O
0K
0"
b10 X
1j
b1 b
0k
1l
1h
b10 W
1/
#100000
0/
#105000
b11 X
0R
1D
1S
0O
1K
b11000000000000000000000000000 n
1j
b1 b
1"
b11000000000000000000000000000 m
1k
0l
1h
1/
#110000
0/
#115000
b110000000000000000000000000000 n
1R
0D
0S
b11 @
1O
0K
0"
b11 X
1j
b1 b
0k
1l
1h
b11 W
1/
#120000
0/
#125000
b100 X
0R
1D
1S
0O
1K
b110000000000000000000000000000 n
1j
b1 b
1"
b110000000000000000000000000000 m
1k
0l
1h
1/
#130000
0/
#135000
b1100000000000000000000000000000 n
1R
0D
0S
b100 @
1O
0K
0"
b100 X
1j
b1 b
0k
1l
1h
b100 W
1/
#140000
0/
#145000
b101 X
0R
1D
1S
0O
1K
b1100000000000000000000000000000 n
1j
b1 b
1"
b1100000000000000000000000000000 m
1k
0l
1h
1/
#150000
0/
#155000
b11000000000000000000000000000000 n
1R
0D
0S
b101 @
1O
0K
0"
b101 X
1j
b1 b
0k
1l
1h
b101 W
1/
#160000
0/
#165000
b110 X
bz1 T
1(
0R
1D
1S
0O
1K
b11000000000000000000000000000000 n
1j
b1 b
b1 e
1"
b11000000000000000000000000000000 m
1k
0l
1h
1/
#170000
0/
#175000
b10000000000000000000000000000000 n
1R
0D
0S
b110 @
1O
0K
0"
b110 X
1j
b1 b
0k
1l
1h
b110 W
1/
#180000
0/
#185000
b111 X
0R
1D
1S
b1 .
0O
1K
b10000000000000000000000000000000 n
1j
b1 b
1"
b10000000000000000000000000000000 m
1k
0l
1h
1/
#190000
0/
#195000
b0 n
1R
0D
0S
b111 @
1O
0K
0"
b10 p
b111 X
1j
b1 b
0k
1l
1h
b111 W
1/
#200000
0/
#205000
b1000 p
b0 X
bz0 T
0(
0R
1D
1S
b11 .
0O
1K
1j
b1 b
b0 e
1"
b0 m
1k
0l
1h
1/
#210000
0/
#215000
1R
0D
0S
b1000 @
1O
0K
0"
b0 p
1\
0j
b0 b
1)
0k
1l
1h
b0 W
b1000 o
1/
#220000
0/
#225000
0R
1D
1S
bz T
z(
0O
1K
0)
0i
b0 a
1*
b0 o
1k
0l
1h
1/
#230000
0/
#235000
0D
0S
0K
0k
0h
1/
#240000
0/
#245000
1/
#250000
0/
#255000
1/
#260000
0/
#265000
b0 @
b0 .
1/
