qspi_fsm_tb.vcd
$date
	Sun Sep  7 12:02:00 2025
$end
$version
	Icarus Verilog
$end
$timescale
	1ps
$end
$scope module qspi_fsm_tb $end
$var wire 1 ! tx_ren $end
$var wire 1 " sclk $end
$var wire 1 # rx_wen $end
$var wire 32 $ rx_data_fifo [31:0] $end
$var wire 1 % io3 $end
$var wire 1 & io2 $end
$var wire 1 ' io1 $end
$var wire 1 ( io0 $end
$var wire 1 ) done $end
$var wire 1 * cs_n $end
$var reg 32 + addr [31:0] $end
$var reg 2 , addr_bytes_sel [1:0] $end
$var reg 2 - addr_lanes_sel [1:0] $end
$var reg 2 . cap_dual [1:0] $end
$var reg 8 / cap_neg [7:0] $end
$var reg 8 0 cap_pos [7:0] $end
$var reg 1 1 clk $end
$var reg 32 2 clk_div [31:0] $end
$var reg 2 3 cmd_lanes_sel [1:0] $end
$var reg 8 4 cmd_opcode [7:0] $end
$var reg 1 5 cpha $end
$var reg 1 6 cpol $end
$var reg 2 7 data_lanes_sel [1:0] $end
$var reg 1 8 dir $end
$var reg 4 9 dummy_cycles [3:0] $end
$var reg 32 : len_bytes [31:0] $end
$var reg 8 ; mode_bits [7:0] $end
$var reg 1 < mode_en $end
$var reg 1 = resetn $end
$var reg 1 > rx_full $end
$var reg 1 ? start $end
$var reg 32 @ tx_data_fifo [31:0] $end
$var reg 1 A tx_empty $end
$var integer 32 B i [31:0] $end
$scope module dut $end
$var wire 32 C addr [31:0] $end
$var wire 2 D addr_bytes_sel [1:0] $end
$var wire 2 E addr_lanes_sel [1:0] $end
$var wire 1 F bit_tick $end
$var wire 1 1 clk $end
$var wire 32 G clk_div [31:0] $end
$var wire 2 H cmd_lanes_sel [1:0] $end
$var wire 8 I cmd_opcode [7:0] $end
$var wire 1 5 cpha $end
$var wire 1 6 cpol $end
$var wire 1 J cs_auto $end
$var wire 2 K data_lanes_sel [1:0] $end
$var wire 1 8 dir $end
$var wire 1 ) done $end
$var wire 4 L dummy_cycles [3:0] $end
$var wire 1 M leading_edge $end
$var wire 32 N len_bytes [31:0] $end
$var wire 8 O mode_bits [7:0] $end
$var wire 1 < mode_en $end
$var wire 1 P quad_en $end
$var wire 1 = resetn $end
$var wire 1 > rx_full $end
$var wire 1 ? start $end
$var wire 1 Q trailing_edge $end
$var wire 32 R tx_data_fifo [31:0] $end
$var wire 1 A tx_empty $end
$var wire 1 ! tx_ren $end
$var wire 1 S xip_cont_read $end
$var wire 1 T shift_pulse $end
$var wire 1 " sclk $end
$var wire 1 U sample_pulse $end
$var wire 4 V io_di [3:0] $end
$var wire 1 % io3 $end
$var wire 1 & io2 $end
$var wire 1 ' io1 $end
$var wire 1 ( io0 $end
$var wire 6 W addr_bits [5:0] $end
$var reg 3 X addr_lanes_eff [2:0] $end
$var reg 6 Y bit_cnt [5:0] $end
$var reg 6 Z bit_cnt_n [5:0] $end
$var reg 32 [ byte_cnt [31:0] $end
$var reg 32 \ byte_cnt_n [31:0] $end
$var reg 3 ] cmd_lanes_eff [2:0] $end
$var reg 1 * cs_n $end
$var reg 1 ^ cs_n_n $end
$var reg 3 _ data_lanes_eff [2:0] $end
$var reg 4 ` dummy_cnt [3:0] $end
$var reg 4 a dummy_cnt_n [3:0] $end
$var reg 4 b in_bits [3:0] $end
$var reg 4 c io_oe [3:0] $end
$var reg 4 d io_oe_n [3:0] $end
$var reg 3 e lanes [2:0] $end
$var reg 3 f lanes_n [2:0] $end
$var reg 4 g out_bits [3:0] $end
$var reg 32 h rx_data_fifo [31:0] $end
$var reg 1 # rx_wen $end
$var reg 1 i sclk_armed $end
$var reg 32 j sclk_cnt [31:0] $end
$var reg 1 k sclk_edge $end
$var reg 1 l sclk_en $end
$var reg 1 m sclk_en_n $end
$var reg 1 n sclk_q $end
$var reg 1 o sclk_q_prev $end
$var reg 32 p shreg [31:0] $end
$var reg 32 q shreg_n [31:0] $end
$var reg 4 r state [3:0] $end
$var reg 4 s state_n [3:0] $end
$scope function lane_decode $end
$var reg 2 t sel [1:0] $end
$upscope $end
$scope function lane_mask $end
$var reg 3 u lanes [2:0] $end
$upscope $end
$upscope $end
$upscope $end
$enddefinitions $end
#0
$dumpvars
bx u
b0 t
b0 s
b0 r
b0 q
b0 p
0o
0n
0m
0l
0k
b0 j
0i
b0 h
b0 g
b1 f
b1 e
b0 d
b0 c
b0z b
b0 a
b0 `
b1 _
1^
b1 ]
b0 \
b0 [
b0 Z
b0 Y
b1 X
b0 W
bz V
0U
0T
0S
b0 R
0Q
0P
b0 O
b0 N
0M
b0 L
b0 K
1J
b110 I
b0 H
b0 G
0F
b0 E
b0 D
b0 C
bx B
1A
b0 @
0?
0>
0=
0<
b0 ;
b0 :
b0 9
08
b0 7
06
05
b110 4
b0 3
b0 2
01
b0 0
b0 /
b0 .
b0 -
b0 ,
b0 +
1*
0)
z(
z'
z&
z%
b0 $
0#
0"
0!
$end
#5000
11
#10000
01
#15000
11
#20000
01
1=
#25000
b110000000000000000000000000 q
b1 s
1?
11
#30000
01
#35000
b10 s
0^
b110000000000000000000000000 p
b1 r
0?
11
#40000
01
#45000
b0 B
b1 d
b1 u
1m
0*
b10 r
11
#50000
01
#55000
bz0 V
0(
1l
b1 c
11
#60000
01
#65000
1i
11
#70000
01
#75000
b1 Z
b1100000000000000000000000000 q
1m
b1 d
1F
1U
1M
1"
1k
1n
11
#80000
01
#85000
1T
0F
0U
b1 B
1Q
0M
b1 Z
b1100000000000000000000000000 q
1m
b1 d
0"
b1 Y
b1100000000000000000000000000 p
0n
1o
1k
11
#90000
01
#95000
b10 Z
b11000000000000000000000000000 q
1m
b1 d
0T
1F
1U
0Q
1M
1"
1n
0o
1k
11
#100000
01
#105000
1T
0F
0U
b10 B
1Q
0M
b10 Z
b11000000000000000000000000000 q
1m
b1 d
0"
b10 Y
b11000000000000000000000000000 p
0n
1o
1k
11
#110000
01
#115000
b11 Z
b110000000000000000000000000000 q
1m
b1 d
0T
1F
1U
0Q
1M
1"
1n
0o
1k
11
#120000
01
#125000
1T
0F
0U
b11 B
1Q
0M
b11 Z
b110000000000000000000000000000 q
1m
b1 d
0"
b11 Y
b110000000000000000000000000000 p
0n
1o
1k
11
#130000
01
#135000
b100 Z
b1100000000000000000000000000000 q
1m
b1 d
0T
1F
1U
0Q
1M
1"
1n
0o
1k
11
#140000
01
#145000
1T
0F
0U
b100 B
1Q
0M
b100 Z
b1100000000000000000000000000000 q
1m
b1 d
0"
b100 Y
b1100000000000000000000000000000 p
0n
1o
1k
11
#150000
01
#155000
b101 Z
b11000000000000000000000000000000 q
1m
b1 d
0T
1F
1U
0Q
1M
1"
1n
0o
1k
11
#160000
01
#165000
bz1 V
1(
1T
0F
0U
b101 B
1Q
0M
b101 Z
b11000000000000000000000000000000 q
1m
b1 d
b1 g
0"
b101 Y
b11000000000000000000000000000000 p
0n
1o
1k
11
#170000
01
#175000
b110 Z
b10000000000000000000000000000000 q
1m
b1 d
0T
1F
1U
b1 0
0Q
1M
1"
1n
0o
1k
11
#180000
01
#185000
1T
0F
0U
b110 B
b1 /
1Q
0M
b110 Z
b10000000000000000000000000000000 q
1m
b1 d
0"
b110 Y
b10000000000000000000000000000000 p
0n
1o
1k
11
#190000
01
#195000
b111 Z
b0 q
1m
b1 d
0T
1F
1U
b11 0
0Q
1M
1"
1n
0o
1k
11
#200000
01
#205000
bz0 V
0(
1T
0F
0U
b111 B
b11 /
1Q
0M
b10 s
b111 Z
1m
b1 d
b0 g
0"
b111 Y
b0 p
0n
1o
1k
11
#210000
01
#215000
b1000 s
b0 Z
1m
b1 d
0T
1F
1U
b110 0
0Q
1M
1"
1n
0o
1k
11
#220000
01
#225000
1T
0F
0U
b1000 B
b110 /
1Q
0M
b0 s
1^
0m
b0 d
1)
0"
b0 Y
b1000 r
0n
1o
1k
11
#230000
01
#235000
0T
1F
1U
0Q
1M
bz V
z(
0)
1n
0o
1k
0l
b0 c
1*
b0 r
11
#240000
01
#245000
0F
0U
0M
0i
0n
0k
11
#250000
01
#255000
11
#260000
01
#265000
11
#270000
01
#275000
b10 ]
b0 t
b10101011 4
b10101011 I
b1 3
b1 H
11
#280000
01
#285000
b10101011000000000000000000000000 q
b10 f
b1 s
1?
11
#290000
01
#295000
b0zz b
b10 g
b10 s
0^
b10101011000000000000000000000000 p
b10 e
b1 r
0?
11
#300000
01
#305000
b11 d
b10 u
1m
0*
b10 r
11
#310000
01
#315000
1m
b11 d
b10 b
0(
bz10 V
1'
1l
b11 c
11
#320000
01
#325000
1i
11
#330000
01
#335000
b10 Z
b10101100000000000000000000000000 q
1m
b11 d
1F
1U
b10 .
1M
1"
1k
1n
11
#340000
01
#345000
1T
0F
0U
1Q
0M
b10 Z
b10101100000000000000000000000000 q
1m
b11 d
0"
b10 Y
b10101100000000000000000000000000 p
0n
1o
1k
11
#350000
01
#355000
b100 Z
b10110000000000000000000000000000 q
1m
b11 d
0T
1F
1U
0Q
1M
1"
1n
0o
1k
11
#360000
01
#365000
1T
0F
0U
1Q
0M
b100 Z
b10110000000000000000000000000000 q
1m
b11 d
0"
b100 Y
b10110000000000000000000000000000 p
0n
1o
1k
11
#370000
01
#375000
b110 Z
b11000000000000000000000000000000 q
1m
b11 d
0T
1F
1U
0Q
1M
1"
1n
0o
1k
11
#380000
01
#385000
b11 b
bz11 V
1(
1T
0F
0U
1Q
0M
b10 s
b110 Z
b11000000000000000000000000000000 q
1m
b11 d
b11 g
0"
b110 Y
b11000000000000000000000000000000 p
0n
1o
1k
11
#390000
01
#395000
b1000 s
b0 Z
b0 q
1m
b11 d
0T
1F
1U
0Q
1M
1"
1n
0o
1k
11
#400000
01
#405000
b0 b
0(
bz00 V
0'
b1 ]
1T
0F
0U
b1000 9
b1000 L
b1011 4
b1011 I
b0 3
b0 H
1Q
0M
b0 g
b0 s
1^
0m
b0 d
1)
0"
b0 Y
b0 p
b1000 r
0n
1o
1k
11
#410000
01
#415000
0T
1F
1U
b0zz b
0Q
1M
z(
bz V
z'
0)
b1011000000000000000000000000 q
b1 f
b1 s
1n
0o
1k
0l
b0 c
1*
b0 r
1?
11
#420000
01
#425000
0F
0U
b0z b
0M
b10 s
0^
b1011000000000000000000000000 p
b1 e
b1 r
0i
0n
0k
0?
11
#430000
01
#435000
b1 d
b1 u
1m
0*
b10 r
11
#440000
01
#445000
bz0 V
0(
1l
b1 c
11
#450000
01
#455000
1i
11
#460000
01
#465000
b1 Z
b10110000000000000000000000000 q
1m
b1 d
1F
1U
1M
1"
1k
1n
11
#470000
01
#475000
1T
0F
0U
1Q
0M
0"
b1 Z
b10110000000000000000000000000 q
1m
b1 d
0n
1o
1k
b1 Y
b10110000000000000000000000000 p
11
#480000
01
#485000
b10 Z
b101100000000000000000000000000 q
1m
b1 d
0T
1F
1U
0Q
1M
1"
1n
0o
1k
11
#490000
01
#495000
1T
0F
0U
1Q
0M
0"
b10 Z
b101100000000000000000000000000 q
1m
b1 d
0n
1o
1k
b10 Y
b101100000000000000000000000000 p
11
#500000
01
#505000
b11 Z
b1011000000000000000000000000000 q
1m
b1 d
0T
1F
1U
0Q
1M
1"
1n
0o
1k
11
#510000
01
#515000
1T
0F
0U
1Q
0M
0"
b11 Z
b1011000000000000000000000000000 q
1m
b1 d
0n
1o
1k
b11 Y
b1011000000000000000000000000000 p
11
#520000
01
#525000
b100 Z
b10110000000000000000000000000000 q
1m
b1 d
0T
1F
1U
0Q
1M
1"
1n
0o
1k
11
#530000
01
#535000
1T
0F
0U
bz1 V
1(
1Q
0M
0"
b100 Z
b10110000000000000000000000000000 q
1m
b1 d
b1 g
0n
1o
1k
b100 Y
b10110000000000000000000000000000 p
11
#540000
01
#545000
b101 Z
b1100000000000000000000000000000 q
1m
b1 d
0T
1F
1U
0Q
1M
1"
1n
0o
1k
11
#550000
01
#555000
1T
0F
0U
bz0 V
0(
1Q
0M
0"
b101 Z
b1100000000000000000000000000000 q
1m
b1 d
b0 g
0n
1o
1k
b101 Y
b1100000000000000000000000000000 p
11
#560000
01
#565000
b110 Z
b11000000000000000000000000000000 q
1m
b1 d
0T
1F
1U
0Q
1M
1"
1n
0o
1k
11
#570000
01
#575000
1T
0F
0U
bz1 V
1(
1Q
0M
0"
b110 Z
b11000000000000000000000000000000 q
1m
b1 d
b1 g
0n
1o
1k
b110 Y
b11000000000000000000000000000000 p
11
#580000
01
#585000
b111 Z
b10000000000000000000000000000000 q
1m
b1 d
0T
1F
1U
0Q
1M
1"
1n
0o
1k
11
#590000
01
#595000
1T
0F
0U
1Q
0M
0"
b0 a
b10 s
b111 Z
b10000000000000000000000000000000 q
1m
b1 d
0n
1o
1k
b111 Y
b10000000000000000000000000000000 p
11
#600000
01
#605000
b1000 a
b101 s
b0 Z
b0 q
1m
b1 d
0T
1F
1U
0Q
1M
1"
1n
0o
1k
11
#610000
01
#615000
1T
0F
0U
bz0 V
0(
1Q
0M
0"
b0 g
b1000 a
1m
b0 d
0n
1o
1k
b1000 `
b0 Y
b0 p
b101 r
11
#620000
01
#625000
b111 a
1m
0T
1F
1U
bz V
z(
0Q
1M
1"
b0 c
1n
0o
1k
11
#630000
01
#635000
1T
0F
0U
1Q
0M
0"
b111 a
1m
0n
1o
1k
b111 `
11
#640000
01
#645000
b110 a
1m
0T
1F
1U
0Q
1M
1"
1n
0o
1k
11
#650000
01
#655000
1T
0F
0U
1Q
0M
0"
b110 a
1m
0n
1o
1k
b110 `
11
#660000
01
#665000
b101 a
1m
0T
1F
1U
0Q
1M
1"
1n
0o
1k
11
#670000
01
#675000
1T
0F
0U
1Q
0M
0"
b101 a
1m
0n
1o
1k
b101 `
11
#680000
01
#685000
b100 a
1m
0T
1F
1U
0Q
1M
1"
1n
0o
1k
11
#690000
01
#695000
1T
0F
0U
1Q
0M
0"
b100 a
1m
0n
1o
1k
b100 `
11
#700000
01
#705000
b11 a
1m
0T
1F
1U
0Q
1M
1"
1n
0o
1k
11
#710000
01
#715000
1T
0F
0U
1Q
0M
0"
b11 a
1m
0n
1o
1k
b11 `
11
#720000
01
#725000
b10 a
1m
0T
1F
1U
0Q
1M
1"
1n
0o
1k
11
#730000
01
#735000
1T
0F
0U
1Q
0M
0"
b10 a
1m
0n
1o
1k
b10 `
11
#740000
01
#745000
b1 a
1m
0T
1F
1U
0Q
1M
1"
1n
0o
1k
11
#750000
01
#755000
1T
0F
0U
1Q
0M
0"
b101 s
b1 a
1m
0n
1o
1k
b1 `
11
#760000
01
#765000
b1000 s
b0 a
1m
0T
1F
1U
0Q
1M
1"
1n
0o
1k
11
#770000
01
#775000
1T
0F
0U
1Q
0M
0"
b0 s
1^
0m
1)
0n
1o
1k
b0 `
b1000 r
11
