qspi_fsm_quad_eb_tb.vcd
$date
	Tue Sep  9 01:44:16 2025
$end
$version
	Icarus Verilog
$end
$timescale
	1ps
$end
$scope module qspi_fsm_quad_eb_tb $end
$var wire 1 ! io0 $end
$var wire 1 " io1 $end
$var wire 1 # io2 $end
$var wire 1 $ io3 $end
$var wire 1 % tx_ren $end
$var wire 1 & sclk $end
$var wire 1 ' rx_wen $end
$var wire 32 ( rx_data_fifo [31:0] $end
$var wire 1 ) done $end
$var wire 1 * cs_n $end
$var reg 32 + addr [31:0] $end
$var reg 2 , addr_bytes_sel [1:0] $end
$var reg 2 - addr_lanes_sel [1:0] $end
$var reg 1 . clk $end
$var reg 32 / clk_div [31:0] $end
$var reg 2 0 cmd_lanes_sel [1:0] $end
$var reg 8 1 cmd_opcode [7:0] $end
$var reg 1 2 cpha $end
$var reg 1 3 cpol $end
$var reg 2 4 data_lanes_sel [1:0] $end
$var reg 1 5 dir $end
$var reg 4 6 dummy_cycles [3:0] $end
$var reg 1 7 got_rx $end
$var reg 32 8 len_bytes [31:0] $end
$var reg 8 9 mode_bits [7:0] $end
$var reg 1 : mode_en $end
$var reg 1 ; resetn $end
$var reg 1 < rx_full $end
$var reg 32 = rx_word [31:0] $end
$var reg 1 > start $end
$var reg 32 ? tx_data_fifo [31:0] $end
$var reg 1 @ tx_empty $end
$scope module dev $end
$var wire 1 ! qspi_io0 $end
$var wire 1 " qspi_io1 $end
$var wire 1 # qspi_io2 $end
$var wire 1 $ qspi_io3 $end
$var wire 1 & qspi_sclk $end
$var wire 1 * qspi_cs_n $end
$var wire 4 A io_di [3:0] $end
$var reg 24 B addr_reg [23:0] $end
$var reg 32 C bit_cnt [31:0] $end
$var reg 32 D byte_cnt [31:0] $end
$var reg 8 E cmd_reg [7:0] $end
$var reg 1 F continuous_read $end
$var reg 5 G dummy_cycles [4:0] $end
$var reg 32 H erase_counter [31:0] $end
$var reg 2 I id_idx [1:0] $end
$var reg 24 J id_reg [23:0] $end
$var reg 4 K io_do [3:0] $end
$var reg 4 L io_oe [3:0] $end
$var reg 4 M lanes [3:0] $end
$var reg 8 N mode_bits [7:0] $end
$var reg 32 O nxt_addr_reg [31:0] $end
$var reg 32 P nxt_bit_cnt [31:0] $end
$var reg 8 Q nxt_cmd_reg [7:0] $end
$var reg 8 R shift_in [7:0] $end
$var reg 8 S shift_out [7:0] $end
$var reg 4 T state [3:0] $end
$var reg 8 U status_reg [7:0] $end
$var reg 1 V wip $end
$scope begin $unm_blk_208 $end
$var integer 32 W i [31:0] $end
$upscope $end
$scope begin $unm_blk_230 $end
$var integer 32 X j [31:0] $end
$upscope $end
$scope begin $unm_blk_239 $end
$var integer 32 Y j [31:0] $end
$upscope $end
$upscope $end
$scope module dut $end
$var wire 32 Z addr [31:0] $end
$var wire 2 [ addr_bytes_sel [1:0] $end
$var wire 2 \ addr_lanes_sel [1:0] $end
$var wire 1 ] bit_tick $end
$var wire 1 . clk $end
$var wire 32 ^ clk_div [31:0] $end
$var wire 2 _ cmd_lanes_sel [1:0] $end
$var wire 8 ` cmd_opcode [7:0] $end
$var wire 1 2 cpha $end
$var wire 1 3 cpol $end
$var wire 1 a cs_auto $end
$var wire 2 b cs_delay [1:0] $end
$var wire 2 c data_lanes_sel [1:0] $end
$var wire 1 5 dir $end
$var wire 1 ) done $end
$var wire 4 d dummy_cycles [3:0] $end
$var wire 1 ! io0 $end
$var wire 1 " io1 $end
$var wire 1 # io2 $end
$var wire 1 $ io3 $end
$var wire 1 e leading_edge $end
$var wire 32 f len_bytes [31:0] $end
$var wire 8 g mode_bits [7:0] $end
$var wire 1 : mode_en $end
$var wire 1 h quad_en $end
$var wire 1 ; resetn $end
$var wire 1 < rx_full $end
$var wire 1 > start $end
$var wire 1 i trailing_edge $end
$var wire 32 j tx_data_fifo [31:0] $end
$var wire 1 @ tx_empty $end
$var wire 1 % tx_ren $end
$var wire 1 k xip_cont_read $end
$var wire 1 l shift_pulse $end
$var wire 1 & sclk $end
$var wire 1 m sample_pulse $end
$var wire 4 n io_di [3:0] $end
$var wire 6 o addr_bits [5:0] $end
$var reg 3 p addr_lanes_eff [2:0] $end
$var reg 6 q bit_cnt [5:0] $end
$var reg 6 r bit_cnt_n [5:0] $end
$var reg 32 s byte_cnt [31:0] $end
$var reg 32 t byte_cnt_n [31:0] $end
$var reg 3 u cmd_lanes_eff [2:0] $end
$var reg 8 v cs_cnt [7:0] $end
$var reg 8 w cs_cnt_n [7:0] $end
$var reg 1 * cs_n $end
$var reg 1 x cs_n_n $end
$var reg 3 y data_lanes_eff [2:0] $end
$var reg 4 z dummy_cnt [3:0] $end
$var reg 4 { dummy_cnt_n [3:0] $end
$var reg 4 | in_bits [3:0] $end
$var reg 4 } io_oe [3:0] $end
$var reg 4 ~ io_oe_n [3:0] $end
$var reg 1 !" is_write_cmd $end
$var reg 1 "" is_write_cmd_n $end
$var reg 3 #" lanes [2:0] $end
$var reg 3 $" lanes_n [2:0] $end
$var reg 4 %" out_bits [3:0] $end
$var reg 1 &" post_hold_write $end
$var reg 1 '" post_hold_write_n $end
$var reg 1 (" rd_warmup $end
$var reg 4 )" rd_warmup_cnt [3:0] $end
$var reg 4 *" rd_warmup_cnt_n [3:0] $end
$var reg 1 +" rd_warmup_n $end
$var reg 32 ," rx_data_fifo [31:0] $end
$var reg 1 ' rx_wen $end
$var reg 1 -" sclk_armed $end
$var reg 32 ." sclk_cnt [31:0] $end
$var reg 1 /" sclk_edge $end
$var reg 1 0" sclk_en $end
$var reg 1 1" sclk_en_n $end
$var reg 1 2" sclk_q $end
$var reg 1 3" sclk_q_prev $end
$var reg 32 4" shreg [31:0] $end
$var reg 32 5" shreg_n [31:0] $end
$var reg 4 6" state [3:0] $end
$var reg 4 7" state_n [3:0] $end
$scope function lane_decode $end
$var reg 2 8" sel [1:0] $end
$upscope $end
$scope function lane_mask $end
$var reg 3 9" lanes [2:0] $end
$upscope $end
$upscope $end
$upscope $end
$enddefinitions $end
#0
$dumpvars
bx 9"
bx 8"
b0 7"
b0 6"
b0 5"
b0 4"
03"
02"
01"
00"
0/"
b0 ."
0-"
b0 ,"
0+"
b0 *"
b0 )"
0("
0'"
0&"
b0 %"
b1 $"
b1 #"
0""
0!"
b0 ~
b0 }
b0z |
b0 {
b0 z
b100 y
1x
b0 w
b0 v
b1 u
b0 t
b0 s
b0 r
b0 q
b100 p
b11000 o
bz n
0m
0l
0k
b0 j
0i
1h
b10100000 g
b100 f
0e
b100 d
b0 c
b0 b
1a
b11101011 `
b0 _
b0 ^
0]
b0 \
b1 [
b0 Z
bx Y
bx X
b100000000000000000000 W
0V
b0 U
b0 T
b0 S
b0 R
b0z Q
b1 P
b0zzzz O
b0 N
b0 M
b0 L
bx K
b110000100010000000010111 J
b0 I
b0 H
b0 G
0F
b0 E
b0 D
b0 C
b0 B
bz A
1@
b0 ?
0>
bx =
0<
0;
1:
b10100000 9
b100 8
x7
b100 6
15
b0 4
03
02
b11101011 1
b0 0
b0 /
0.
b0 -
b1 ,
b0 +
1*
0)
b0 (
0'
0&
0%
z$
z#
z"
z!
$end
#5000
b0 =
07
1.
#10000
0.
#15000
1.
#20000
0.
#25000
1.
#30000
0.
#35000
1;
1.
#40000
0.
#45000
b11101011000000000000000000000000 5"
b1 7"
1>
1.
#50000
0.
#55000
b1 %"
b10 7"
0x
b11101011000000000000000000000000 4"
b1 6"
0>
1.
#60000
0.
#65000
b1 ~
b1 9"
11"
0*
b10 6"
1.
#70000
0.
#75000
b0zzz1 O
b1 Q
bz1 A
bz1 n
1!
10"
b1 }
1.
#80000
0.
#85000
1-"
1.
#90000
0.
#95000
b11 O
b10 P
b11 Q
b1 R
b1 M
b1 C
b1 T
b1 r
b11010110000000000000000000000000 5"
11"
b1 ~
1]
1m
1e
1&
1/"
12"
1.
#100000
0.
#105000
1l
0]
0m
1i
0e
b1 r
b11010110000000000000000000000000 5"
11"
b1 ~
0&
b1 q
b11010110000000000000000000000000 4"
02"
13"
1/"
1.
#110000
0.
#115000
b111 O
b11 P
b111 Q
b10 C
b11 R
b10 r
b10101100000000000000000000000000 5"
11"
b1 ~
0l
1]
1m
0i
1e
1&
12"
03"
1/"
1.
#120000
0.
#125000
1l
0]
0m
1i
0e
b10 r
b10101100000000000000000000000000 5"
11"
b1 ~
0&
b10 q
b10101100000000000000000000000000 4"
02"
13"
1/"
1.
#130000
0.
#135000
b1111 O
b100 P
b1111 Q
b11 C
b111 R
b11 r
b1011000000000000000000000000000 5"
11"
b1 ~
0l
1]
1m
0i
1e
1&
12"
03"
1/"
1.
#140000
0.
#145000
b1110 O
b1110 Q
bz0 A
bz0 n
0!
1l
0]
0m
1i
0e
b11 r
b1011000000000000000000000000000 5"
11"
b1 ~
b0 %"
0&
b11 q
b1011000000000000000000000000000 4"
02"
13"
1/"
1.
#150000
0.
#155000
b11100 O
b101 P
b11100 Q
b100 C
b1110 R
b100 r
b10110000000000000000000000000000 5"
11"
b1 ~
0l
1]
1m
0i
1e
1&
12"
03"
1/"
1.
#160000
0.
#165000
b11101 O
b11101 Q
bz1 A
bz1 n
1!
1l
0]
0m
1i
0e
b100 r
b10110000000000000000000000000000 5"
11"
b1 ~
b1 %"
0&
b100 q
b10110000000000000000000000000000 4"
02"
13"
1/"
1.
#170000
0.
#175000
b111011 O
b110 P
b111011 Q
b101 C
b11101 R
b101 r
b1100000000000000000000000000000 5"
11"
b1 ~
0l
1]
1m
0i
1e
1&
12"
03"
1/"
1.
#180000
0.
#185000
b111010 O
b111010 Q
bz0 A
bz0 n
0!
1l
0]
0m
1i
0e
b101 r
b1100000000000000000000000000000 5"
11"
b1 ~
b0 %"
0&
b101 q
b1100000000000000000000000000000 4"
02"
13"
1/"
1.
#190000
0.
#195000
b1110100 O
b111 P
b1110100 Q
b110 C
b111010 R
b110 r
b11000000000000000000000000000000 5"
11"
b1 ~
0l
1]
1m
0i
1e
1&
12"
03"
1/"
1.
#200000
0.
#205000
b1110101 O
b1110101 Q
bz1 A
bz1 n
1!
1l
0]
0m
1i
0e
b110 r
b11000000000000000000000000000000 5"
11"
b1 ~
b1 %"
0&
b110 q
b11000000000000000000000000000000 4"
02"
13"
1/"
1.
#210000
0.
#215000
b11101011 O
b1000 P
b11101011 Q
b111 C
b1110101 R
b111 r
b10000000000000000000000000000000 5"
11"
b1 ~
0l
1]
1m
0i
1e
1&
12"
03"
1/"
1.
#220000
0.
#225000
1l
0]
0m
1i
0e
b1 $"
b10 7"
b111 r
b10000000000000000000000000000000 5"
11"
b1 ~
0&
b111 q
b10000000000000000000000000000000 4"
02"
13"
1/"
1.
#230000
0.
#235000
b0zzz1 O
b1 P
b1 Q
b100 G
b100 M
b10 T
b11101011 E
b0 C
b0 R
b100 $"
b11 7"
b0 r
b0 5"
11"
b1 ~
0l
1]
1m
0i
1e
1&
12"
03"
1/"
1.
#240000
0.
#245000
b0zzz0 O
b0 Q
bz0 A
bz0 n
0!
1l
0]
0m
1i
0e
bz0 |
b0 %"
b0 r
b100 9"
11"
b1111 ~
0&
b0 q
b0 4"
b100 #"
b11 6"
02"
13"
1/"
1.
#250000
0.
#255000
b101 P
b100 C
b100 r
11"
b1111 ~
0l
1]
1m
b0 O
b0 |
0i
1e
0"
0#
b0 A
b0 n
0$
1&
12"
03"
1/"
b1111 }
1.
#260000
0.
#265000
1l
0]
0m
1i
0e
b100 r
11"
b1111 ~
0&
b100 q
02"
13"
1/"
1.
#270000
0.
#275000
b1 P
b1 D
b0 C
b1000 r
11"
b1111 ~
0l
1]
1m
0i
1e
1&
12"
03"
1/"
1.
#280000
0.
#285000
1l
0]
0m
1i
0e
b1000 r
11"
b1111 ~
0&
b1000 q
02"
13"
1/"
1.
#290000
0.
#295000
b101 P
b100 C
b1100 r
11"
b1111 ~
0l
1]
1m
0i
1e
1&
12"
03"
1/"
1.
#300000
0.
#305000
1l
0]
0m
1i
0e
b1100 r
11"
b1111 ~
0&
b1100 q
02"
13"
1/"
1.
#310000
0.
#315000
b1 P
b10 D
b0 C
b10000 r
11"
b1111 ~
0l
1]
1m
0i
1e
1&
12"
03"
1/"
1.
#320000
0.
#325000
1l
0]
0m
1i
0e
b10000 r
11"
b1111 ~
0&
b10000 q
02"
13"
1/"
1.
#330000
0.
#335000
b101 P
b100 C
b10100 r
11"
b1111 ~
0l
1]
1m
0i
1e
1&
12"
03"
1/"
1.
#340000
0.
#345000
1l
0]
0m
1i
0e
b0 5"
b11 7"
b10100 r
11"
b1111 ~
0&
b10100 q
02"
13"
1/"
1.
#350000
0.
#355000
b1 P
b11 T
b11 D
b0 C
b10100000000000000000000000000000 5"
b100 7"
b0 r
11"
b1111 ~
0l
1]
1m
0i
1e
1&
12"
03"
1/"
1.
#360000
0.
#365000
b1010 O
b1010 |
b0 5"
1"
b1010 A
b1010 n
1$
1l
0]
0m
1i
0e
b1010 %"
b0 r
11"
b1111 ~
0&
b0 q
b10100000000000000000000000000000 4"
b100 6"
02"
13"
1/"
1.
#370000
0.
#375000
b101 P
b10100 Q
b100 C
b1010 R
b100 r
b10100000 O
b0 |
0l
1]
1m
0"
b0 A
b0 n
0$
0i
1e
1&
11"
b1111 ~
b0 %"
12"
03"
1/"
b0 4"
1.
#380000
0.
#385000
1l
0]
0m
1i
0e
b0 {
b100 7"
b100 r
11"
b1111 ~
0&
b100 q
02"
13"
1/"
1.
#390000
0.
#395000
b0 O
b1 P
b1000000 Q
b100 T
b1010 N
b0 C
b10100000 R
b100 {
b101 7"
b0 r
11"
b1111 ~
0l
1]
1m
0i
1e
1&
12"
03"
1/"
1.
#400000
0.
#405000
1l
0]
0m
1i
0e
b100 {
11"
b0 ~
0&
b100 z
b0 q
b101 6"
02"
13"
1/"
1.
#410000
0.
#415000
b10 P
b1 C
b11 {
11"
0l
1]
1m
b0zzzz O
b100000z Q
bz |
0i
1e
z!
z"
z#
bz A
bz n
z$
1&
12"
03"
1/"
b0 }
1.
#420000
0.
#425000
1l
0]
0m
1i
0e
b11 {
11"
0&
b11 z
02"
13"
1/"
1.
#430000
0.
#435000
b11 P
b10 C
b10 {
11"
0l
1]
1m
0i
1e
1&
12"
03"
1/"
1.
#440000
0.
#445000
1l
0]
0m
1i
0e
b10 {
11"
0&
b10 z
02"
13"
1/"
1.
#450000
0.
#455000
b100 P
b11 C
b1 {
11"
0l
1]
1m
0i
1e
1&
12"
03"
1/"
1.
#460000
0.
#465000
1l
0]
0m
1i
0e
0+"
b101 7"
b1 {
11"
0&
b1 z
02"
13"
1/"
1.
#470000
0.
#475000
b0xxxx O
b100000x Q
bx |
x!
x"
x#
bx A
bx n
x$
b1 P
b11111111 S
b1111 L
b101 T
b0 C
1+"
b110 7"
b0 {
11"
0l
1]
1m
0i
1e
1&
12"
03"
1/"
1.
#480000
0.
#485000
1l
0]
0m
1i
0e
1+"
11"
0&
1("
b0 z
b110 6"
02"
13"
1/"
1.
#490000
0.
#495000
b101 P
b100 C
b11110000 S
b1111 O
b1000001 Q
b1111 |
1$
1#
1"
b1111 A
b1111 n
1!
0+"
11"
0l
1]
1m
b1111 K
0i
1e
1&
12"
03"
1/"
1.
#500000
0.
#505000
1l
0]
0m
1i
0e
b0 r
b0 5"
11"
0&
0("
02"
13"
1/"
1.
#510000
0.
#515000
b100001111 O
b1 P
b100 D
b1 B
b0 C
b11111111 S
b100 r
b1111 5"
11"
0l
1]
1m
0i
1e
1&
12"
03"
1/"
1.
#520000
0.
#525000
1l
0]
0m
1i
0e
b100 r
b1111 5"
11"
0&
b100 q
b1111 4"
02"
13"
1/"
1.
#530000
0.
#535000
b101 P
b100 C
b11110000 S
b1000 r
b11111111 5"
11"
0l
1]
1m
0i
1e
1&
12"
03"
1/"
1.
#540000
0.
#545000
1l
0]
0m
1i
0e
b1000 r
b11111111 5"
11"
0&
b1000 q
b11111111 4"
02"
13"
1/"
1.
#550000
0.
#555000
b1000001111 O
b1 P
b101 D
b10 B
b0 C
b11111111 S
b1100 r
b111111111111 5"
11"
0l
1]
1m
0i
1e
1&
12"
03"
1/"
1.
#560000
0.
#565000
1l
0]
0m
1i
0e
b1100 r
b111111111111 5"
11"
0&
b1100 q
b111111111111 4"
02"
13"
1/"
1.
#570000
0.
#575000
b101 P
b100 C
b11110000 S
b10000 r
b1111111111111111 5"
11"
0l
1]
1m
0i
1e
1&
12"
03"
1/"
1.
#580000
0.
#585000
1l
0]
0m
1i
0e
b10000 r
b1111111111111111 5"
11"
0&
b10000 q
b1111111111111111 4"
02"
13"
1/"
1.
#590000
0.
#595000
b1100001111 O
b1 P
b110 D
b11 B
b0 C
b11111111 S
b10100 r
b11111111111111111111 5"
11"
0l
1]
1m
0i
1e
1&
12"
03"
1/"
1.
#600000
0.
#605000
1l
0]
0m
1i
0e
b10100 r
b11111111111111111111 5"
11"
0&
b10100 q
b11111111111111111111 4"
02"
13"
1/"
1.
#610000
0.
#615000
b101 P
b100 C
b11110000 S
b11000 r
b111111111111111111111111 5"
11"
0l
1]
1m
0i
1e
1&
12"
03"
1/"
1.
#620000
0.
#625000
1l
0]
0m
1i
0e
b11000 r
b111111111111111111111111 5"
11"
0&
b11000 q
b111111111111111111111111 4"
02"
13"
1/"
1.
#630000
0.
#635000
b10000001111 O
b1 P
b111 D
b100 B
b0 C
b11111111 S
b11100 r
b1111111111111111111111111111 5"
11"
0l
1]
1m
0i
1e
1&
12"
03"
1/"
1.
#640000
0.
#645000
1l
0]
0m
1i
0e
b110 7"
b0 (
b0 ,"
0'
b0 t
b11100 r
b1111111111111111111111111111 5"
11"
0&
b11100 q
b1111111111111111111111111111 4"
02"
13"
1/"
1.
#650000
0.
#655000
b101 P
b100 C
b11110000 S
b1000 7"
b11111111111111111111111111111111 (
b11111111111111111111111111111111 ,"
1'
b100 t
b0 r
b0 5"
11"
0l
1]
1m
0i
1e
1&
12"
03"
1/"
1.
#660000
0.
#665000
1l
0]
0m
1)
1i
0e
b0 7"
1x
b0 (
b0 ,"
0'
01"
0&
b100 s
b0 q
b0 4"
b1000 6"
02"
13"
1/"
b11111111111111111111111111111111 =
17
1.
#670000
0.
#675000
b1000000zzzz O
bz |
z!
z"
z#
bz A
bz n
z$
b0z Q
b0 R
b0 L
b0 T
0l
1]
1m
0i
1e
0)
12"
03"
1/"
00"
1*
b0 6"
1.
#680000
0.
#685000
0]
0m
0e
0-"
02"
0/"
1.
