xip_engine_cont_read_tb.vcd
$date
	Wed Sep 10 00:51:34 2025
$end
$version
	Icarus Verilog
$end
$timescale
	1ps
$end
$scope module xip_engine_cont_read_tb $end
$var wire 2 ! addr_lanes_w [1:0] $end
$var wire 2 " cmd_lanes_w [1:0] $end
$var wire 1 # io0 $end
$var wire 1 $ io1 $end
$var wire 1 % io2 $end
$var wire 1 & io3 $end
$var wire 32 ' len_w [31:0] $end
$var wire 1 ( xip_start $end
$var wire 1 ) xip_cont_w $end
$var wire 1 * wready $end
$var wire 1 + tx_empty_w $end
$var wire 32 , tx_data_w [31:0] $end
$var wire 1 - sclk $end
$var wire 32 . rx_word [31:0] $end
$var wire 5 / rx_level [4:0] $end
$var wire 1 0 rx_full $end
$var wire 1 1 rx_empty $end
$var wire 1 2 rvalid $end
$var wire 2 3 rresp [1:0] $end
$var wire 32 4 rdata [31:0] $end
$var wire 1 5 quad_w $end
$var wire 8 6 opcode_w [7:0] $end
$var wire 1 7 mode_en_w $end
$var wire 8 8 mode_bits_w [7:0] $end
$var wire 1 9 fsm_tx_ren $end
$var wire 1 : fsm_rx_wen $end
$var wire 32 ; fsm_rx_data [31:0] $end
$var wire 1 < fsm_done $end
$var wire 1 = fifo_rx_re_w $end
$var wire 4 > dummy_w [3:0] $end
$var wire 1 ? dir_w $end
$var wire 2 @ data_lanes_w [1:0] $end
$var wire 1 A cs_n $end
$var wire 1 B cs_auto_w $end
$var wire 1 C cpol_w $end
$var wire 1 D cpha_w $end
$var wire 32 E clk_div_w [31:0] $end
$var wire 1 F bvalid $end
$var wire 2 G bresp [1:0] $end
$var wire 1 H awready $end
$var wire 1 I arready $end
$var wire 32 J addr_w [31:0] $end
$var wire 2 K addr_bytes_w [1:0] $end
$var reg 32 L araddr [31:0] $end
$var reg 1 M arvalid $end
$var reg 32 N awaddr [31:0] $end
$var reg 1 O awvalid $end
$var reg 1 P bready $end
$var reg 1 Q clk $end
$var reg 3 R clk_div [2:0] $end
$var reg 1 S cpha $end
$var reg 1 T cpol $end
$var reg 1 U cs_auto $end
$var reg 1 V quad_en $end
$var reg 1 W resetn $end
$var reg 1 X rready $end
$var reg 32 Y wdata [31:0] $end
$var reg 4 Z wstrb [3:0] $end
$var reg 1 [ wvalid $end
$var reg 32 \ x0 [31:0] $end
$var reg 32 ] x1 [31:0] $end
$var reg 2 ^ xip_addr_bytes [1:0] $end
$var reg 1 _ xip_cont_read $end
$var reg 2 ` xip_data_lanes [1:0] $end
$var reg 4 a xip_dummy [3:0] $end
$var reg 1 b xip_en $end
$var reg 8 c xip_mode_bits [7:0] $end
$var reg 1 d xip_mode_en $end
$var reg 8 e xip_read_op [7:0] $end
$var reg 1 f xip_write_en $end
$var reg 8 g xip_write_op [7:0] $end
$scope module dev $end
$var wire 1 # qspi_io0 $end
$var wire 1 $ qspi_io1 $end
$var wire 1 % qspi_io2 $end
$var wire 1 & qspi_io3 $end
$var wire 1 - qspi_sclk $end
$var wire 1 A qspi_cs_n $end
$var wire 4 h io_di [3:0] $end
$var reg 24 i addr_reg [23:0] $end
$var reg 32 j bit_cnt [31:0] $end
$var reg 32 k byte_cnt [31:0] $end
$var reg 8 l cmd_reg [7:0] $end
$var reg 1 m continuous_read $end
$var reg 64 n cs_high_accum_t [63:0] $end
$var reg 64 o cs_high_last_t [63:0] $end
$var reg 64 p cs_high_start_t [63:0] $end
$var reg 5 q dummy_cycles [4:0] $end
$var reg 32 r erase_counter [31:0] $end
$var reg 2 s id_idx [1:0] $end
$var reg 24 t id_reg [23:0] $end
$var reg 4 u io_do [3:0] $end
$var reg 4 v io_oe [3:0] $end
$var reg 4 w lanes [3:0] $end
$var reg 1 x last_cmd_wren $end
$var reg 8 y mode_bits [7:0] $end
$var reg 32 z nxt_addr_reg [31:0] $end
$var reg 32 { nxt_bit_cnt [31:0] $end
$var reg 8 | nxt_cmd_reg [7:0] $end
$var reg 8 } shift_in [7:0] $end
$var reg 8 ~ shift_out [7:0] $end
$var reg 4 !" state [3:0] $end
$var reg 8 "" status_reg [7:0] $end
$var reg 1 #" wip $end
$scope begin $unm_blk_215 $end
$var integer 32 $" i [31:0] $end
$upscope $end
$scope begin $unm_blk_241 $end
$var integer 32 %" j [31:0] $end
$upscope $end
$scope begin $unm_blk_252 $end
$var integer 32 &" j [31:0] $end
$upscope $end
$upscope $end
$scope module u_frx $end
$var wire 1 Q clk $end
$var wire 5 '" level_o [4:0] $end
$var wire 32 (" rd_data_o [31:0] $end
$var wire 1 W resetn $end
$var wire 1 : wr_en_i $end
$var wire 32 )" wr_data_i [31:0] $end
$var wire 1 = rd_en_i $end
$var wire 1 0 full_o $end
$var wire 1 1 empty_o $end
$var reg 5 *" count [4:0] $end
$var reg 32 +" rd_data_r [31:0] $end
$var reg 4 ," rd_ptr [3:0] $end
$var reg 4 -" wr_ptr [3:0] $end
$upscope $end
$scope module u_fsm $end
$var wire 2 ." addr_lanes_sel [1:0] $end
$var wire 1 /" bit_tick $end
$var wire 1 Q clk $end
$var wire 2 0" cmd_lanes_sel [1:0] $end
$var wire 2 1" cs_delay [1:0] $end
$var wire 1 < done $end
$var wire 1 # io0 $end
$var wire 1 $ io1 $end
$var wire 1 % io2 $end
$var wire 1 & io3 $end
$var wire 1 2" leading_edge $end
$var wire 32 3" len_bytes [31:0] $end
$var wire 1 W resetn $end
$var wire 1 0 rx_full $end
$var wire 1 4" trailing_edge $end
$var wire 1 9 tx_ren $end
$var wire 1 ) xip_cont_read $end
$var wire 1 + tx_empty $end
$var wire 32 5" tx_data_fifo [31:0] $end
$var wire 1 ( start $end
$var wire 1 6" shift_pulse $end
$var wire 1 - sclk $end
$var wire 1 7" sample_pulse $end
$var wire 1 5 quad_en $end
$var wire 1 7 mode_en $end
$var wire 8 8" mode_bits [7:0] $end
$var wire 4 9" io_di [3:0] $end
$var wire 4 :" dummy_cycles [3:0] $end
$var wire 1 ? dir $end
$var wire 2 ;" data_lanes_sel [1:0] $end
$var wire 8 <" cs_delay_cycles [7:0] $end
$var wire 1 B cs_auto $end
$var wire 1 C cpol $end
$var wire 1 D cpha $end
$var wire 8 =" cmd_opcode [7:0] $end
$var wire 32 >" clk_div [31:0] $end
$var wire 2 ?" addr_bytes_sel [1:0] $end
$var wire 6 @" addr_bits [5:0] $end
$var wire 32 A" addr [31:0] $end
$var reg 3 B" addr_lanes_eff [2:0] $end
$var reg 6 C" bit_cnt [5:0] $end
$var reg 6 D" bit_cnt_n [5:0] $end
$var reg 32 E" byte_cnt [31:0] $end
$var reg 32 F" byte_cnt_n [31:0] $end
$var reg 3 G" cmd_lanes_eff [2:0] $end
$var reg 8 H" cs_cnt [7:0] $end
$var reg 8 I" cs_cnt_n [7:0] $end
$var reg 1 A cs_n $end
$var reg 1 J" cs_n_n $end
$var reg 3 K" data_lanes_eff [2:0] $end
$var reg 4 L" dummy_cnt [3:0] $end
$var reg 4 M" dummy_cnt_n [3:0] $end
$var reg 4 N" in_bits [3:0] $end
$var reg 4 O" io_oe [3:0] $end
$var reg 4 P" io_oe_n [3:0] $end
$var reg 1 Q" is_write_cmd $end
$var reg 1 R" is_write_cmd_n $end
$var reg 3 S" lanes [2:0] $end
$var reg 3 T" lanes_n [2:0] $end
$var reg 4 U" out_bits [3:0] $end
$var reg 1 V" post_hold_write $end
$var reg 1 W" post_hold_write_n $end
$var reg 1 X" rd_warmup $end
$var reg 4 Y" rd_warmup_cnt [3:0] $end
$var reg 4 Z" rd_warmup_cnt_n [3:0] $end
$var reg 1 [" rd_warmup_n $end
$var reg 32 \" rx_data_fifo [31:0] $end
$var reg 1 : rx_wen $end
$var reg 1 ]" sclk_armed $end
$var reg 32 ^" sclk_cnt [31:0] $end
$var reg 1 _" sclk_edge $end
$var reg 1 `" sclk_en $end
$var reg 1 a" sclk_en_n $end
$var reg 1 b" sclk_q $end
$var reg 1 c" sclk_q_prev $end
$var reg 32 d" shreg [31:0] $end
$var reg 32 e" shreg_n [31:0] $end
$var reg 4 f" state [3:0] $end
$var reg 4 g" state_n [3:0] $end
$scope function lane_decode $end
$var reg 2 h" sel [1:0] $end
$upscope $end
$scope function lane_mask $end
$var reg 3 i" lanes [2:0] $end
$upscope $end
$scope function rev8 $end
$var reg 8 j" b [7:0] $end
$upscope $end
$upscope $end
$scope module u_xip $end
$var wire 2 k" addr_lanes_o [1:0] $end
$var wire 32 l" addr_o [31:0] $end
$var wire 1 m" ar_ready_w $end
$var wire 32 n" araddr_i [31:0] $end
$var wire 1 M arvalid_i $end
$var wire 1 o" aw_ready_w $end
$var wire 32 p" awaddr_i [31:0] $end
$var wire 1 O awvalid_i $end
$var wire 1 P bready_i $end
$var wire 1 q" busy_o $end
$var wire 1 Q clk $end
$var wire 3 r" clk_div_i [2:0] $end
$var wire 32 s" clk_div_o [31:0] $end
$var wire 1 t" cmd_busy_i $end
$var wire 2 u" cmd_lanes_o [1:0] $end
$var wire 1 S cpha_i $end
$var wire 1 T cpol_i $end
$var wire 1 U cs_auto_i $end
$var wire 1 B cs_auto_o $end
$var wire 2 v" data_lanes_o [1:0] $end
$var wire 1 ? dir_o $end
$var wire 1 < done_i $end
$var wire 32 w" fifo_rx_data_i [31:0] $end
$var wire 32 x" len_o [31:0] $end
$var wire 8 y" mode_bits_o [7:0] $end
$var wire 8 z" opcode_o [7:0] $end
$var wire 1 V quad_en_i $end
$var wire 1 5 quad_en_o $end
$var wire 1 W resetn $end
$var wire 1 X rready_i $end
$var wire 1 9 tx_ren_i $end
$var wire 1 {" w_ready_w $end
$var wire 32 |" wdata_i [31:0] $end
$var wire 4 }" wstrb_i [3:0] $end
$var wire 1 [ wvalid_i $end
$var wire 2 ~" xip_addr_bytes_i [1:0] $end
$var wire 1 _ xip_cont_read_i $end
$var wire 1 ) xip_cont_read_o $end
$var wire 2 !# xip_data_lanes_i [1:0] $end
$var wire 4 "# xip_dummy_cycles_i [3:0] $end
$var wire 1 b xip_en_i $end
$var wire 8 ## xip_mode_bits_i [7:0] $end
$var wire 1 d xip_mode_en_i $end
$var wire 8 $# xip_read_op_i [7:0] $end
$var wire 1 f xip_write_en_i $end
$var wire 8 %# xip_write_op_i [7:0] $end
$var wire 1 7 mode_en_o $end
$var wire 4 &# dummy_cycles_o [3:0] $end
$var wire 1 C cpol_o $end
$var wire 1 D cpha_o $end
$var wire 2 '# addr_bytes_o [1:0] $end
$var reg 2 (# addr_bytes_r [1:0] $end
$var reg 32 )# addr_r [31:0] $end
$var reg 1 I arready_o $end
$var reg 1 H awready_o $end
$var reg 2 *# bresp_o [1:0] $end
$var reg 1 +# busy_r $end
$var reg 1 F bvalid_o $end
$var reg 32 ,# clk_div_r [31:0] $end
$var reg 1 D cpha_r $end
$var reg 1 C cpol_r $end
$var reg 1 -# cs_auto_r $end
$var reg 2 .# data_lanes_r [1:0] $end
$var reg 4 /# dummy_cycles_r [3:0] $end
$var reg 1 = fifo_rx_re_o $end
$var reg 1 0# is_write_r $end
$var reg 8 1# mode_bits_r [7:0] $end
$var reg 1 7 mode_en_r $end
$var reg 8 2# opcode_r [7:0] $end
$var reg 1 3# quad_en_r $end
$var reg 32 4# rdata_o [31:0] $end
$var reg 2 5# rresp_o [1:0] $end
$var reg 1 2 rvalid_o $end
$var reg 1 ( start_o $end
$var reg 3 6# state [2:0] $end
$var reg 32 7# tx_data_o [31:0] $end
$var reg 1 + tx_empty_o $end
$var reg 32 8# wdata_r [31:0] $end
$var reg 1 * wready_o $end
$var reg 1 9# xip_active_o $end
$var reg 1 :# xip_cont_read_r $end
$upscope $end
$scope task axi_read $end
$var reg 32 ;# addr [31:0] $end
$var reg 32 <# data [31:0] $end
$upscope $end
$upscope $end
$enddefinitions $end
#0
$dumpvars
bx <#
bx ;#
x:#
x9#
bx 8#
bx 7#
bx 6#
bx 5#
bx 4#
x3#
bx 2#
bx 1#
x0#
bx /#
bx .#
x-#
bx ,#
x+#
bx *#
bx )#
bx (#
bx '#
bx &#
b10 %#
b1011 $#
b0 ##
b1000 "#
b0 !#
b1 ~"
b0 }"
b0 |"
0{"
bx z"
bx y"
b100 x"
b0 w"
bx v"
b0 u"
0t"
bx s"
b0 r"
xq"
b0 p"
0o"
b0 n"
0m"
bx l"
b0 k"
bx j"
bx i"
bx h"
b0 g"
b0 f"
b0 e"
b0 d"
0c"
0b"
0a"
0`"
0_"
b0 ^"
0]"
b0 \"
0["
b0 Z"
b0 Y"
0X"
0W"
0V"
b0 U"
b1 T"
b1 S"
0R"
0Q"
b0 P"
b0 O"
b0z N"
b0 M"
b0 L"
bx0x K"
1J"
b0 I"
b0 H"
b1 G"
b0 F"
b0 E"
b0 D"
b0 C"
b1 B"
bx A"
bx000 @"
bx ?"
bx >"
bx ="
b0 <"
bx ;"
bx :"
bz 9"
bx 8"
07"
06"
bx 5"
04"
b100 3"
02"
b0 1"
b0 0"
0/"
b0 ."
b0 -"
b0 ,"
b0 +"
b0 *"
b0 )"
b0 ("
b0 '"
bx &"
bx %"
b100000000000000000000 $"
0#"
b0 ""
b0 !"
b0 ~
b0 }
b0z |
b1 {
b0zzzz z
b0 y
0x
b0 w
b0 v
bx u
b110000100010000000010111 t
b0 s
b0 r
b0 q
b0 p
b0 o
b0 n
0m
b0 l
b0 k
b0 j
b0 i
bz h
b10 g
0f
b1011 e
0d
b0 c
0b
b1000 a
b0 `
1_
b1 ^
bx ]
bx \
0[
b0 Z
b0 Y
0X
0W
0V
0U
0T
0S
b0 R
0Q
1P
0O
b0 N
0M
b0 L
bx K
bx J
xI
xH
bx G
xF
bx E
xD
xC
xB
1A
bx @
x?
bx >
x=
0<
b0 ;
0:
09
bx 8
x7
bx 6
x5
bx 4
bx 3
x2
11
00
b0 /
b0 .
x-
bx ,
x+
x*
x)
x(
b100 '
z&
z%
z$
z#
b0 "
b0 !
$end
#5000
09#
1+
b0 ,
b0 5"
b0 7#
b0 3
b0 5#
b0 G
b0 *#
0F
02
0*
0H
0I
0=
0(
0q"
0+#
b0 6#
1Q
#10000
0Q
#15000
1Q
#20000
0Q
#25000
1Q
#30000
0Q
#35000
1Q
#40000
0Q
#45000
1Q
#50000
0Q
#55000
1Q
#60000
0Q
#65000
1Q
#70000
0Q
#75000
xc"
xb"
1m"
1b
1W
1Q
#80000
0Q
#85000
1I
1Q
#90000
0Q
#95000
1Q
#100000
0Q
#105000
1Q
#110000
0Q
#115000
1M
b0 ;#
1Q
#120000
0Q
#125000
0m"
1?
0-
b11000 @"
b1 K"
b0 h"
0W"
0R"
b1011000000000000000000000000 e"
b1 g"
b1 6#
1(
1q"
1+#
00#
0B
0-#
05
03#
0D
0C
b0 E
b0 >"
b0 s"
b0 ,#
1)
1:#
07
b1000 >
b1000 :"
b1000 &#
b1000 /#
b0 @
b0 ;"
b0 v"
b0 .#
b1 K
b1 ?"
b1 '#
b1 (#
b0 8
b0 8"
b0 y"
b0 1#
b1011 6
b1011 ="
b1011 z"
b1011 2#
b0 J
b0 A"
b0 l"
b0 )#
0M
1Q
#130000
0Q
#135000
b10 g"
0J"
0c"
0b"
b1011000000000000000000000000 d"
b1 f"
19#
0I
0(
1Q
#140000
0Q
#145000
b1 P"
b1 i"
1a"
0A
b10 f"
1Q
#150000
0Q
#155000
b0zzz0 z
b0 |
bz0 h
bz0 9"
0#
1`"
b1 O"
1Q
#160000
0Q
#165000
1]"
1Q
#170000
0Q
#175000
b0 z
b10 {
b1 w
b1 j
b1 !"
b1 D"
b10110000000000000000000000000 e"
1a"
b1 P"
1/"
17"
12"
1-
1_"
1b"
1Q
#180000
0Q
#185000
16"
0/"
07"
14"
02"
b1 D"
b10110000000000000000000000000 e"
1a"
b1 P"
0-
b1 C"
b10110000000000000000000000000 d"
0b"
1c"
1_"
1Q
#190000
0Q
#195000
b11 {
b10 j
b10 D"
b101100000000000000000000000000 e"
1a"
b1 P"
06"
1/"
17"
04"
12"
1-
1b"
0c"
1_"
1Q
#200000
0Q
#205000
16"
0/"
07"
14"
02"
b10 D"
b101100000000000000000000000000 e"
1a"
b1 P"
0-
b10 C"
b101100000000000000000000000000 d"
0b"
1c"
1_"
1Q
#210000
0Q
#215000
b100 {
b11 j
b11 D"
b1011000000000000000000000000000 e"
1a"
b1 P"
06"
1/"
17"
04"
12"
1-
1b"
0c"
1_"
1Q
#220000
0Q
#225000
16"
0/"
07"
14"
02"
b11 D"
b1011000000000000000000000000000 e"
1a"
b1 P"
0-
b11 C"
b1011000000000000000000000000000 d"
0b"
1c"
1_"
1Q
#230000
0Q
#235000
b101 {
b100 j
b100 D"
b10110000000000000000000000000000 e"
1a"
b1 P"
06"
1/"
17"
04"
12"
1-
1b"
0c"
1_"
1Q
#240000
0Q
#245000
b1 z
b1 |
bz1 h
bz1 9"
1#
16"
0/"
07"
14"
02"
b100 D"
b10110000000000000000000000000000 e"
1a"
b1 P"
b1 U"
0-
b100 C"
b10110000000000000000000000000000 d"
0b"
1c"
1_"
1Q
#250000
0Q
#255000
b11 z
b110 {
b11 |
b101 j
b1 }
b101 D"
b1100000000000000000000000000000 e"
1a"
b1 P"
06"
1/"
17"
04"
12"
1-
1b"
0c"
1_"
1Q
#260000
0Q
#265000
b10 z
b10 |
bz0 h
bz0 9"
0#
16"
0/"
07"
14"
02"
b101 D"
b1100000000000000000000000000000 e"
1a"
b1 P"
b0 U"
0-
b101 C"
b1100000000000000000000000000000 d"
0b"
1c"
1_"
1Q
#270000
0Q
#275000
b100 z
b111 {
b100 |
b110 j
b10 }
b110 D"
b11000000000000000000000000000000 e"
1a"
b1 P"
06"
1/"
17"
04"
12"
1-
1b"
0c"
1_"
1Q
#280000
0Q
#285000
b101 z
b101 |
bz1 h
bz1 9"
1#
16"
0/"
07"
14"
02"
b110 D"
b11000000000000000000000000000000 e"
1a"
b1 P"
b1 U"
0-
b110 C"
b11000000000000000000000000000000 d"
0b"
1c"
1_"
1Q
#290000
0Q
#295000
b1011 z
b1000 {
b1011 |
b111 j
b101 }
b111 D"
b10000000000000000000000000000000 e"
1a"
b1 P"
06"
1/"
17"
04"
12"
1-
1b"
0c"
1_"
1Q
#300000
0Q
#305000
16"
0/"
07"
14"
02"
b10 g"
b111 D"
b10000000000000000000000000000000 e"
1a"
b1 P"
0-
b111 C"
b10000000000000000000000000000000 d"
0b"
1c"
1_"
1Q
#310000
0Q
#315000
b1 z
b1 {
b1 |
b1000 q
b10 !"
b1011 l
b0 j
b0 }
b11 g"
b0 D"
b0 e"
1a"
b1 P"
06"
1/"
17"
04"
12"
1-
1b"
0c"
1_"
1Q
#320000
0Q
#325000
b0 z
b0 |
bz0 h
bz0 9"
0#
16"
0/"
07"
14"
02"
b0 U"
b0 D"
1a"
b1 P"
0-
b0 C"
b0 d"
b11 f"
0b"
1c"
1_"
1Q
#330000
0Q
#335000
b10 {
b1 j
b1 D"
1a"
b1 P"
06"
1/"
17"
04"
12"
1-
1b"
0c"
1_"
1Q
#340000
0Q
#345000
16"
0/"
07"
14"
02"
b1 D"
1a"
b1 P"
0-
b1 C"
0b"
1c"
1_"
1Q
#350000
0Q
#355000
b11 {
b10 j
b10 D"
1a"
b1 P"
06"
1/"
17"
04"
12"
1-
1b"
0c"
1_"
1Q
#360000
0Q
#365000
16"
0/"
07"
14"
02"
b10 D"
1a"
b1 P"
0-
b10 C"
0b"
1c"
1_"
1Q
#370000
0Q
#375000
b100 {
b11 j
b11 D"
1a"
b1 P"
06"
1/"
17"
04"
12"
1-
1b"
0c"
1_"
1Q
#380000
0Q
#385000
16"
0/"
07"
14"
02"
b11 D"
1a"
b1 P"
0-
b11 C"
0b"
1c"
1_"
1Q
#390000
0Q
#395000
b101 {
b100 j
b100 D"
1a"
b1 P"
06"
1/"
17"
04"
12"
1-
1b"
0c"
1_"
1Q
#400000
0Q
#405000
16"
0/"
07"
14"
02"
b100 D"
1a"
b1 P"
0-
b100 C"
0b"
1c"
1_"
1Q
#410000
0Q
#415000
b110 {
b101 j
b101 D"
1a"
b1 P"
06"
1/"
17"
04"
12"
1-
1b"
0c"
1_"
1Q
#420000
0Q
#425000
16"
0/"
07"
14"
02"
b101 D"
1a"
b1 P"
0-
b101 C"
0b"
1c"
1_"
1Q
#430000
0Q
#435000
b111 {
b110 j
b110 D"
1a"
b1 P"
06"
1/"
17"
04"
12"
1-
1b"
0c"
1_"
1Q
#440000
0Q
#445000
16"
0/"
07"
14"
02"
b110 D"
1a"
b1 P"
0-
b110 C"
0b"
1c"
1_"
1Q
#450000
0Q
#455000
b1000 {
b111 j
b111 D"
1a"
b1 P"
06"
1/"
17"
04"
12"
1-
1b"
0c"
1_"
1Q
#460000
0Q
#465000
16"
0/"
07"
14"
02"
b111 D"
1a"
b1 P"
0-
b111 C"
0b"
1c"
1_"
1Q
#470000
0Q
#475000
b1 {
b1 k
b0 j
b1000 D"
1a"
b1 P"
06"
1/"
17"
04"
12"
1-
1b"
0c"
1_"
1Q
#480000
0Q
#485000
16"
0/"
07"
14"
02"
b1000 D"
1a"
b1 P"
0-
b1000 C"
0b"
1c"
1_"
1Q
#490000
0Q
#495000
b10 {
b1 j
b1001 D"
1a"
b1 P"
06"
1/"
17"
04"
12"
1-
1b"
0c"
1_"
1Q
#500000
0Q
#505000
16"
0/"
07"
14"
02"
b1001 D"
1a"
b1 P"
0-
b1001 C"
0b"
1c"
1_"
1Q
#510000
0Q
#515000
b11 {
b10 j
b1010 D"
1a"
b1 P"
06"
1/"
17"
04"
12"
1-
1b"
0c"
1_"
1Q
#520000
0Q
#525000
16"
0/"
07"
14"
02"
b1010 D"
1a"
b1 P"
0-
b1010 C"
0b"
1c"
1_"
1Q
#530000
0Q
#535000
b100 {
b11 j
b1011 D"
1a"
b1 P"
06"
1/"
17"
04"
12"
1-
1b"
0c"
1_"
1Q
#540000
0Q
#545000
16"
0/"
07"
14"
02"
b1011 D"
1a"
b1 P"
0-
b1011 C"
0b"
1c"
1_"
1Q
#550000
0Q
#555000
b101 {
b100 j
b1100 D"
1a"
b1 P"
06"
1/"
17"
04"
12"
1-
1b"
0c"
1_"
1Q
#560000
0Q
#565000
16"
0/"
07"
14"
02"
b1100 D"
1a"
b1 P"
0-
b1100 C"
0b"
1c"
1_"
1Q
#570000
0Q
#575000
b110 {
b101 j
b1101 D"
1a"
b1 P"
06"
1/"
17"
04"
12"
1-
1b"
0c"
1_"
1Q
#580000
0Q
#585000
16"
0/"
07"
14"
02"
b1101 D"
1a"
b1 P"
0-
b1101 C"
0b"
1c"
1_"
1Q
#590000
0Q
#595000
b111 {
b110 j
b1110 D"
1a"
b1 P"
06"
1/"
17"
04"
12"
1-
1b"
0c"
1_"
1Q
#600000
0Q
#605000
16"
0/"
07"
14"
02"
b1110 D"
1a"
b1 P"
0-
b1110 C"
0b"
1c"
1_"
1Q
#610000
0Q
#615000
b1000 {
b111 j
b1111 D"
1a"
b1 P"
06"
1/"
17"
04"
12"
1-
1b"
0c"
1_"
1Q
#620000
0Q
#625000
16"
0/"
07"
14"
02"
b1111 D"
1a"
b1 P"
0-
b1111 C"
0b"
1c"
1_"
1Q
#630000
0Q
#635000
b1 {
b10 k
b0 j
b10000 D"
1a"
b1 P"
06"
1/"
17"
04"
12"
1-
1b"
0c"
1_"
1Q
#640000
0Q
#645000
16"
0/"
07"
14"
02"
b10000 D"
1a"
b1 P"
0-
b10000 C"
0b"
1c"
1_"
1Q
#650000
0Q
#655000
b10 {
b1 j
b10001 D"
1a"
b1 P"
06"
1/"
17"
04"
12"
1-
1b"
0c"
1_"
1Q
#660000
0Q
#665000
16"
0/"
07"
14"
02"
b10001 D"
1a"
b1 P"
0-
b10001 C"
0b"
1c"
1_"
1Q
#670000
0Q
#675000
b11 {
b10 j
b10010 D"
1a"
b1 P"
06"
1/"
17"
04"
12"
1-
1b"
0c"
1_"
1Q
#680000
0Q
#685000
16"
0/"
07"
14"
02"
b10010 D"
1a"
b1 P"
0-
b10010 C"
0b"
1c"
1_"
1Q
#690000
0Q
#695000
b100 {
b11 j
b10011 D"
1a"
b1 P"
06"
1/"
17"
04"
12"
1-
1b"
0c"
1_"
1Q
#700000
0Q
#705000
16"
0/"
07"
14"
02"
b10011 D"
1a"
b1 P"
0-
b10011 C"
0b"
1c"
1_"
1Q
#710000
0Q
#715000
b101 {
b100 j
b10100 D"
1a"
b1 P"
06"
1/"
17"
04"
12"
1-
1b"
0c"
1_"
1Q
#720000
0Q
#725000
16"
0/"
07"
14"
02"
b10100 D"
1a"
b1 P"
0-
b10100 C"
0b"
1c"
1_"
1Q
#730000
0Q
#735000
b110 {
b101 j
b10101 D"
1a"
b1 P"
06"
1/"
17"
04"
12"
1-
1b"
0c"
1_"
1Q
#740000
0Q
#745000
16"
0/"
07"
14"
02"
b10101 D"
1a"
b1 P"
0-
b10101 C"
0b"
1c"
1_"
1Q
#750000
0Q
#755000
b111 {
b110 j
b10110 D"
1a"
b1 P"
06"
1/"
17"
04"
12"
1-
1b"
0c"
1_"
1Q
#760000
0Q
#765000
16"
0/"
07"
14"
02"
b10110 D"
1a"
b1 P"
0-
b10110 C"
0b"
1c"
1_"
1Q
#770000
0Q
#775000
b1000 {
b111 j
b10111 D"
1a"
b1 P"
06"
1/"
17"
04"
12"
1-
1b"
0c"
1_"
1Q
#780000
0Q
#785000
16"
0/"
07"
14"
02"
b0 M"
b11 g"
b10111 D"
1a"
b1 P"
0-
b10111 C"
0b"
1c"
1_"
1Q
#790000
0Q
#795000
b1 {
b100 !"
b11 k
b0 j
b1000 M"
b101 g"
b0 D"
1a"
b1 P"
06"
1/"
17"
04"
12"
1-
1b"
0c"
1_"
1Q
#800000
0Q
#805000
16"
0/"
07"
14"
02"
b1000 M"
1a"
b0 P"
0-
b1000 L"
b0 C"
b101 f"
0b"
1c"
1_"
1Q
#810000
0Q
#815000
b10 {
b1 j
b111 M"
1a"
06"
1/"
17"
b0z z
b0z |
04"
12"
bz h
bz 9"
z#
1-
1b"
0c"
1_"
b0 O"
1Q
#820000
0Q
#825000
16"
0/"
07"
14"
02"
b111 M"
1a"
0-
b111 L"
0b"
1c"
1_"
1Q
#830000
0Q
#835000
b11 {
b10 j
b110 M"
1a"
06"
1/"
17"
04"
12"
1-
1b"
0c"
1_"
1Q
#840000
0Q
#845000
16"
0/"
07"
14"
02"
b110 M"
1a"
0-
b110 L"
0b"
1c"
1_"
1Q
#850000
0Q
#855000
b100 {
b11 j
b101 M"
1a"
06"
1/"
17"
04"
12"
1-
1b"
0c"
1_"
1Q
#860000
0Q
#865000
16"
0/"
07"
14"
02"
b101 M"
1a"
0-
b101 L"
0b"
1c"
1_"
1Q
#870000
0Q
#875000
b101 {
b100 j
b100 M"
1a"
06"
1/"
17"
04"
12"
1-
1b"
0c"
1_"
1Q
#880000
0Q
#885000
16"
0/"
07"
14"
02"
b100 M"
1a"
0-
b100 L"
0b"
1c"
1_"
1Q
#890000
0Q
#895000
b110 {
b101 j
b11 M"
1a"
06"
1/"
17"
04"
12"
1-
1b"
0c"
1_"
1Q
#900000
0Q
#905000
16"
0/"
07"
14"
02"
b11 M"
1a"
0-
b11 L"
0b"
1c"
1_"
1Q
#910000
0Q
#915000
b111 {
b110 j
b10 M"
1a"
06"
1/"
17"
04"
12"
1-
1b"
0c"
1_"
1Q
#920000
0Q
#925000
16"
0/"
07"
14"
02"
b10 M"
1a"
0-
b10 L"
0b"
1c"
1_"
1Q
#930000
0Q
#935000
b1000 {
b111 j
b1 M"
1a"
06"
1/"
17"
04"
12"
1-
1b"
0c"
1_"
1Q
#940000
0Q
#945000
16"
0/"
07"
14"
02"
0["
b101 g"
b1 M"
1a"
0-
b1 L"
0b"
1c"
1_"
1Q
#950000
0Q
#955000
b0x N"
bzxz h
bzxz 9"
x$
b1 {
b11111111 ~
b10 v
b101 !"
b0 j
1["
b110 g"
b0 M"
1a"
06"
1/"
17"
04"
12"
1-
1b"
0c"
1_"
1Q
#960000
0Q
#965000
16"
0/"
07"
14"
02"
1["
1a"
0-
1X"
b0 L"
b110 f"
0b"
1c"
1_"
1Q
#970000
0Q
#975000
b10 {
b1 j
b11111110 ~
b1 N"
bz1z h
bz1z 9"
1$
0["
1a"
06"
1/"
17"
bx1x u
04"
12"
1-
1b"
0c"
1_"
1Q
#980000
0Q
#985000
16"
0/"
07"
14"
02"
b0 D"
b0 e"
1a"
0-
0X"
0b"
1c"
1_"
1Q
#990000
0Q
#995000
b11 {
b10 j
b11111100 ~
b1 D"
b1 e"
1a"
06"
1/"
17"
04"
12"
1-
1b"
0c"
1_"
1Q
#1000000
0Q
#1005000
16"
0/"
07"
14"
02"
b1 D"
b1 e"
1a"
0-
b1 C"
b1 d"
0b"
1c"
1_"
1Q
#1010000
0Q
#1015000
b100 {
b11 j
b11111000 ~
b10 D"
b11 e"
1a"
06"
1/"
17"
04"
12"
1-
1b"
0c"
1_"
1Q
#1020000
0Q
#1025000
16"
0/"
07"
14"
02"
b10 D"
b11 e"
1a"
0-
b10 C"
b11 d"
0b"
1c"
1_"
1Q
#1030000
0Q
#1035000
b101 {
b100 j
b11110000 ~
b11 D"
b111 e"
1a"
06"
1/"
17"
04"
12"
1-
1b"
0c"
1_"
1Q
#1040000
0Q
#1045000
16"
0/"
07"
14"
02"
b11 D"
b111 e"
1a"
0-
b11 C"
b111 d"
0b"
1c"
1_"
1Q
#1050000
0Q
#1055000
b110 {
b101 j
b11100000 ~
b100 D"
b1111 e"
1a"
06"
1/"
17"
04"
12"
1-
1b"
0c"
1_"
1Q
#1060000
0Q
#1065000
16"
0/"
07"
14"
02"
b100 D"
b1111 e"
1a"
0-
b100 C"
b1111 d"
0b"
1c"
1_"
1Q
#1070000
0Q
#1075000
b111 {
b110 j
b11000000 ~
b101 D"
b11111 e"
1a"
06"
1/"
17"
04"
12"
1-
1b"
0c"
1_"
1Q
